<svg xmlns="http://www.w3.org/2000/svg" viewBox="0 0 300 300">
  <circle cx="150" cy="150" r="50%" fill="#EF161E" stroke-width="5px" stroke="white" />
  <text x="90" y="220" fill="white" font-size="13em" >7</text>
</svg>
