<?xml version="1.0" encoding="UTF-8"?>
<gpx version="1.0" creator="Calcul itineraires - www.calculitineraires.fr" xmlns:xsi="http://www.w3.org/2001/XMLSchema-instance" xmlns="http://www.topografix.com/GPX/1/0" xsi:schemaLocation="http://www.topografix.com/GPX/1/0 http://www.topografix.com/GPX/1/0/gpx.xsd">
<trk>
<name>A15 - 60km - Bougy lez Neuville</name>
<trkseg>
<trkpt lat="47.94212982618003" lon="1.813666820526123">
</trkpt>
<trkpt lat="47.94212" lon="1.8136800000000002">
</trkpt>
<trkpt lat="47.9423" lon="1.8140500000000002">
</trkpt>
<trkpt lat="47.94259" lon="1.81387">
</trkpt>
<trkpt lat="47.942840000000004" lon="1.8145600000000002">
</trkpt>
<trkpt lat="47.94323000000001" lon="1.81543">
</trkpt>
<trkpt lat="47.943400000000004" lon="1.81576">
</trkpt>
<trkpt lat="47.94348" lon="1.8158500000000002">
</trkpt>
<trkpt lat="47.94350000000001" lon="1.8158400000000001">
</trkpt>
<trkpt lat="47.94359" lon="1.8158500000000002">
</trkpt>
<trkpt lat="47.94368" lon="1.8159500000000002">
</trkpt>
<trkpt lat="47.94370000000001" lon="1.816">
</trkpt>
<trkpt lat="47.94373" lon="1.8160200000000002">
</trkpt>
<trkpt lat="47.94379000000001" lon="1.8160500000000002">
</trkpt>
<trkpt lat="47.943900000000006" lon="1.81621">
</trkpt>
<trkpt lat="47.94445" lon="1.8173400000000002">
</trkpt>
<trkpt lat="47.94549000000001" lon="1.81946">
</trkpt>
<trkpt lat="47.94559" lon="1.81939">
</trkpt>
<trkpt lat="47.94559" lon="1.81939">
</trkpt>
<trkpt lat="47.946720000000006" lon="1.8184300000000002">
</trkpt>
<trkpt lat="47.946920000000006" lon="1.8182300000000002">
</trkpt>
<trkpt lat="47.94735000000001" lon="1.81898">
</trkpt>
<trkpt lat="47.94737000000001" lon="1.8190100000000002">
</trkpt>
<trkpt lat="47.947500000000005" lon="1.8193000000000001">
</trkpt>
<trkpt lat="47.947680000000005" lon="1.8197800000000002">
</trkpt>
<trkpt lat="47.94805" lon="1.8205200000000001">
</trkpt>
<trkpt lat="47.948100000000004" lon="1.8206700000000002">
</trkpt>
<trkpt lat="47.94811000000001" lon="1.8208700000000002">
</trkpt>
<trkpt lat="47.94809" lon="1.8215100000000002">
</trkpt>
<trkpt lat="47.947990000000004" lon="1.8221900000000002">
</trkpt>
<trkpt lat="47.947880000000005" lon="1.8226400000000003">
</trkpt>
<trkpt lat="47.94787" lon="1.8228600000000001">
</trkpt>
<trkpt lat="47.94787" lon="1.8231000000000002">
</trkpt>
<trkpt lat="47.94794" lon="1.8236700000000001">
</trkpt>
<trkpt lat="47.94814" lon="1.8250100000000002">
</trkpt>
<trkpt lat="47.948170000000005" lon="1.82529">
</trkpt>
<trkpt lat="47.948350000000005" lon="1.8264700000000003">
</trkpt>
<trkpt lat="47.94859" lon="1.8278800000000002">
</trkpt>
<trkpt lat="47.948890000000006" lon="1.83003">
</trkpt>
<trkpt lat="47.948910000000005" lon="1.8301800000000001">
</trkpt>
<trkpt lat="47.94894000000001" lon="1.8303300000000002">
</trkpt>
<trkpt lat="47.94895" lon="1.8304500000000001">
</trkpt>
<trkpt lat="47.94896000000001" lon="1.8305700000000003">
</trkpt>
<trkpt lat="47.94901" lon="1.8306000000000002">
</trkpt>
<trkpt lat="47.949040000000004" lon="1.8305900000000002">
</trkpt>
<trkpt lat="47.949040000000004" lon="1.8305900000000002">
</trkpt>
<trkpt lat="47.949070000000006" lon="1.8305500000000001">
</trkpt>
<trkpt lat="47.94908" lon="1.8305200000000001">
</trkpt>
<trkpt lat="47.949290000000005" lon="1.8304200000000002">
</trkpt>
<trkpt lat="47.949540000000006" lon="1.8303300000000002">
</trkpt>
<trkpt lat="47.949630000000006" lon="1.8302800000000001">
</trkpt>
<trkpt lat="47.950450000000004" lon="1.8298900000000002">
</trkpt>
<trkpt lat="47.951510000000006" lon="1.82939">
</trkpt>
<trkpt lat="47.95215" lon="1.82922">
</trkpt>
<trkpt lat="47.952380000000005" lon="1.82912">
</trkpt>
<trkpt lat="47.95268" lon="1.8289400000000002">
</trkpt>
<trkpt lat="47.952890000000004" lon="1.82881">
</trkpt>
<trkpt lat="47.953100000000006" lon="1.8286300000000002">
</trkpt>
<trkpt lat="47.953720000000004" lon="1.828">
</trkpt>
<trkpt lat="47.954100000000004" lon="1.82753">
</trkpt>
<trkpt lat="47.95438" lon="1.8272400000000002">
</trkpt>
<trkpt lat="47.95472" lon="1.82705">
</trkpt>
<trkpt lat="47.955830000000006" lon="1.8264900000000002">
</trkpt>
<trkpt lat="47.955940000000005" lon="1.8264500000000001">
</trkpt>
<trkpt lat="47.95602" lon="1.8264300000000002">
</trkpt>
<trkpt lat="47.95615" lon="1.8264500000000001">
</trkpt>
<trkpt lat="47.95653" lon="1.82671">
</trkpt>
<trkpt lat="47.956720000000004" lon="1.8267700000000002">
</trkpt>
<trkpt lat="47.958070000000006" lon="1.8269000000000002">
</trkpt>
<trkpt lat="47.95928000000001" lon="1.8270100000000002">
</trkpt>
<trkpt lat="47.96078000000001" lon="1.8271300000000001">
</trkpt>
<trkpt lat="47.96078000000001" lon="1.8271300000000001">
</trkpt>
<trkpt lat="47.96105000000001" lon="1.82715">
</trkpt>
<trkpt lat="47.96123" lon="1.8272000000000002">
</trkpt>
<trkpt lat="47.961560000000006" lon="1.8274100000000002">
</trkpt>
<trkpt lat="47.96276" lon="1.82844">
</trkpt>
<trkpt lat="47.964090000000006" lon="1.8296000000000001">
</trkpt>
<trkpt lat="47.965250000000005" lon="1.83058">
</trkpt>
<trkpt lat="47.96598" lon="1.83122">
</trkpt>
<trkpt lat="47.9684" lon="1.8333100000000002">
</trkpt>
<trkpt lat="47.96855" lon="1.8335100000000002">
</trkpt>
<trkpt lat="47.96869" lon="1.8337900000000003">
</trkpt>
<trkpt lat="47.96876" lon="1.834">
</trkpt>
<trkpt lat="47.9688" lon="1.8342600000000002">
</trkpt>
<trkpt lat="47.969100000000005" lon="1.8377200000000002">
</trkpt>
<trkpt lat="47.96913000000001" lon="1.8379100000000002">
</trkpt>
<trkpt lat="47.96923" lon="1.8382300000000003">
</trkpt>
<trkpt lat="47.969370000000005" lon="1.8385200000000002">
</trkpt>
<trkpt lat="47.96958" lon="1.8388000000000002">
</trkpt>
<trkpt lat="47.969840000000005" lon="1.8390300000000002">
</trkpt>
<trkpt lat="47.96999" lon="1.8391000000000002">
</trkpt>
<trkpt lat="47.970060000000004" lon="1.8391300000000002">
</trkpt>
<trkpt lat="47.97216" lon="1.8391100000000002">
</trkpt>
<trkpt lat="47.972350000000006" lon="1.83912">
</trkpt>
<trkpt lat="47.972570000000005" lon="1.83919">
</trkpt>
<trkpt lat="47.972710000000006" lon="1.8392600000000001">
</trkpt>
<trkpt lat="47.973670000000006" lon="1.8399500000000002">
</trkpt>
<trkpt lat="47.976290000000006" lon="1.8418">
</trkpt>
<trkpt lat="47.97637" lon="1.8418500000000002">
</trkpt>
<trkpt lat="47.97637" lon="1.8418500000000002">
</trkpt>
<trkpt lat="47.97668" lon="1.8420200000000002">
</trkpt>
<trkpt lat="47.976850000000006" lon="1.8420100000000001">
</trkpt>
<trkpt lat="47.97695" lon="1.8419900000000002">
</trkpt>
<trkpt lat="47.979150000000004" lon="1.8410600000000001">
</trkpt>
<trkpt lat="47.98057000000001" lon="1.8403500000000002">
</trkpt>
<trkpt lat="47.980830000000005" lon="1.8402900000000002">
</trkpt>
<trkpt lat="47.98163" lon="1.8403">
</trkpt>
<trkpt lat="47.982000000000006" lon="1.8403200000000002">
</trkpt>
<trkpt lat="47.982200000000006" lon="1.8403">
</trkpt>
<trkpt lat="47.98246" lon="1.8402">
</trkpt>
<trkpt lat="47.982710000000004" lon="1.8399800000000002">
</trkpt>
<trkpt lat="47.98275" lon="1.8399500000000002">
</trkpt>
<trkpt lat="47.982850000000006" lon="1.83996">
</trkpt>
<trkpt lat="47.9829" lon="1.8398100000000002">
</trkpt>
<trkpt lat="47.983070000000005" lon="1.8396500000000002">
</trkpt>
<trkpt lat="47.983070000000005" lon="1.8396500000000002">
</trkpt>
<trkpt lat="47.983450000000005" lon="1.8393700000000002">
</trkpt>
<trkpt lat="47.983610000000006" lon="1.8392300000000001">
</trkpt>
<trkpt lat="47.98389" lon="1.8390600000000001">
</trkpt>
<trkpt lat="47.98483" lon="1.8386500000000001">
</trkpt>
<trkpt lat="47.98579" lon="1.8382100000000001">
</trkpt>
<trkpt lat="47.986380000000004" lon="1.8379600000000003">
</trkpt>
<trkpt lat="47.987480000000005" lon="1.8374100000000002">
</trkpt>
<trkpt lat="47.987640000000006" lon="1.83732">
</trkpt>
<trkpt lat="47.98774" lon="1.83725">
</trkpt>
<trkpt lat="47.98799" lon="1.83715">
</trkpt>
<trkpt lat="47.988240000000005" lon="1.8370900000000001">
</trkpt>
<trkpt lat="47.9885" lon="1.8370300000000002">
</trkpt>
<trkpt lat="47.989630000000005" lon="1.8369300000000002">
</trkpt>
<trkpt lat="47.989650000000005" lon="1.83712">
</trkpt>
<trkpt lat="47.98969" lon="1.83722">
</trkpt>
<trkpt lat="47.989740000000005" lon="1.8372800000000002">
</trkpt>
<trkpt lat="47.98996" lon="1.8373100000000002">
</trkpt>
<trkpt lat="47.99016" lon="1.8373000000000002">
</trkpt>
<trkpt lat="47.990300000000005" lon="1.83722">
</trkpt>
<trkpt lat="47.990410000000004" lon="1.8371000000000002">
</trkpt>
<trkpt lat="47.99044000000001" lon="1.8369700000000002">
</trkpt>
<trkpt lat="47.99063" lon="1.83695">
</trkpt>
<trkpt lat="47.990750000000006" lon="1.83692">
</trkpt>
<trkpt lat="47.990950000000005" lon="1.8369300000000002">
</trkpt>
<trkpt lat="47.992250000000006" lon="1.8370700000000002">
</trkpt>
<trkpt lat="47.99269" lon="1.8371100000000002">
</trkpt>
<trkpt lat="47.99278" lon="1.8370900000000001">
</trkpt>
<trkpt lat="47.99428" lon="1.8382500000000002">
</trkpt>
<trkpt lat="47.99428" lon="1.8382500000000002">
</trkpt>
<trkpt lat="47.995380000000004" lon="1.83908">
</trkpt>
<trkpt lat="47.995670000000004" lon="1.8392300000000001">
</trkpt>
<trkpt lat="47.99671000000001" lon="1.83966">
</trkpt>
<trkpt lat="47.99736" lon="1.83997">
</trkpt>
<trkpt lat="47.998360000000005" lon="1.84054">
</trkpt>
<trkpt lat="47.998670000000004" lon="1.8407700000000002">
</trkpt>
<trkpt lat="47.999030000000005" lon="1.8410900000000001">
</trkpt>
<trkpt lat="47.999460000000006" lon="1.8415800000000002">
</trkpt>
<trkpt lat="47.99972" lon="1.8418400000000001">
</trkpt>
<trkpt lat="47.999790000000004" lon="1.8418700000000001">
</trkpt>
<trkpt lat="48.00003" lon="1.8419400000000001">
</trkpt>
<trkpt lat="48.00003" lon="1.8419400000000001">
</trkpt>
<trkpt lat="48.00385000000001" lon="1.8427700000000002">
</trkpt>
<trkpt lat="48.006400000000006" lon="1.84335">
</trkpt>
<trkpt lat="48.00733" lon="1.8435400000000002">
</trkpt>
<trkpt lat="48.00818" lon="1.84376">
</trkpt>
<trkpt lat="48.00846000000001" lon="1.8438900000000003">
</trkpt>
<trkpt lat="48.00896" lon="1.84417">
</trkpt>
<trkpt lat="48.009220000000006" lon="1.8443500000000002">
</trkpt>
<trkpt lat="48.009620000000005" lon="1.8447200000000001">
</trkpt>
<trkpt lat="48.00999" lon="1.8451400000000002">
</trkpt>
<trkpt lat="48.010270000000006" lon="1.8455500000000002">
</trkpt>
<trkpt lat="48.01048" lon="1.8458800000000002">
</trkpt>
<trkpt lat="48.01086" lon="1.84647">
</trkpt>
<trkpt lat="48.011050000000004" lon="1.84668">
</trkpt>
<trkpt lat="48.011340000000004" lon="1.8469200000000001">
</trkpt>
<trkpt lat="48.01164000000001" lon="1.84708">
</trkpt>
<trkpt lat="48.0125" lon="1.8472700000000002">
</trkpt>
<trkpt lat="48.012890000000006" lon="1.84739">
</trkpt>
<trkpt lat="48.01301" lon="1.8474400000000002">
</trkpt>
<trkpt lat="48.01326" lon="1.8476100000000002">
</trkpt>
<trkpt lat="48.01326" lon="1.8476100000000002">
</trkpt>
<trkpt lat="48.0135" lon="1.84786">
</trkpt>
<trkpt lat="48.0183" lon="1.8532100000000002">
</trkpt>
<trkpt lat="48.021330000000006" lon="1.8565800000000001">
</trkpt>
<trkpt lat="48.02309" lon="1.8585300000000002">
</trkpt>
<trkpt lat="48.02329" lon="1.8587500000000001">
</trkpt>
<trkpt lat="48.023390000000006" lon="1.8588600000000002">
</trkpt>
<trkpt lat="48.02342" lon="1.8589700000000002">
</trkpt>
<trkpt lat="48.023480000000006" lon="1.85925">
</trkpt>
<trkpt lat="48.023590000000006" lon="1.8598000000000001">
</trkpt>
<trkpt lat="48.02429" lon="1.8634400000000002">
</trkpt>
<trkpt lat="48.02458000000001" lon="1.8651400000000002">
</trkpt>
<trkpt lat="48.02535" lon="1.8692100000000003">
</trkpt>
<trkpt lat="48.02591" lon="1.8721900000000002">
</trkpt>
<trkpt lat="48.02602" lon="1.87281">
</trkpt>
<trkpt lat="48.02602" lon="1.87281">
</trkpt>
<trkpt lat="48.02629" lon="1.8742400000000001">
</trkpt>
<trkpt lat="48.02631" lon="1.8744">
</trkpt>
<trkpt lat="48.02629" lon="1.8747000000000003">
</trkpt>
<trkpt lat="48.02609" lon="1.87684">
</trkpt>
<trkpt lat="48.026050000000005" lon="1.87735">
</trkpt>
<trkpt lat="48.026070000000004" lon="1.8776300000000001">
</trkpt>
<trkpt lat="48.02615" lon="1.8779000000000001">
</trkpt>
<trkpt lat="48.02615" lon="1.8779000000000001">
</trkpt>
<trkpt lat="48.02416" lon="1.8788600000000002">
</trkpt>
<trkpt lat="48.023900000000005" lon="1.87901">
</trkpt>
<trkpt lat="48.0238" lon="1.8790300000000002">
</trkpt>
<trkpt lat="48.022760000000005" lon="1.87898">
</trkpt>
<trkpt lat="48.022650000000006" lon="1.8789700000000003">
</trkpt>
<trkpt lat="48.022600000000004" lon="1.8789900000000002">
</trkpt>
<trkpt lat="48.02255" lon="1.8790900000000001">
</trkpt>
<trkpt lat="48.022540000000006" lon="1.8795400000000002">
</trkpt>
<trkpt lat="48.022800000000004" lon="1.87952">
</trkpt>
<trkpt lat="48.023790000000005" lon="1.8795400000000002">
</trkpt>
<trkpt lat="48.02394" lon="1.8795400000000002">
</trkpt>
<trkpt lat="48.02394" lon="1.8795400000000002">
</trkpt>
<trkpt lat="48.02492" lon="1.8795800000000003">
</trkpt>
<trkpt lat="48.02562" lon="1.8797100000000002">
</trkpt>
<trkpt lat="48.025830000000006" lon="1.87972">
</trkpt>
<trkpt lat="48.02691" lon="1.87969">
</trkpt>
<trkpt lat="48.027210000000004" lon="1.8797000000000001">
</trkpt>
<trkpt lat="48.02734" lon="1.8829300000000002">
</trkpt>
<trkpt lat="48.02738" lon="1.8832700000000002">
</trkpt>
<trkpt lat="48.027440000000006" lon="1.88362">
</trkpt>
<trkpt lat="48.02743" lon="1.8838000000000001">
</trkpt>
<trkpt lat="48.02743" lon="1.8838000000000001">
</trkpt>
<trkpt lat="48.02752" lon="1.8841">
</trkpt>
<trkpt lat="48.027620000000006" lon="1.8845900000000002">
</trkpt>
<trkpt lat="48.02778000000001" lon="1.8854300000000002">
</trkpt>
<trkpt lat="48.028290000000005" lon="1.88809">
</trkpt>
<trkpt lat="48.02832" lon="1.8883600000000003">
</trkpt>
<trkpt lat="48.028330000000004" lon="1.88881">
</trkpt>
<trkpt lat="48.02826" lon="1.8897000000000002">
</trkpt>
<trkpt lat="48.02825000000001" lon="1.8899000000000001">
</trkpt>
<trkpt lat="48.028310000000005" lon="1.8902200000000002">
</trkpt>
<trkpt lat="48.0287" lon="1.8918800000000002">
</trkpt>
<trkpt lat="48.02882" lon="1.8921700000000001">
</trkpt>
<trkpt lat="48.029120000000006" lon="1.8927300000000002">
</trkpt>
<trkpt lat="48.03018" lon="1.89474">
</trkpt>
<trkpt lat="48.030390000000004" lon="1.8950900000000002">
</trkpt>
<trkpt lat="48.030480000000004" lon="1.8952200000000001">
</trkpt>
<trkpt lat="48.03052" lon="1.89525">
</trkpt>
<trkpt lat="48.03052" lon="1.89525">
</trkpt>
<trkpt lat="48.030480000000004" lon="1.8952200000000001">
</trkpt>
<trkpt lat="48.030480000000004" lon="1.89528">
</trkpt>
<trkpt lat="48.030480000000004" lon="1.89528">
</trkpt>
<trkpt lat="48.030480000000004" lon="1.8952200000000001">
</trkpt>
<trkpt lat="48.03099" lon="1.89555">
</trkpt>
<trkpt lat="48.03128" lon="1.8958400000000002">
</trkpt>
<trkpt lat="48.03159" lon="1.8962400000000001">
</trkpt>
<trkpt lat="48.03307" lon="1.8984">
</trkpt>
<trkpt lat="48.03334" lon="1.8987600000000002">
</trkpt>
<trkpt lat="48.03361" lon="1.8989500000000001">
</trkpt>
<trkpt lat="48.033910000000006" lon="1.8991500000000001">
</trkpt>
<trkpt lat="48.034090000000006" lon="1.8993200000000001">
</trkpt>
<trkpt lat="48.034180000000006" lon="1.89942">
</trkpt>
<trkpt lat="48.034200000000006" lon="1.8995600000000001">
</trkpt>
<trkpt lat="48.03421" lon="1.8997100000000002">
</trkpt>
<trkpt lat="48.0341" lon="1.9007100000000001">
</trkpt>
<trkpt lat="48.034000000000006" lon="1.9015000000000002">
</trkpt>
<trkpt lat="48.03399" lon="1.9015600000000001">
</trkpt>
<trkpt lat="48.03399" lon="1.9015600000000001">
</trkpt>
<trkpt lat="48.03376" lon="1.9023800000000002">
</trkpt>
<trkpt lat="48.033750000000005" lon="1.9025">
</trkpt>
<trkpt lat="48.03378000000001" lon="1.9027">
</trkpt>
<trkpt lat="48.03387000000001" lon="1.9028">
</trkpt>
<trkpt lat="48.034090000000006" lon="1.9028800000000001">
</trkpt>
<trkpt lat="48.034180000000006" lon="1.9029500000000001">
</trkpt>
<trkpt lat="48.03423" lon="1.9030300000000002">
</trkpt>
<trkpt lat="48.034220000000005" lon="1.9032600000000002">
</trkpt>
<trkpt lat="48.03403" lon="1.9045500000000002">
</trkpt>
<trkpt lat="48.03396" lon="1.90504">
</trkpt>
<trkpt lat="48.033950000000004" lon="1.9054300000000002">
</trkpt>
<trkpt lat="48.034040000000005" lon="1.9062200000000002">
</trkpt>
<trkpt lat="48.03407000000001" lon="1.9063400000000001">
</trkpt>
<trkpt lat="48.034000000000006" lon="1.9063800000000002">
</trkpt>
<trkpt lat="48.03392" lon="1.9064100000000002">
</trkpt>
<trkpt lat="48.033840000000005" lon="1.9064100000000002">
</trkpt>
<trkpt lat="48.03345" lon="1.9063200000000002">
</trkpt>
<trkpt lat="48.03264" lon="1.90619">
</trkpt>
<trkpt lat="48.032520000000005" lon="1.90619">
</trkpt>
<trkpt lat="48.032430000000005" lon="1.9062100000000002">
</trkpt>
<trkpt lat="48.0324" lon="1.9064800000000002">
</trkpt>
<trkpt lat="48.0324" lon="1.9064800000000002">
</trkpt>
<trkpt lat="48.032300000000006" lon="1.9077100000000002">
</trkpt>
<trkpt lat="48.03228000000001" lon="1.9085400000000001">
</trkpt>
<trkpt lat="48.03226" lon="1.9108">
</trkpt>
<trkpt lat="48.0322" lon="1.9117100000000002">
</trkpt>
<trkpt lat="48.03217" lon="1.9121000000000001">
</trkpt>
<trkpt lat="48.03217" lon="1.9126800000000002">
</trkpt>
<trkpt lat="48.032300000000006" lon="1.91382">
</trkpt>
<trkpt lat="48.032300000000006" lon="1.91382">
</trkpt>
<trkpt lat="48.03134000000001" lon="1.91477">
</trkpt>
<trkpt lat="48.030260000000006" lon="1.9158400000000002">
</trkpt>
<trkpt lat="48.02998" lon="1.9160700000000002">
</trkpt>
<trkpt lat="48.02929" lon="1.9165100000000002">
</trkpt>
<trkpt lat="48.02877" lon="1.9168900000000002">
</trkpt>
<trkpt lat="48.02864" lon="1.9169900000000002">
</trkpt>
<trkpt lat="48.02841" lon="1.91721">
</trkpt>
<trkpt lat="48.028150000000004" lon="1.9175400000000002">
</trkpt>
<trkpt lat="48.02751000000001" lon="1.91846">
</trkpt>
<trkpt lat="48.027210000000004" lon="1.9190600000000002">
</trkpt>
<trkpt lat="48.02685" lon="1.9196700000000002">
</trkpt>
<trkpt lat="48.026390000000006" lon="1.9203200000000002">
</trkpt>
<trkpt lat="48.025890000000004" lon="1.9209800000000001">
</trkpt>
<trkpt lat="48.02573" lon="1.9211000000000003">
</trkpt>
<trkpt lat="48.02559" lon="1.9211600000000002">
</trkpt>
<trkpt lat="48.024910000000006" lon="1.9213600000000002">
</trkpt>
<trkpt lat="48.02454" lon="1.92148">
</trkpt>
<trkpt lat="48.02454" lon="1.92148">
</trkpt>
<trkpt lat="48.02315" lon="1.9218700000000002">
</trkpt>
<trkpt lat="48.022180000000006" lon="1.9222800000000002">
</trkpt>
<trkpt lat="48.02183" lon="1.9224">
</trkpt>
<trkpt lat="48.02145" lon="1.9224">
</trkpt>
<trkpt lat="48.020770000000006" lon="1.9223000000000001">
</trkpt>
<trkpt lat="48.02066000000001" lon="1.9223200000000003">
</trkpt>
<trkpt lat="48.02051" lon="1.9224">
</trkpt>
<trkpt lat="48.020210000000006" lon="1.92263">
</trkpt>
<trkpt lat="48.01997" lon="1.9227">
</trkpt>
<trkpt lat="48.0193" lon="1.9228100000000001">
</trkpt>
<trkpt lat="48.01868" lon="1.9229200000000002">
</trkpt>
<trkpt lat="48.017720000000004" lon="1.9236100000000003">
</trkpt>
<trkpt lat="48.016020000000005" lon="1.92484">
</trkpt>
<trkpt lat="48.01458" lon="1.92589">
</trkpt>
<trkpt lat="48.01102" lon="1.9284500000000002">
</trkpt>
<trkpt lat="48.010560000000005" lon="1.9287900000000002">
</trkpt>
<trkpt lat="48.010560000000005" lon="1.9287900000000002">
</trkpt>
<trkpt lat="48.006750000000004" lon="1.93158">
</trkpt>
<trkpt lat="48.004720000000006" lon="1.93304">
</trkpt>
<trkpt lat="48.00204" lon="1.9349900000000002">
</trkpt>
<trkpt lat="48.001020000000004" lon="1.9357100000000003">
</trkpt>
<trkpt lat="47.999790000000004" lon="1.9366500000000002">
</trkpt>
<trkpt lat="47.99888000000001" lon="1.93731">
</trkpt>
<trkpt lat="47.9986" lon="1.9375300000000002">
</trkpt>
<trkpt lat="47.99832000000001" lon="1.9376900000000001">
</trkpt>
<trkpt lat="47.99785000000001" lon="1.93805">
</trkpt>
<trkpt lat="47.99709000000001" lon="1.9386200000000002">
</trkpt>
<trkpt lat="47.996280000000006" lon="1.93917">
</trkpt>
<trkpt lat="47.99448" lon="1.9405000000000001">
</trkpt>
<trkpt lat="47.9945" lon="1.94053">
</trkpt>
<trkpt lat="47.9945" lon="1.94053">
</trkpt>
<trkpt lat="47.99591" lon="1.9430900000000002">
</trkpt>
<trkpt lat="47.996280000000006" lon="1.9436000000000002">
</trkpt>
<trkpt lat="47.996280000000006" lon="1.9436000000000002">
</trkpt>
<trkpt lat="47.99645" lon="1.9438100000000003">
</trkpt>
<trkpt lat="47.99672" lon="1.94409">
</trkpt>
<trkpt lat="47.99725" lon="1.9446200000000002">
</trkpt>
<trkpt lat="47.99817" lon="1.9455400000000003">
</trkpt>
<trkpt lat="47.999010000000006" lon="1.9462500000000003">
</trkpt>
<trkpt lat="48.00086" lon="1.9477400000000002">
</trkpt>
<trkpt lat="48.002750000000006" lon="1.94921">
</trkpt>
<trkpt lat="48.00404" lon="1.9502400000000002">
</trkpt>
<trkpt lat="48.00529" lon="1.95127">
</trkpt>
<trkpt lat="48.00712" lon="1.9528100000000002">
</trkpt>
<trkpt lat="48.008010000000006" lon="1.95354">
</trkpt>
<trkpt lat="48.008030000000005" lon="1.95361">
</trkpt>
<trkpt lat="48.00909" lon="1.9545000000000001">
</trkpt>
<trkpt lat="48.0095" lon="1.9548600000000003">
</trkpt>
<trkpt lat="48.01041000000001" lon="1.9555700000000003">
</trkpt>
<trkpt lat="48.01046" lon="1.9555700000000003">
</trkpt>
<trkpt lat="48.011250000000004" lon="1.9562500000000003">
</trkpt>
<trkpt lat="48.01422" lon="1.9587200000000002">
</trkpt>
<trkpt lat="48.014720000000004" lon="1.9591800000000001">
</trkpt>
<trkpt lat="48.017030000000005" lon="1.9613600000000002">
</trkpt>
<trkpt lat="48.018040000000006" lon="1.9623500000000003">
</trkpt>
<trkpt lat="48.021190000000004" lon="1.9654200000000002">
</trkpt>
<trkpt lat="48.02438" lon="1.9685400000000002">
</trkpt>
<trkpt lat="48.025560000000006" lon="1.9697000000000002">
</trkpt>
<trkpt lat="48.02635" lon="1.97046">
</trkpt>
<trkpt lat="48.02667" lon="1.9707200000000002">
</trkpt>
<trkpt lat="48.02785" lon="1.97144">
</trkpt>
<trkpt lat="48.029210000000006" lon="1.9722600000000001">
</trkpt>
<trkpt lat="48.03128" lon="1.9738000000000002">
</trkpt>
<trkpt lat="48.031960000000005" lon="1.9743000000000002">
</trkpt>
<trkpt lat="48.032410000000006" lon="1.97466">
</trkpt>
<trkpt lat="48.03376" lon="1.9758900000000001">
</trkpt>
<trkpt lat="48.035560000000004" lon="1.9775700000000003">
</trkpt>
<trkpt lat="48.037420000000004" lon="1.9793200000000002">
</trkpt>
<trkpt lat="48.038630000000005" lon="1.9804800000000002">
</trkpt>
<trkpt lat="48.03949" lon="1.9812600000000002">
</trkpt>
<trkpt lat="48.04122" lon="1.9829">
</trkpt>
<trkpt lat="48.04319" lon="1.9847100000000002">
</trkpt>
<trkpt lat="48.044360000000005" lon="1.9854600000000002">
</trkpt>
<trkpt lat="48.045550000000006" lon="1.9863600000000001">
</trkpt>
<trkpt lat="48.048230000000004" lon="1.98849">
</trkpt>
<trkpt lat="48.05028" lon="1.9901200000000001">
</trkpt>
<trkpt lat="48.05093" lon="1.99062">
</trkpt>
<trkpt lat="48.05238000000001" lon="1.99178">
</trkpt>
<trkpt lat="48.053090000000005" lon="1.99235">
</trkpt>
<trkpt lat="48.05433000000001" lon="1.9933200000000002">
</trkpt>
<trkpt lat="48.05863" lon="1.9970100000000002">
</trkpt>
<trkpt lat="48.059610000000006" lon="1.9978700000000003">
</trkpt>
<trkpt lat="48.05993" lon="1.9981900000000001">
</trkpt>
<trkpt lat="48.06007" lon="1.9983600000000001">
</trkpt>
<trkpt lat="48.06013" lon="1.99849">
</trkpt>
<trkpt lat="48.06013" lon="1.9985500000000003">
</trkpt>
<trkpt lat="48.06013" lon="1.9986000000000002">
</trkpt>
<trkpt lat="48.059990000000006" lon="1.9987000000000001">
</trkpt>
<trkpt lat="48.059900000000006" lon="1.9987300000000001">
</trkpt>
<trkpt lat="48.05984" lon="1.99879">
</trkpt>
<trkpt lat="48.059610000000006" lon="1.9992100000000002">
</trkpt>
<trkpt lat="48.059610000000006" lon="1.9992100000000002">
</trkpt>
<trkpt lat="48.05500000000001" lon="2.00761">
</trkpt>
<trkpt lat="48.05247000000001" lon="2.0122400000000003">
</trkpt>
<trkpt lat="48.052220000000005" lon="2.01267">
</trkpt>
<trkpt lat="48.05199" lon="2.01298">
</trkpt>
<trkpt lat="48.04966" lon="2.01607">
</trkpt>
<trkpt lat="48.04798" lon="2.01833">
</trkpt>
<trkpt lat="48.047200000000004" lon="2.01934">
</trkpt>
<trkpt lat="48.046620000000004" lon="2.02014">
</trkpt>
<trkpt lat="48.046350000000004" lon="2.0207">
</trkpt>
<trkpt lat="48.045260000000006" lon="2.02325">
</trkpt>
<trkpt lat="48.04455" lon="2.0248600000000003">
</trkpt>
<trkpt lat="48.04437" lon="2.02517">
</trkpt>
<trkpt lat="48.04415" lon="2.0253900000000002">
</trkpt>
<trkpt lat="48.04401000000001" lon="2.02549">
</trkpt>
<trkpt lat="48.043850000000006" lon="2.02556">
</trkpt>
<trkpt lat="48.04345000000001" lon="2.0256600000000002">
</trkpt>
<trkpt lat="48.042030000000004" lon="2.0259500000000004">
</trkpt>
<trkpt lat="48.042030000000004" lon="2.0259500000000004">
</trkpt>
<trkpt lat="48.04066" lon="2.0262100000000003">
</trkpt>
<trkpt lat="48.04041" lon="2.0263400000000003">
</trkpt>
<trkpt lat="48.04025000000001" lon="2.0264">
</trkpt>
<trkpt lat="48.04012" lon="2.02637">
</trkpt>
<trkpt lat="48.04005" lon="2.02632">
</trkpt>
<trkpt lat="48.039930000000005" lon="2.02619">
</trkpt>
<trkpt lat="48.03974" lon="2.02603">
</trkpt>
<trkpt lat="48.039530000000006" lon="2.0259500000000004">
</trkpt>
<trkpt lat="48.039440000000006" lon="2.0258000000000003">
</trkpt>
<trkpt lat="48.039280000000005" lon="2.02548">
</trkpt>
<trkpt lat="48.03891" lon="2.0246600000000003">
</trkpt>
<trkpt lat="48.03882" lon="2.0242400000000003">
</trkpt>
<trkpt lat="48.03882" lon="2.0236400000000003">
</trkpt>
<trkpt lat="48.03878" lon="2.0233700000000003">
</trkpt>
<trkpt lat="48.038630000000005" lon="2.02305">
</trkpt>
<trkpt lat="48.0382" lon="2.0222900000000004">
</trkpt>
<trkpt lat="48.03774000000001" lon="2.02156">
</trkpt>
<trkpt lat="48.037580000000005" lon="2.02135">
</trkpt>
<trkpt lat="48.03728" lon="2.02104">
</trkpt>
<trkpt lat="48.036840000000005" lon="2.0206500000000003">
</trkpt>
<trkpt lat="48.036590000000004" lon="2.02047">
</trkpt>
<trkpt lat="48.03591" lon="2.0201800000000003">
</trkpt>
<trkpt lat="48.03567" lon="2.0201000000000002">
</trkpt>
<trkpt lat="48.03533" lon="2.01988">
</trkpt>
<trkpt lat="48.03508" lon="2.01968">
</trkpt>
<trkpt lat="48.03492000000001" lon="2.0194900000000002">
</trkpt>
<trkpt lat="48.03482" lon="2.01933">
</trkpt>
<trkpt lat="48.03439" lon="2.01816">
</trkpt>
<trkpt lat="48.034240000000004" lon="2.01789">
</trkpt>
<trkpt lat="48.034130000000005" lon="2.0177400000000003">
</trkpt>
<trkpt lat="48.03338" lon="2.0170500000000002">
</trkpt>
<trkpt lat="48.03294" lon="2.0167100000000002">
</trkpt>
<trkpt lat="48.03293000000001" lon="2.01669">
</trkpt>
<trkpt lat="48.03293000000001" lon="2.01669">
</trkpt>
<trkpt lat="48.032450000000004" lon="2.0163200000000003">
</trkpt>
<trkpt lat="48.032030000000006" lon="2.01586">
</trkpt>
<trkpt lat="48.031490000000005" lon="2.01528">
</trkpt>
<trkpt lat="48.03107000000001" lon="2.0149000000000004">
</trkpt>
<trkpt lat="48.03092" lon="2.0148">
</trkpt>
<trkpt lat="48.030550000000005" lon="2.01467">
</trkpt>
<trkpt lat="48.02978" lon="2.0144100000000003">
</trkpt>
<trkpt lat="48.028620000000004" lon="2.0140200000000004">
</trkpt>
<trkpt lat="48.02841" lon="2.0139400000000003">
</trkpt>
<trkpt lat="48.028330000000004" lon="2.01393">
</trkpt>
<trkpt lat="48.028220000000005" lon="2.01377">
</trkpt>
<trkpt lat="48.02751000000001" lon="2.01264">
</trkpt>
<trkpt lat="48.026970000000006" lon="2.01182">
</trkpt>
<trkpt lat="48.025940000000006" lon="2.0102100000000003">
</trkpt>
<trkpt lat="48.02579" lon="2.0099500000000003">
</trkpt>
<trkpt lat="48.02561000000001" lon="2.00979">
</trkpt>
<trkpt lat="48.02548" lon="2.00977">
</trkpt>
<trkpt lat="48.025220000000004" lon="2.00979">
</trkpt>
<trkpt lat="48.025220000000004" lon="2.00979">
</trkpt>
<trkpt lat="48.022540000000006" lon="2.00998">
</trkpt>
<trkpt lat="48.019830000000006" lon="2.01017">
</trkpt>
<trkpt lat="48.019830000000006" lon="2.01017">
</trkpt>
<trkpt lat="48.018" lon="2.01031">
</trkpt>
<trkpt lat="48.01608" lon="2.0104100000000003">
</trkpt>
<trkpt lat="48.01608" lon="2.0104100000000003">
</trkpt>
<trkpt lat="48.016040000000004" lon="2.0104100000000003">
</trkpt>
<trkpt lat="48.01603" lon="2.0102900000000004">
</trkpt>
<trkpt lat="48.015040000000006" lon="2.0095">
</trkpt>
<trkpt lat="48.014410000000005" lon="2.00895">
</trkpt>
<trkpt lat="48.014410000000005" lon="2.00895">
</trkpt>
<trkpt lat="48.01191000000001" lon="2.00674">
</trkpt>
<trkpt lat="48.01191000000001" lon="2.00673">
</trkpt>
<trkpt lat="48.00995" lon="2.00495">
</trkpt>
<trkpt lat="48.00947000000001" lon="2.00455">
</trkpt>
<trkpt lat="48.00947000000001" lon="2.00455">
</trkpt>
<trkpt lat="48.009330000000006" lon="2.00444">
</trkpt>
<trkpt lat="48.007470000000005" lon="2.0032400000000004">
</trkpt>
<trkpt lat="48.0031" lon="2.00042">
</trkpt>
<trkpt lat="48.0031" lon="2.00042">
</trkpt>
<trkpt lat="48.002860000000005" lon="2.0002400000000002">
</trkpt>
<trkpt lat="48.00150000000001" lon="1.9977200000000002">
</trkpt>
<trkpt lat="48.00085000000001" lon="1.9962300000000002">
</trkpt>
<trkpt lat="48.000780000000006" lon="1.9959700000000002">
</trkpt>
<trkpt lat="48.00074" lon="1.9956800000000001">
</trkpt>
<trkpt lat="48.00072" lon="1.9955200000000002">
</trkpt>
<trkpt lat="48.0007" lon="1.9953500000000002">
</trkpt>
<trkpt lat="48.0007" lon="1.9953500000000002">
</trkpt>
<trkpt lat="48.000600000000006" lon="1.9947000000000001">
</trkpt>
<trkpt lat="48.0005" lon="1.9945100000000002">
</trkpt>
<trkpt lat="48.00045" lon="1.9944400000000002">
</trkpt>
<trkpt lat="47.999790000000004" lon="1.9939600000000002">
</trkpt>
<trkpt lat="47.99926000000001" lon="1.99367">
</trkpt>
<trkpt lat="47.997620000000005" lon="1.9926700000000002">
</trkpt>
<trkpt lat="47.99562" lon="1.9914200000000002">
</trkpt>
<trkpt lat="47.994510000000005" lon="1.9907100000000002">
</trkpt>
<trkpt lat="47.99427000000001" lon="1.9906000000000001">
</trkpt>
<trkpt lat="47.99409000000001" lon="1.9905500000000003">
</trkpt>
<trkpt lat="47.99409000000001" lon="1.9905500000000003">
</trkpt>
<trkpt lat="47.993930000000006" lon="1.9904300000000001">
</trkpt>
<trkpt lat="47.993640000000006" lon="1.9902100000000003">
</trkpt>
<trkpt lat="47.992430000000006" lon="1.9890400000000001">
</trkpt>
<trkpt lat="47.990280000000006" lon="1.9870500000000002">
</trkpt>
<trkpt lat="47.98812" lon="1.9850900000000002">
</trkpt>
<trkpt lat="47.98809000000001" lon="1.9850700000000001">
</trkpt>
<trkpt lat="47.98809000000001" lon="1.9850700000000001">
</trkpt>
<trkpt lat="47.98639000000001" lon="1.9835000000000003">
</trkpt>
<trkpt lat="47.98628" lon="1.9834300000000002">
</trkpt>
<trkpt lat="47.986140000000006" lon="1.9833800000000001">
</trkpt>
<trkpt lat="47.98514" lon="1.9829700000000001">
</trkpt>
<trkpt lat="47.98252" lon="1.9818000000000002">
</trkpt>
<trkpt lat="47.98160000000001" lon="1.9813800000000001">
</trkpt>
<trkpt lat="47.981500000000004" lon="1.9813500000000002">
</trkpt>
<trkpt lat="47.981500000000004" lon="1.9813500000000002">
</trkpt>
<trkpt lat="47.98104000000001" lon="1.9811800000000002">
</trkpt>
<trkpt lat="47.977520000000005" lon="1.9775300000000002">
</trkpt>
<trkpt lat="47.97617" lon="1.9761800000000003">
</trkpt>
<trkpt lat="47.97617" lon="1.9761800000000003">
</trkpt>
<trkpt lat="47.976000000000006" lon="1.9751200000000002">
</trkpt>
<trkpt lat="47.97576" lon="1.9738300000000002">
</trkpt>
<trkpt lat="47.97532" lon="1.97205">
</trkpt>
<trkpt lat="47.974790000000006" lon="1.9698900000000001">
</trkpt>
<trkpt lat="47.974430000000005" lon="1.96883">
</trkpt>
<trkpt lat="47.97402" lon="1.96778">
</trkpt>
<trkpt lat="47.97352" lon="1.9666000000000001">
</trkpt>
<trkpt lat="47.97196" lon="1.96314">
</trkpt>
<trkpt lat="47.971790000000006" lon="1.9628400000000001">
</trkpt>
<trkpt lat="47.971340000000005" lon="1.9621400000000002">
</trkpt>
<trkpt lat="47.971120000000006" lon="1.96219">
</trkpt>
<trkpt lat="47.971120000000006" lon="1.96219">
</trkpt>
<trkpt lat="47.971050000000005" lon="1.96188">
</trkpt>
<trkpt lat="47.97095" lon="1.96164">
</trkpt>
<trkpt lat="47.97005" lon="1.9605200000000003">
</trkpt>
<trkpt lat="47.96963" lon="1.96005">
</trkpt>
<trkpt lat="47.96927" lon="1.9597000000000002">
</trkpt>
<trkpt lat="47.96857000000001" lon="1.9591500000000002">
</trkpt>
<trkpt lat="47.96716000000001" lon="1.9581700000000002">
</trkpt>
<trkpt lat="47.96667" lon="1.9579000000000002">
</trkpt>
<trkpt lat="47.966190000000005" lon="1.9577200000000001">
</trkpt>
<trkpt lat="47.96459" lon="1.9571800000000001">
</trkpt>
<trkpt lat="47.9635" lon="1.9568100000000002">
</trkpt>
<trkpt lat="47.96005" lon="1.9556400000000003">
</trkpt>
<trkpt lat="47.95731000000001" lon="1.9546800000000002">
</trkpt>
<trkpt lat="47.95691" lon="1.9545400000000002">
</trkpt>
<trkpt lat="47.9553" lon="1.95398">
</trkpt>
<trkpt lat="47.95188" lon="1.95283">
</trkpt>
<trkpt lat="47.951420000000006" lon="1.9527100000000002">
</trkpt>
<trkpt lat="47.951420000000006" lon="1.9527100000000002">
</trkpt>
<trkpt lat="47.94944" lon="1.9522100000000002">
</trkpt>
<trkpt lat="47.948800000000006" lon="1.9520300000000002">
</trkpt>
<trkpt lat="47.94849000000001" lon="1.9518100000000003">
</trkpt>
<trkpt lat="47.94809" lon="1.9514700000000003">
</trkpt>
<trkpt lat="47.94785" lon="1.9512000000000003">
</trkpt>
<trkpt lat="47.94758" lon="1.9508600000000003">
</trkpt>
<trkpt lat="47.94706" lon="1.9500800000000003">
</trkpt>
<trkpt lat="47.9457" lon="1.9480400000000002">
</trkpt>
<trkpt lat="47.945660000000004" lon="1.9478900000000001">
</trkpt>
<trkpt lat="47.94541" lon="1.9475000000000002">
</trkpt>
<trkpt lat="47.94493000000001" lon="1.94687">
</trkpt>
<trkpt lat="47.9448" lon="1.9467100000000002">
</trkpt>
<trkpt lat="47.94478" lon="1.9466700000000001">
</trkpt>
<trkpt lat="47.94476" lon="1.9465200000000003">
</trkpt>
<trkpt lat="47.944700000000005" lon="1.9464200000000003">
</trkpt>
<trkpt lat="47.944610000000004" lon="1.9463400000000002">
</trkpt>
<trkpt lat="47.94455000000001" lon="1.9462400000000002">
</trkpt>
<trkpt lat="47.94447" lon="1.9460800000000003">
</trkpt>
<trkpt lat="47.944280000000006" lon="1.9457900000000001">
</trkpt>
<trkpt lat="47.94415" lon="1.9456400000000003">
</trkpt>
<trkpt lat="47.943740000000005" lon="1.945">
</trkpt>
<trkpt lat="47.94352000000001" lon="1.94477">
</trkpt>
<trkpt lat="47.943180000000005" lon="1.9444700000000001">
</trkpt>
<trkpt lat="47.943070000000006" lon="1.94436">
</trkpt>
<trkpt lat="47.94296000000001" lon="1.94412">
</trkpt>
<trkpt lat="47.94296000000001" lon="1.94392">
</trkpt>
<trkpt lat="47.94301" lon="1.9437700000000002">
</trkpt>
<trkpt lat="47.94299" lon="1.9436700000000002">
</trkpt>
<trkpt lat="47.942870000000006" lon="1.9435900000000002">
</trkpt>
<trkpt lat="47.942820000000005" lon="1.9435300000000002">
</trkpt>
<trkpt lat="47.94274" lon="1.9435000000000002">
</trkpt>
<trkpt lat="47.94265" lon="1.9435200000000001">
</trkpt>
<trkpt lat="47.94265" lon="1.9435200000000001">
</trkpt>
<trkpt lat="47.94256000000001" lon="1.9436200000000001">
</trkpt>
<trkpt lat="47.94254" lon="1.9436600000000002">
</trkpt>
<trkpt lat="47.94252" lon="1.9438400000000002">
</trkpt>
<trkpt lat="47.942550000000004" lon="1.9439700000000002">
</trkpt>
<trkpt lat="47.942620000000005" lon="1.9440700000000002">
</trkpt>
<trkpt lat="47.942710000000005" lon="1.9441100000000002">
</trkpt>
<trkpt lat="47.94281" lon="1.9440800000000003">
</trkpt>
<trkpt lat="47.9429" lon="1.9439700000000002">
</trkpt>
<trkpt lat="47.94292" lon="1.9439000000000002">
</trkpt>
<trkpt lat="47.942930000000004" lon="1.9438300000000002">
</trkpt>
<trkpt lat="47.94301" lon="1.9437700000000002">
</trkpt>
<trkpt lat="47.943000000000005" lon="1.9437200000000001">
</trkpt>
<trkpt lat="47.94297" lon="1.94361">
</trkpt>
<trkpt lat="47.942930000000004" lon="1.9435200000000001">
</trkpt>
<trkpt lat="47.942840000000004" lon="1.9434300000000002">
</trkpt>
<trkpt lat="47.9427" lon="1.9432900000000002">
</trkpt>
<trkpt lat="47.942640000000004" lon="1.9430100000000001">
</trkpt>
<trkpt lat="47.9425" lon="1.94222">
</trkpt>
<trkpt lat="47.942460000000004" lon="1.9416900000000001">
</trkpt>
<trkpt lat="47.94247000000001" lon="1.94097">
</trkpt>
<trkpt lat="47.94247000000001" lon="1.93927">
</trkpt>
<trkpt lat="47.94243" lon="1.9378100000000003">
</trkpt>
<trkpt lat="47.942460000000004" lon="1.93677">
</trkpt>
<trkpt lat="47.942510000000006" lon="1.93636">
</trkpt>
<trkpt lat="47.94263" lon="1.9357300000000002">
</trkpt>
<trkpt lat="47.942980000000006" lon="1.9343400000000002">
</trkpt>
<trkpt lat="47.9433" lon="1.9328500000000002">
</trkpt>
<trkpt lat="47.94370000000001" lon="1.931">
</trkpt>
<trkpt lat="47.943760000000005" lon="1.9308600000000002">
</trkpt>
<trkpt lat="47.943760000000005" lon="1.9306900000000002">
</trkpt>
<trkpt lat="47.94404" lon="1.9293500000000001">
</trkpt>
<trkpt lat="47.94409" lon="1.9292600000000002">
</trkpt>
<trkpt lat="47.94413" lon="1.9291600000000002">
</trkpt>
<trkpt lat="47.944120000000005" lon="1.9290600000000002">
</trkpt>
<trkpt lat="47.94411" lon="1.9289900000000002">
</trkpt>
<trkpt lat="47.94418" lon="1.9284800000000002">
</trkpt>
<trkpt lat="47.944250000000004" lon="1.9281000000000001">
</trkpt>
<trkpt lat="47.944210000000005" lon="1.9280800000000002">
</trkpt>
<trkpt lat="47.94426000000001" lon="1.9278100000000002">
</trkpt>
<trkpt lat="47.94424" lon="1.92768">
</trkpt>
<trkpt lat="47.944190000000006" lon="1.9275200000000001">
</trkpt>
<trkpt lat="47.944190000000006" lon="1.9275200000000001">
</trkpt>
<trkpt lat="47.944100000000006" lon="1.9273700000000002">
</trkpt>
<trkpt lat="47.943940000000005" lon="1.9272000000000002">
</trkpt>
<trkpt lat="47.94352000000001" lon="1.9270100000000001">
</trkpt>
<trkpt lat="47.943090000000005" lon="1.9267900000000002">
</trkpt>
<trkpt lat="47.943020000000004" lon="1.9267">
</trkpt>
<trkpt lat="47.942930000000004" lon="1.9265400000000001">
</trkpt>
<trkpt lat="47.94288" lon="1.92639">
</trkpt>
<trkpt lat="47.942870000000006" lon="1.92626">
</trkpt>
<trkpt lat="47.94288" lon="1.92602">
</trkpt>
<trkpt lat="47.943090000000005" lon="1.9253000000000002">
</trkpt>
<trkpt lat="47.94344" lon="1.9240100000000002">
</trkpt>
<trkpt lat="47.94348" lon="1.9237700000000002">
</trkpt>
<trkpt lat="47.943490000000004" lon="1.92341">
</trkpt>
<trkpt lat="47.94342" lon="1.9222800000000002">
</trkpt>
<trkpt lat="47.943340000000006" lon="1.9213200000000001">
</trkpt>
<trkpt lat="47.943360000000006" lon="1.92114">
</trkpt>
<trkpt lat="47.94341000000001" lon="1.92097">
</trkpt>
<trkpt lat="47.94344" lon="1.9209300000000002">
</trkpt>
<trkpt lat="47.943470000000005" lon="1.92087">
</trkpt>
<trkpt lat="47.94348" lon="1.9207">
</trkpt>
<trkpt lat="47.943450000000006" lon="1.9206100000000002">
</trkpt>
<trkpt lat="47.94342" lon="1.9205500000000002">
</trkpt>
<trkpt lat="47.94337" lon="1.9205100000000002">
</trkpt>
<trkpt lat="47.943310000000004" lon="1.9204900000000003">
</trkpt>
<trkpt lat="47.94326" lon="1.9205">
</trkpt>
<trkpt lat="47.943200000000004" lon="1.9205500000000002">
</trkpt>
<trkpt lat="47.94315" lon="1.92063">
</trkpt>
<trkpt lat="47.943130000000004" lon="1.9207900000000002">
</trkpt>
<trkpt lat="47.943180000000005" lon="1.92094">
</trkpt>
<trkpt lat="47.94324" lon="1.9210000000000003">
</trkpt>
<trkpt lat="47.94324" lon="1.9210000000000003">
</trkpt>
<trkpt lat="47.943290000000005" lon="1.9210200000000002">
</trkpt>
<trkpt lat="47.94335" lon="1.92101">
</trkpt>
<trkpt lat="47.94341000000001" lon="1.92097">
</trkpt>
<trkpt lat="47.94344" lon="1.9209300000000002">
</trkpt>
<trkpt lat="47.943470000000005" lon="1.92087">
</trkpt>
<trkpt lat="47.943580000000004" lon="1.9208100000000001">
</trkpt>
<trkpt lat="47.94371" lon="1.9207800000000002">
</trkpt>
<trkpt lat="47.94427" lon="1.9209500000000002">
</trkpt>
<trkpt lat="47.945350000000005" lon="1.92128">
</trkpt>
<trkpt lat="47.945600000000006" lon="1.9213300000000002">
</trkpt>
<trkpt lat="47.946250000000006" lon="1.9214000000000002">
</trkpt>
<trkpt lat="47.94682" lon="1.92145">
</trkpt>
<trkpt lat="47.94690000000001" lon="1.92148">
</trkpt>
<trkpt lat="47.947430000000004" lon="1.9215400000000002">
</trkpt>
<trkpt lat="47.94811000000001" lon="1.9215600000000002">
</trkpt>
<trkpt lat="47.94811000000001" lon="1.9215600000000002">
</trkpt>
<trkpt lat="47.94856" lon="1.9215200000000001">
</trkpt>
<trkpt lat="47.948980000000006" lon="1.9214600000000002">
</trkpt>
<trkpt lat="47.95002" lon="1.9212600000000002">
</trkpt>
<trkpt lat="47.95031" lon="1.92121">
</trkpt>
<trkpt lat="47.950720000000004" lon="1.9211900000000002">
</trkpt>
<trkpt lat="47.951100000000004" lon="1.92121">
</trkpt>
<trkpt lat="47.951510000000006" lon="1.9213200000000001">
</trkpt>
<trkpt lat="47.951750000000004" lon="1.9214200000000001">
</trkpt>
<trkpt lat="47.95199" lon="1.92155">
</trkpt>
<trkpt lat="47.952090000000005" lon="1.92158">
</trkpt>
<trkpt lat="47.95261000000001" lon="1.9218800000000003">
</trkpt>
<trkpt lat="47.95261000000001" lon="1.9218800000000003">
</trkpt>
<trkpt lat="47.953140000000005" lon="1.9221800000000002">
</trkpt>
<trkpt lat="47.95313" lon="1.9222200000000003">
</trkpt>
<trkpt lat="47.95313" lon="1.9222800000000002">
</trkpt>
<trkpt lat="47.953160000000004" lon="1.9223900000000003">
</trkpt>
<trkpt lat="47.95322" lon="1.9224700000000001">
</trkpt>
<trkpt lat="47.953300000000006" lon="1.9224800000000002">
</trkpt>
<trkpt lat="47.95337000000001" lon="1.9224400000000001">
</trkpt>
<trkpt lat="47.95342" lon="1.9223400000000002">
</trkpt>
<trkpt lat="47.953430000000004" lon="1.9222200000000003">
</trkpt>
<trkpt lat="47.9534" lon="1.92212">
</trkpt>
<trkpt lat="47.95337000000001" lon="1.9220800000000002">
</trkpt>
<trkpt lat="47.95335000000001" lon="1.92206">
</trkpt>
<trkpt lat="47.95333" lon="1.9220500000000003">
</trkpt>
<trkpt lat="47.95346000000001" lon="1.9214700000000002">
</trkpt>
<trkpt lat="47.95356" lon="1.9210000000000003">
</trkpt>
<trkpt lat="47.95362" lon="1.9206800000000002">
</trkpt>
<trkpt lat="47.95364000000001" lon="1.9205100000000002">
</trkpt>
<trkpt lat="47.95364000000001" lon="1.9205100000000002">
</trkpt>
<trkpt lat="47.95365" lon="1.9200500000000003">
</trkpt>
<trkpt lat="47.953680000000006" lon="1.9185800000000002">
</trkpt>
<trkpt lat="47.953630000000004" lon="1.9172300000000002">
</trkpt>
<trkpt lat="47.953570000000006" lon="1.9157400000000002">
</trkpt>
<trkpt lat="47.953570000000006" lon="1.9157400000000002">
</trkpt>
<trkpt lat="47.953480000000006" lon="1.9146100000000001">
</trkpt>
<trkpt lat="47.95347" lon="1.9143700000000001">
</trkpt>
<trkpt lat="47.953540000000004" lon="1.9140400000000002">
</trkpt>
<trkpt lat="47.95364000000001" lon="1.9137300000000002">
</trkpt>
<trkpt lat="47.95373000000001" lon="1.9135700000000002">
</trkpt>
<trkpt lat="47.954010000000004" lon="1.91311">
</trkpt>
<trkpt lat="47.95431000000001" lon="1.9127200000000002">
</trkpt>
<trkpt lat="47.95494" lon="1.91175">
</trkpt>
<trkpt lat="47.95494" lon="1.91175">
</trkpt>
<trkpt lat="47.95534000000001" lon="1.91111">
</trkpt>
<trkpt lat="47.955490000000005" lon="1.9107600000000002">
</trkpt>
<trkpt lat="47.95559" lon="1.9105600000000003">
</trkpt>
<trkpt lat="47.95562" lon="1.9103400000000001">
</trkpt>
<trkpt lat="47.955760000000005" lon="1.90918">
</trkpt>
<trkpt lat="47.95584" lon="1.90836">
</trkpt>
<trkpt lat="47.95588" lon="1.9082500000000002">
</trkpt>
<trkpt lat="47.95588" lon="1.9079800000000002">
</trkpt>
<trkpt lat="47.95590000000001" lon="1.9079700000000002">
</trkpt>
<trkpt lat="47.95591" lon="1.9079500000000003">
</trkpt>
<trkpt lat="47.95593" lon="1.90792">
</trkpt>
<trkpt lat="47.95595" lon="1.9078600000000001">
</trkpt>
<trkpt lat="47.95593" lon="1.9077400000000002">
</trkpt>
<trkpt lat="47.95590000000001" lon="1.90769">
</trkpt>
<trkpt lat="47.95590000000001" lon="1.9075700000000002">
</trkpt>
<trkpt lat="47.95590000000001" lon="1.90745">
</trkpt>
<trkpt lat="47.955850000000005" lon="1.9073700000000002">
</trkpt>
<trkpt lat="47.955850000000005" lon="1.9070000000000003">
</trkpt>
<trkpt lat="47.955940000000005" lon="1.9061500000000002">
</trkpt>
<trkpt lat="47.95602" lon="1.9056700000000002">
</trkpt>
<trkpt lat="47.956230000000005" lon="1.90494">
</trkpt>
<trkpt lat="47.956300000000006" lon="1.90474">
</trkpt>
<trkpt lat="47.956990000000005" lon="1.9027500000000002">
</trkpt>
<trkpt lat="47.957" lon="1.90274">
</trkpt>
<trkpt lat="47.957" lon="1.90274">
</trkpt>
<trkpt lat="47.95711000000001" lon="1.9023">
</trkpt>
<trkpt lat="47.957350000000005" lon="1.90064">
</trkpt>
<trkpt lat="47.95741" lon="1.89972">
</trkpt>
<trkpt lat="47.95743" lon="1.89847">
</trkpt>
<trkpt lat="47.95752" lon="1.8974400000000002">
</trkpt>
<trkpt lat="47.95752" lon="1.89664">
</trkpt>
<trkpt lat="47.957460000000005" lon="1.8950600000000002">
</trkpt>
<trkpt lat="47.95740000000001" lon="1.89406">
</trkpt>
<trkpt lat="47.95731000000001" lon="1.89257">
</trkpt>
<trkpt lat="47.95729" lon="1.89226">
</trkpt>
<trkpt lat="47.95729" lon="1.89226">
</trkpt>
<trkpt lat="47.95727" lon="1.8918800000000002">
</trkpt>
<trkpt lat="47.95727" lon="1.8909300000000002">
</trkpt>
<trkpt lat="47.95727" lon="1.8907200000000002">
</trkpt>
<trkpt lat="47.95731000000001" lon="1.89053">
</trkpt>
<trkpt lat="47.95734" lon="1.89043">
</trkpt>
<trkpt lat="47.957350000000005" lon="1.8903500000000002">
</trkpt>
<trkpt lat="47.95732" lon="1.8901800000000002">
</trkpt>
<trkpt lat="47.95727" lon="1.8901100000000002">
</trkpt>
<trkpt lat="47.95722000000001" lon="1.8900700000000001">
</trkpt>
<trkpt lat="47.957190000000004" lon="1.88993">
</trkpt>
<trkpt lat="47.95721" lon="1.8896400000000002">
</trkpt>
<trkpt lat="47.957190000000004" lon="1.8896300000000001">
</trkpt>
<trkpt lat="47.957190000000004" lon="1.8896300000000001">
</trkpt>
<trkpt lat="47.95721" lon="1.8896400000000002">
</trkpt>
<trkpt lat="47.95722000000001" lon="1.8896000000000002">
</trkpt>
<trkpt lat="47.95729" lon="1.88921">
</trkpt>
<trkpt lat="47.957420000000006" lon="1.8888000000000003">
</trkpt>
<trkpt lat="47.95752" lon="1.8886">
</trkpt>
<trkpt lat="47.95772" lon="1.8883800000000002">
</trkpt>
<trkpt lat="47.957910000000005" lon="1.8882100000000002">
</trkpt>
<trkpt lat="47.957980000000006" lon="1.8880800000000002">
</trkpt>
<trkpt lat="47.958200000000005" lon="1.88789">
</trkpt>
<trkpt lat="47.958360000000006" lon="1.88772">
</trkpt>
<trkpt lat="47.9585" lon="1.8875100000000002">
</trkpt>
<trkpt lat="47.95862" lon="1.8872700000000002">
</trkpt>
<trkpt lat="47.95870000000001" lon="1.88698">
</trkpt>
<trkpt lat="47.958740000000006" lon="1.8866800000000001">
</trkpt>
<trkpt lat="47.95872000000001" lon="1.88606">
</trkpt>
<trkpt lat="47.958670000000005" lon="1.88542">
</trkpt>
<trkpt lat="47.95866" lon="1.8847800000000001">
</trkpt>
<trkpt lat="47.95870000000001" lon="1.8841700000000001">
</trkpt>
<trkpt lat="47.958780000000004" lon="1.8836000000000002">
</trkpt>
<trkpt lat="47.95911" lon="1.8824">
</trkpt>
<trkpt lat="47.95935" lon="1.8818500000000002">
</trkpt>
<trkpt lat="47.95958" lon="1.88142">
</trkpt>
<trkpt lat="47.959790000000005" lon="1.88111">
</trkpt>
<trkpt lat="47.95993000000001" lon="1.88094">
</trkpt>
<trkpt lat="47.96018" lon="1.8807600000000002">
</trkpt>
<trkpt lat="47.96032" lon="1.8807300000000002">
</trkpt>
<trkpt lat="47.96036" lon="1.8807300000000002">
</trkpt>
<trkpt lat="47.960420000000006" lon="1.88071">
</trkpt>
<trkpt lat="47.96049000000001" lon="1.8806600000000002">
</trkpt>
<trkpt lat="47.96052" lon="1.8805900000000002">
</trkpt>
<trkpt lat="47.96056" lon="1.8804800000000002">
</trkpt>
<trkpt lat="47.96056" lon="1.88037">
</trkpt>
<trkpt lat="47.960530000000006" lon="1.8802600000000003">
</trkpt>
<trkpt lat="47.96047" lon="1.8801500000000002">
</trkpt>
<trkpt lat="47.96041" lon="1.8799200000000003">
</trkpt>
<trkpt lat="47.96036" lon="1.8795100000000002">
</trkpt>
<trkpt lat="47.960350000000005" lon="1.87935">
</trkpt>
<trkpt lat="47.96025" lon="1.87904">
</trkpt>
<trkpt lat="47.96022000000001" lon="1.87881">
</trkpt>
<trkpt lat="47.96018" lon="1.8785300000000003">
</trkpt>
<trkpt lat="47.96018" lon="1.8785300000000003">
</trkpt>
<trkpt lat="47.95973" lon="1.8758800000000002">
</trkpt>
<trkpt lat="47.9596" lon="1.87508">
</trkpt>
<trkpt lat="47.959500000000006" lon="1.8746500000000001">
</trkpt>
<trkpt lat="47.95947" lon="1.8744800000000001">
</trkpt>
<trkpt lat="47.959500000000006" lon="1.8743900000000002">
</trkpt>
<trkpt lat="47.95951" lon="1.87427">
</trkpt>
<trkpt lat="47.959480000000006" lon="1.8741700000000001">
</trkpt>
<trkpt lat="47.9594" lon="1.87406">
</trkpt>
<trkpt lat="47.95933" lon="1.8740500000000002">
</trkpt>
<trkpt lat="47.95924" lon="1.8739100000000002">
</trkpt>
<trkpt lat="47.95917000000001" lon="1.8737800000000002">
</trkpt>
<trkpt lat="47.95910000000001" lon="1.87349">
</trkpt>
<trkpt lat="47.95904" lon="1.8730900000000001">
</trkpt>
<trkpt lat="47.959030000000006" lon="1.8728900000000002">
</trkpt>
<trkpt lat="47.959030000000006" lon="1.8728900000000002">
</trkpt>
<trkpt lat="47.95904" lon="1.8724600000000002">
</trkpt>
<trkpt lat="47.95902" lon="1.8718400000000002">
</trkpt>
<trkpt lat="47.95893" lon="1.8712100000000003">
</trkpt>
<trkpt lat="47.95882" lon="1.87057">
</trkpt>
<trkpt lat="47.95868" lon="1.8697000000000001">
</trkpt>
<trkpt lat="47.9585" lon="1.86894">
</trkpt>
<trkpt lat="47.95826" lon="1.8683100000000001">
</trkpt>
<trkpt lat="47.958020000000005" lon="1.8678800000000002">
</trkpt>
<trkpt lat="47.957840000000004" lon="1.86762">
</trkpt>
<trkpt lat="47.95743" lon="1.8671700000000002">
</trkpt>
<trkpt lat="47.956590000000006" lon="1.86627">
</trkpt>
<trkpt lat="47.955740000000006" lon="1.8653400000000002">
</trkpt>
<trkpt lat="47.955360000000006" lon="1.86484">
</trkpt>
<trkpt lat="47.95512" lon="1.8644">
</trkpt>
<trkpt lat="47.95497" lon="1.8640900000000002">
</trkpt>
<trkpt lat="47.95485" lon="1.86376">
</trkpt>
<trkpt lat="47.954750000000004" lon="1.8634400000000002">
</trkpt>
<trkpt lat="47.95461" lon="1.8628700000000002">
</trkpt>
<trkpt lat="47.95449000000001" lon="1.8621100000000002">
</trkpt>
<trkpt lat="47.954460000000005" lon="1.8618000000000001">
</trkpt>
<trkpt lat="47.95447" lon="1.8616700000000002">
</trkpt>
<trkpt lat="47.9545" lon="1.8616300000000001">
</trkpt>
<trkpt lat="47.95454" lon="1.8615300000000001">
</trkpt>
<trkpt lat="47.95454" lon="1.8613600000000001">
</trkpt>
<trkpt lat="47.954460000000005" lon="1.8612300000000002">
</trkpt>
<trkpt lat="47.95438" lon="1.86122">
</trkpt>
<trkpt lat="47.95425" lon="1.8610400000000002">
</trkpt>
<trkpt lat="47.95389" lon="1.8604600000000002">
</trkpt>
<trkpt lat="47.95375000000001" lon="1.8602">
</trkpt>
<trkpt lat="47.953410000000005" lon="1.8594300000000001">
</trkpt>
<trkpt lat="47.95317000000001" lon="1.85898">
</trkpt>
<trkpt lat="47.952960000000004" lon="1.85868">
</trkpt>
<trkpt lat="47.95286" lon="1.8585600000000002">
</trkpt>
<trkpt lat="47.95272000000001" lon="1.85844">
</trkpt>
<trkpt lat="47.95262" lon="1.8583900000000002">
</trkpt>
<trkpt lat="47.95262" lon="1.8583900000000002">
</trkpt>
<trkpt lat="47.9525" lon="1.85834">
</trkpt>
<trkpt lat="47.952400000000004" lon="1.8583200000000002">
</trkpt>
<trkpt lat="47.95241" lon="1.8583">
</trkpt>
<trkpt lat="47.95244" lon="1.8582400000000001">
</trkpt>
<trkpt lat="47.95246" lon="1.8581800000000002">
</trkpt>
<trkpt lat="47.952470000000005" lon="1.8580400000000001">
</trkpt>
<trkpt lat="47.95244" lon="1.85789">
</trkpt>
<trkpt lat="47.95241" lon="1.8578200000000002">
</trkpt>
<trkpt lat="47.95239" lon="1.8577800000000002">
</trkpt>
<trkpt lat="47.95239" lon="1.8576300000000001">
</trkpt>
<trkpt lat="47.952400000000004" lon="1.8574700000000002">
</trkpt>
<trkpt lat="47.95243000000001" lon="1.85735">
</trkpt>
<trkpt lat="47.95262" lon="1.8567900000000002">
</trkpt>
<trkpt lat="47.952890000000004" lon="1.8558700000000001">
</trkpt>
<trkpt lat="47.95309" lon="1.8550700000000002">
</trkpt>
<trkpt lat="47.95327" lon="1.8541100000000001">
</trkpt>
<trkpt lat="47.9534" lon="1.8531300000000002">
</trkpt>
<trkpt lat="47.95346000000001" lon="1.85193">
</trkpt>
<trkpt lat="47.953450000000004" lon="1.8510700000000002">
</trkpt>
<trkpt lat="47.95342" lon="1.8504500000000002">
</trkpt>
<trkpt lat="47.95342" lon="1.8504500000000002">
</trkpt>
<trkpt lat="47.953340000000004" lon="1.8490000000000002">
</trkpt>
<trkpt lat="47.95322" lon="1.8479800000000002">
</trkpt>
<trkpt lat="47.952740000000006" lon="1.8455400000000002">
</trkpt>
<trkpt lat="47.952510000000004" lon="1.84437">
</trkpt>
<trkpt lat="47.95241" lon="1.84383">
</trkpt>
<trkpt lat="47.952400000000004" lon="1.84352">
</trkpt>
<trkpt lat="47.952400000000004" lon="1.84352">
</trkpt>
<trkpt lat="47.952420000000004" lon="1.84339">
</trkpt>
<trkpt lat="47.952450000000006" lon="1.84336">
</trkpt>
<trkpt lat="47.95253" lon="1.84319">
</trkpt>
<trkpt lat="47.952560000000005" lon="1.8430000000000002">
</trkpt>
<trkpt lat="47.952540000000006" lon="1.84281">
</trkpt>
<trkpt lat="47.95246" lon="1.84264">
</trkpt>
<trkpt lat="47.952400000000004" lon="1.84258">
</trkpt>
<trkpt lat="47.952310000000004" lon="1.8425300000000002">
</trkpt>
<trkpt lat="47.952270000000006" lon="1.8425200000000002">
</trkpt>
<trkpt lat="47.952180000000006" lon="1.8424500000000001">
</trkpt>
<trkpt lat="47.95212" lon="1.8423600000000002">
</trkpt>
<trkpt lat="47.952070000000006" lon="1.8422300000000003">
</trkpt>
<trkpt lat="47.951910000000005" lon="1.8415000000000001">
</trkpt>
<trkpt lat="47.95172" lon="1.8406700000000003">
</trkpt>
<trkpt lat="47.95165" lon="1.8404500000000001">
</trkpt>
<trkpt lat="47.9515" lon="1.83973">
</trkpt>
<trkpt lat="47.95127" lon="1.8385500000000001">
</trkpt>
<trkpt lat="47.95092" lon="1.8368600000000002">
</trkpt>
<trkpt lat="47.95103" lon="1.83681">
</trkpt>
<trkpt lat="47.95103" lon="1.83681">
</trkpt>
<trkpt lat="47.95092" lon="1.8368600000000002">
</trkpt>
<trkpt lat="47.95089" lon="1.83674">
</trkpt>
<trkpt lat="47.95083" lon="1.8365700000000003">
</trkpt>
<trkpt lat="47.95051" lon="1.8356500000000002">
</trkpt>
<trkpt lat="47.95031" lon="1.83515">
</trkpt>
<trkpt lat="47.950050000000005" lon="1.8345600000000002">
</trkpt>
<trkpt lat="47.94933" lon="1.83322">
</trkpt>
<trkpt lat="47.948820000000005" lon="1.83231">
</trkpt>
<trkpt lat="47.94879" lon="1.8322200000000002">
</trkpt>
<trkpt lat="47.94849000000001" lon="1.83166">
</trkpt>
<trkpt lat="47.948420000000006" lon="1.8315200000000003">
</trkpt>
<trkpt lat="47.94836" lon="1.83126">
</trkpt>
<trkpt lat="47.94838000000001" lon="1.8311600000000001">
</trkpt>
<trkpt lat="47.94838000000001" lon="1.83105">
</trkpt>
<trkpt lat="47.948510000000006" lon="1.8308700000000002">
</trkpt>
<trkpt lat="47.94856" lon="1.8308300000000002">
</trkpt>
<trkpt lat="47.94863" lon="1.8308200000000001">
</trkpt>
<trkpt lat="47.94868" lon="1.8308000000000002">
</trkpt>
<trkpt lat="47.948780000000006" lon="1.8307600000000002">
</trkpt>
<trkpt lat="47.948910000000005" lon="1.8306700000000002">
</trkpt>
<trkpt lat="47.94901" lon="1.8306000000000002">
</trkpt>
<trkpt lat="47.949040000000004" lon="1.8305900000000002">
</trkpt>
<trkpt lat="47.949070000000006" lon="1.8305500000000001">
</trkpt>
<trkpt lat="47.94908" lon="1.8304600000000002">
</trkpt>
<trkpt lat="47.949070000000006" lon="1.8304300000000002">
</trkpt>
<trkpt lat="47.949020000000004" lon="1.8303900000000002">
</trkpt>
<trkpt lat="47.94895" lon="1.8304300000000002">
</trkpt>
<trkpt lat="47.94894000000001" lon="1.8305200000000001">
</trkpt>
<trkpt lat="47.948800000000006" lon="1.8306700000000002">
</trkpt>
<trkpt lat="47.948800000000006" lon="1.8306700000000002">
</trkpt>
<trkpt lat="47.94894000000001" lon="1.8305200000000001">
</trkpt>
<trkpt lat="47.94899" lon="1.8306000000000002">
</trkpt>
<trkpt lat="47.94906" lon="1.83058">
</trkpt>
<trkpt lat="47.94908" lon="1.83048">
</trkpt>
<trkpt lat="47.94905000000001" lon="1.8304000000000002">
</trkpt>
<trkpt lat="47.949020000000004" lon="1.8303900000000002">
</trkpt>
<trkpt lat="47.94899" lon="1.8303000000000003">
</trkpt>
<trkpt lat="47.94894000000001" lon="1.83017">
</trkpt>
<trkpt lat="47.948890000000006" lon="1.83003">
</trkpt>
<trkpt lat="47.94859" lon="1.8278800000000002">
</trkpt>
<trkpt lat="47.948350000000005" lon="1.8264700000000003">
</trkpt>
<trkpt lat="47.948170000000005" lon="1.82529">
</trkpt>
<trkpt lat="47.94814" lon="1.8250100000000002">
</trkpt>
<trkpt lat="47.94794" lon="1.8236700000000001">
</trkpt>
<trkpt lat="47.94787" lon="1.8231000000000002">
</trkpt>
<trkpt lat="47.94787" lon="1.8228600000000001">
</trkpt>
<trkpt lat="47.947880000000005" lon="1.8226400000000003">
</trkpt>
<trkpt lat="47.947990000000004" lon="1.8221900000000002">
</trkpt>
<trkpt lat="47.94809" lon="1.8215100000000002">
</trkpt>
<trkpt lat="47.94811000000001" lon="1.8208700000000002">
</trkpt>
<trkpt lat="47.94811000000001" lon="1.82078">
</trkpt>
<trkpt lat="47.94811000000001" lon="1.82078">
</trkpt>
<trkpt lat="47.948100000000004" lon="1.8206700000000002">
</trkpt>
<trkpt lat="47.94805" lon="1.8205200000000001">
</trkpt>
<trkpt lat="47.94793000000001" lon="1.8202800000000001">
</trkpt>
<trkpt lat="47.947680000000005" lon="1.8197800000000002">
</trkpt>
<trkpt lat="47.947500000000005" lon="1.8193000000000001">
</trkpt>
<trkpt lat="47.94735000000001" lon="1.81898">
</trkpt>
<trkpt lat="47.946920000000006" lon="1.8182300000000002">
</trkpt>
<trkpt lat="47.946720000000006" lon="1.8184300000000002">
</trkpt>
<trkpt lat="47.94621" lon="1.8188600000000001">
</trkpt>
<trkpt lat="47.945460000000004" lon="1.8194800000000002">
</trkpt>
<trkpt lat="47.945460000000004" lon="1.8194800000000002">
</trkpt>
<trkpt lat="47.94549000000001" lon="1.81946">
</trkpt>
<trkpt lat="47.94541" lon="1.8193000000000001">
</trkpt>
<trkpt lat="47.944900000000004" lon="1.8182500000000001">
</trkpt>
<trkpt lat="47.94391" lon="1.81624">
</trkpt>
<trkpt lat="47.94382" lon="1.81607">
</trkpt>
<trkpt lat="47.943760000000005" lon="1.8160300000000003">
</trkpt>
<trkpt lat="47.94370000000001" lon="1.8160100000000001">
</trkpt>
<trkpt lat="47.94368" lon="1.8159600000000002">
</trkpt>
<trkpt lat="47.943650000000005" lon="1.8159100000000001">
</trkpt>
<trkpt lat="47.9436" lon="1.8158600000000003">
</trkpt>
<trkpt lat="47.943540000000006" lon="1.8158400000000001">
</trkpt>
<trkpt lat="47.94348" lon="1.8158500000000002">
</trkpt>
<trkpt lat="47.943430000000006" lon="1.8158">
</trkpt>
<trkpt lat="47.943340000000006" lon="1.8156700000000001">
</trkpt>
<trkpt lat="47.943110000000004" lon="1.81519">
</trkpt>
<trkpt lat="47.943110000000004" lon="1.81519">
</trkpt>
<trkpt lat="47.942840000000004" lon="1.8145600000000002">
</trkpt>
<trkpt lat="47.94259" lon="1.81387">
</trkpt>
<trkpt lat="47.9423" lon="1.8140500000000002">
</trkpt>
<trkpt lat="47.94212" lon="1.8136800000000002">
</trkpt>
<trkpt lat="47.94212982618003" lon="1.813666820526123">
</trkpt>
</trkseg>
</trk>
</gpx>
