<?xml version="1.0" encoding="UTF-8" ?>
		<gpx
		 version="1.0"
		 xmlns:xsi="http://www.w3.org/2001/XMLSchema-instance"
		 xmlns="http://www.topografix.com/GPX/1/0"
		 xsi:schemaLocation="http://www.topografix.com/GPX/1/0 http://www.topografix.com/GPX/1/0/gpx.xsd"
		 creator="http://www.openrunner.com">
			<trk>
			    <name>A19 - 62km - Patay</name>
			    <trkseg>

			<trkpt lat="47.94199" lon="1.81342">
			 <ele>116</ele>
			<time>2016-02-08T20:03:18Z</time>
			</trkpt>

			<trkpt lat="47.94223" lon="1.81405">
			 <ele>115</ele>
			<time>2016-02-08T20:05:18Z</time>
			</trkpt>

			<trkpt lat="47.94249" lon="1.81385">
			 <ele>115</ele>
			<time>2016-02-08T20:07:18Z</time>
			</trkpt>

			<trkpt lat="47.94284" lon="1.81488">
			 <ele>116</ele>
			<time>2016-02-08T20:09:18Z</time>
			</trkpt>

			<trkpt lat="47.94333" lon="1.81596">
			 <ele>117</ele>
			<time>2016-02-08T20:11:18Z</time>
			</trkpt>

			<trkpt lat="47.9434" lon="1.81641">
			 <ele>116</ele>
			<time>2016-02-08T20:13:18Z</time>
			</trkpt>

			<trkpt lat="47.94361" lon="1.81636">
			 <ele>116</ele>
			<time>2016-02-08T20:15:18Z</time>
			</trkpt>

			<trkpt lat="47.94373" lon="1.81611">
			 <ele>117</ele>
			<time>2016-02-08T20:17:18Z</time>
			</trkpt>

			<trkpt lat="47.94399" lon="1.81632">
			 <ele>117</ele>
			<time>2016-02-08T20:19:18Z</time>
			</trkpt>

			<trkpt lat="47.94548" lon="1.81952">
			 <ele>117</ele>
			<time>2016-02-08T20:21:18Z</time>
			</trkpt>

			<trkpt lat="47.94693" lon="1.81827">
			 <ele>118</ele>
			<time>2016-02-08T20:23:18Z</time>
			</trkpt>

			<trkpt lat="47.94741" lon="1.81909">
			 <ele>118</ele>
			<time>2016-02-08T20:25:18Z</time>
			</trkpt>

			<trkpt lat="47.9476" lon="1.81962">
			 <ele>116</ele>
			<time>2016-02-08T20:27:18Z</time>
			</trkpt>

			<trkpt lat="47.94777" lon="1.8201">
			 <ele>115</ele>
			<time>2016-02-08T20:29:18Z</time>
			</trkpt>

			<trkpt lat="47.94813" lon="1.82061">
			 <ele>114</ele>
			<time>2016-02-08T20:31:18Z</time>
			</trkpt>

			<trkpt lat="47.94813" lon="1.82134">
			 <ele>114</ele>
			<time>2016-02-08T20:33:18Z</time>
			</trkpt>

			<trkpt lat="47.94806" lon="1.82203">
			 <ele>114</ele>
			<time>2016-02-08T20:35:18Z</time>
			</trkpt>

			<trkpt lat="47.94788" lon="1.8228">
			 <ele>115</ele>
			<time>2016-02-08T20:37:18Z</time>
			</trkpt>

			<trkpt lat="47.94788" lon="1.82336">
			 <ele>115</ele>
			<time>2016-02-08T20:39:18Z</time>
			</trkpt>

			<trkpt lat="47.94837" lon="1.82649">
			 <ele>117</ele>
			<time>2016-02-08T20:41:18Z</time>
			</trkpt>

			<trkpt lat="47.94896" lon="1.83035">
			 <ele>117</ele>
			<time>2016-02-08T20:43:18Z</time>
			</trkpt>

			<trkpt lat="47.94916" lon="1.83055">
			 <ele>117</ele>
			<time>2016-02-08T20:45:18Z</time>
			</trkpt>

			<trkpt lat="47.94991" lon="1.83016">
			 <ele>117</ele>
			<time>2016-02-08T20:47:18Z</time>
			</trkpt>

			<trkpt lat="47.95145" lon="1.82943">
			 <ele>118</ele>
			<time>2016-02-08T20:49:18Z</time>
			</trkpt>

			<trkpt lat="47.95237" lon="1.82913">
			 <ele>116</ele>
			<time>2016-02-08T20:51:18Z</time>
			</trkpt>

			<trkpt lat="47.95293" lon="1.82883">
			 <ele>116</ele>
			<time>2016-02-08T20:53:18Z</time>
			</trkpt>

			<trkpt lat="47.9534" lon="1.82829">
			 <ele>118</ele>
			<time>2016-02-08T20:55:18Z</time>
			</trkpt>

			<trkpt lat="47.95399" lon="1.82771">
			 <ele>121</ele>
			<time>2016-02-08T20:57:18Z</time>
			</trkpt>

			<trkpt lat="47.95434" lon="1.82724">
			 <ele>120</ele>
			<time>2016-02-08T20:59:18Z</time>
			</trkpt>

			<trkpt lat="47.95603" lon="1.82643">
			 <ele>123</ele>
			<time>2016-02-08T21:01:18Z</time>
			</trkpt>

			<trkpt lat="47.95665" lon="1.82675">
			 <ele>122</ele>
			<time>2016-02-08T21:03:18Z</time>
			</trkpt>

			<trkpt lat="47.9612" lon="1.8272">
			 <ele>124</ele>
			<time>2016-02-08T21:05:18Z</time>
			</trkpt>

			<trkpt lat="47.96159" lon="1.82743">
			 <ele>125</ele>
			<time>2016-02-08T21:07:18Z</time>
			</trkpt>

			<trkpt lat="47.96814" lon="1.83312">
			 <ele>124</ele>
			<time>2016-02-08T21:09:18Z</time>
			</trkpt>

			<trkpt lat="47.96862" lon="1.83359">
			 <ele>123</ele>
			<time>2016-02-08T21:11:18Z</time>
			</trkpt>

			<trkpt lat="47.9688" lon="1.83422">
			 <ele>122</ele>
			<time>2016-02-08T21:13:18Z</time>
			</trkpt>

			<trkpt lat="47.96906" lon="1.83718">
			 <ele>122</ele>
			<time>2016-02-08T21:15:18Z</time>
			</trkpt>

			<trkpt lat="47.96915" lon="1.83799">
			 <ele>121</ele>
			<time>2016-02-08T21:17:18Z</time>
			</trkpt>

			<trkpt lat="47.96938" lon="1.83864">
			 <ele>121</ele>
			<time>2016-02-08T21:19:18Z</time>
			</trkpt>

			<trkpt lat="47.96993" lon="1.83915">
			 <ele>121</ele>
			<time>2016-02-08T21:21:18Z</time>
			</trkpt>

			<trkpt lat="47.97221" lon="1.83913">
			 <ele>122</ele>
			<time>2016-02-08T21:23:18Z</time>
			</trkpt>

			<trkpt lat="47.9728" lon="1.83934">
			 <ele>122</ele>
			<time>2016-02-08T21:25:18Z</time>
			</trkpt>

			<trkpt lat="47.97675" lon="1.84205">
			 <ele>120</ele>
			<time>2016-02-08T21:27:18Z</time>
			</trkpt>

			<trkpt lat="47.97708" lon="1.84192">
			 <ele>120</ele>
			<time>2016-02-08T21:29:18Z</time>
			</trkpt>

			<trkpt lat="47.97951" lon="1.84091">
			 <ele>120</ele>
			<time>2016-02-08T21:31:18Z</time>
			</trkpt>

			<trkpt lat="47.98058" lon="1.84035">
			 <ele>122</ele>
			<time>2016-02-08T21:33:18Z</time>
			</trkpt>

			<trkpt lat="47.98097" lon="1.84027">
			 <ele>123</ele>
			<time>2016-02-08T21:35:18Z</time>
			</trkpt>

			<trkpt lat="47.98219" lon="1.84029">
			 <ele>122</ele>
			<time>2016-02-08T21:37:18Z</time>
			</trkpt>

			<trkpt lat="47.98245" lon="1.84018">
			 <ele>122</ele>
			<time>2016-02-08T21:39:18Z</time>
			</trkpt>

			<trkpt lat="47.98361" lon="1.83926">
			 <ele>122</ele>
			<time>2016-02-08T21:41:18Z</time>
			</trkpt>

			<trkpt lat="47.98406" lon="1.83902">
			 <ele>124</ele>
			<time>2016-02-08T21:43:18Z</time>
			</trkpt>

			<trkpt lat="47.98805" lon="1.83713">
			 <ele>120</ele>
			<time>2016-02-08T21:45:18Z</time>
			</trkpt>

			<trkpt lat="47.98959" lon="1.83692">
			 <ele>123</ele>
			<time>2016-02-08T21:47:18Z</time>
			</trkpt>

			<trkpt lat="47.98985" lon="1.83726">
			 <ele>123</ele>
			<time>2016-02-08T21:49:18Z</time>
			</trkpt>

			<trkpt lat="47.99021" lon="1.83728">
			 <ele>123</ele>
			<time>2016-02-08T21:51:18Z</time>
			</trkpt>

			<trkpt lat="47.99052" lon="1.83703">
			 <ele>123</ele>
			<time>2016-02-08T21:53:18Z</time>
			</trkpt>

			<trkpt lat="47.99072" lon="1.83694">
			 <ele>123</ele>
			<time>2016-02-08T21:55:18Z</time>
			</trkpt>

			<trkpt lat="47.99273" lon="1.83709">
			 <ele>123</ele>
			<time>2016-02-08T21:57:18Z</time>
			</trkpt>

			<trkpt lat="47.99317" lon="1.83739">
			 <ele>123</ele>
			<time>2016-02-08T21:59:18Z</time>
			</trkpt>

			<trkpt lat="47.99496" lon="1.83876">
			 <ele>123</ele>
			<time>2016-02-08T22:01:18Z</time>
			</trkpt>

			<trkpt lat="47.99553" lon="1.83919">
			 <ele>125</ele>
			<time>2016-02-08T22:03:18Z</time>
			</trkpt>

			<trkpt lat="47.99731" lon="1.83997">
			 <ele>126</ele>
			<time>2016-02-08T22:05:18Z</time>
			</trkpt>

			<trkpt lat="47.99848" lon="1.84061">
			 <ele>124</ele>
			<time>2016-02-08T22:07:18Z</time>
			</trkpt>

			<trkpt lat="47.99971" lon="1.84183">
			 <ele>125</ele>
			<time>2016-02-08T22:09:18Z</time>
			</trkpt>

			<trkpt lat="48.00505" lon="1.84306">
			 <ele>123</ele>
			<time>2016-02-08T22:11:18Z</time>
			</trkpt>

			<trkpt lat="48.00846" lon="1.84385">
			 <ele>122</ele>
			<time>2016-02-08T22:13:18Z</time>
			</trkpt>

			<trkpt lat="48.0092" lon="1.84434">
			 <ele>122</ele>
			<time>2016-02-08T22:15:18Z</time>
			</trkpt>

			<trkpt lat="48.00988" lon="1.84492">
			 <ele>121</ele>
			<time>2016-02-08T22:17:18Z</time>
			</trkpt>

			<trkpt lat="48.01041" lon="1.84572">
			 <ele>122</ele>
			<time>2016-02-08T22:19:18Z</time>
			</trkpt>

			<trkpt lat="48.01094" lon="1.84651">
			 <ele>121</ele>
			<time>2016-02-08T22:21:18Z</time>
			</trkpt>

			<trkpt lat="48.0114" lon="1.84694">
			 <ele>121</ele>
			<time>2016-02-08T22:23:18Z</time>
			</trkpt>

			<trkpt lat="48.01306" lon="1.84741">
			 <ele>122</ele>
			<time>2016-02-08T22:25:18Z</time>
			</trkpt>

			<trkpt lat="48.01546" lon="1.85001">
			 <ele>120</ele>
			<time>2016-02-08T22:27:18Z</time>
			</trkpt>

			<trkpt lat="48.02153" lon="1.85679">
			 <ele>121</ele>
			<time>2016-02-08T22:29:18Z</time>
			</trkpt>

			<trkpt lat="48.02341" lon="1.85885">
			 <ele>125</ele>
			<time>2016-02-08T22:31:18Z</time>
			</trkpt>

			<trkpt lat="48.0229" lon="1.85245">
			 <ele>122</ele>
			<time>2016-02-08T22:33:18Z</time>
			</trkpt>

			<trkpt lat="48.02252" lon="1.84743">
			 <ele>121</ele>
			<time>2016-02-08T22:35:18Z</time>
			</trkpt>

			<trkpt lat="48.02241" lon="1.84688">
			 <ele>121</ele>
			<time>2016-02-08T22:37:18Z</time>
			</trkpt>

			<trkpt lat="48.02147" lon="1.84447">
			 <ele>120</ele>
			<time>2016-02-08T22:39:18Z</time>
			</trkpt>

			<trkpt lat="48.02064" lon="1.84215">
			 <ele>121</ele>
			<time>2016-02-08T22:41:18Z</time>
			</trkpt>

			<trkpt lat="48.02024" lon="1.84097">
			 <ele>120</ele>
			<time>2016-02-08T22:43:18Z</time>
			</trkpt>

			<trkpt lat="48.01995" lon="1.83922">
			 <ele>121</ele>
			<time>2016-02-08T22:45:18Z</time>
			</trkpt>

			<trkpt lat="48.01955" lon="1.83808">
			 <ele>120</ele>
			<time>2016-02-08T22:47:18Z</time>
			</trkpt>

			<trkpt lat="48.01918" lon="1.8369">
			 <ele>120</ele>
			<time>2016-02-08T22:49:18Z</time>
			</trkpt>

			<trkpt lat="48.01889" lon="1.836">
			 <ele>120</ele>
			<time>2016-02-08T22:51:18Z</time>
			</trkpt>

			<trkpt lat="48.0185" lon="1.83529">
			 <ele>121</ele>
			<time>2016-02-08T22:53:18Z</time>
			</trkpt>

			<trkpt lat="48.01807" lon="1.83445">
			 <ele>120</ele>
			<time>2016-02-08T22:55:18Z</time>
			</trkpt>

			<trkpt lat="48.01802" lon="1.83398">
			 <ele>120</ele>
			<time>2016-02-08T22:57:18Z</time>
			</trkpt>

			<trkpt lat="48.01813" lon="1.83334">
			 <ele>120</ele>
			<time>2016-02-08T22:59:18Z</time>
			</trkpt>

			<trkpt lat="48.01952" lon="1.82741">
			 <ele>119</ele>
			<time>2016-02-08T23:01:18Z</time>
			</trkpt>

			<trkpt lat="48.01965" lon="1.82634">
			 <ele>119</ele>
			<time>2016-02-08T23:03:18Z</time>
			</trkpt>

			<trkpt lat="48.0198" lon="1.82527">
			 <ele>118</ele>
			<time>2016-02-08T23:05:18Z</time>
			</trkpt>

			<trkpt lat="48.02007" lon="1.82486">
			 <ele>118</ele>
			<time>2016-02-08T23:07:18Z</time>
			</trkpt>

			<trkpt lat="48.0228" lon="1.82274">
			 <ele>121</ele>
			<time>2016-02-08T23:09:18Z</time>
			</trkpt>

			<trkpt lat="48.02321" lon="1.82248">
			 <ele>122</ele>
			<time>2016-02-08T23:11:18Z</time>
			</trkpt>

			<trkpt lat="48.02544" lon="1.82016">
			 <ele>123</ele>
			<time>2016-02-08T23:13:18Z</time>
			</trkpt>

			<trkpt lat="48.02773" lon="1.81954">
			 <ele>123</ele>
			<time>2016-02-08T23:15:18Z</time>
			</trkpt>

			<trkpt lat="48.02808" lon="1.81956">
			 <ele>123</ele>
			<time>2016-02-08T23:17:18Z</time>
			</trkpt>

			<trkpt lat="48.02943" lon="1.82035">
			 <ele>124</ele>
			<time>2016-02-08T23:19:18Z</time>
			</trkpt>

			<trkpt lat="48.02976" lon="1.8208">
			 <ele>123</ele>
			<time>2016-02-08T23:21:18Z</time>
			</trkpt>

			<trkpt lat="48.03033" lon="1.82166">
			 <ele>123</ele>
			<time>2016-02-08T23:23:18Z</time>
			</trkpt>

			<trkpt lat="48.03296" lon="1.82471">
			 <ele>124</ele>
			<time>2016-02-08T23:25:18Z</time>
			</trkpt>

			<trkpt lat="48.03376" lon="1.82329">
			 <ele>124</ele>
			<time>2016-02-08T23:27:18Z</time>
			</trkpt>

			<trkpt lat="48.03552" lon="1.81941">
			 <ele>125</ele>
			<time>2016-02-08T23:29:18Z</time>
			</trkpt>

			<trkpt lat="48.03565" lon="1.81905">
			 <ele>126</ele>
			<time>2016-02-08T23:31:18Z</time>
			</trkpt>

			<trkpt lat="48.03565" lon="1.8184">
			 <ele>127</ele>
			<time>2016-02-08T23:33:18Z</time>
			</trkpt>

			<trkpt lat="48.03587" lon="1.81055">
			 <ele>127</ele>
			<time>2016-02-08T23:35:18Z</time>
			</trkpt>

			<trkpt lat="48.03584" lon="1.81018">
			 <ele>128</ele>
			<time>2016-02-08T23:37:18Z</time>
			</trkpt>

			<trkpt lat="48.03521" lon="1.80787">
			 <ele>127</ele>
			<time>2016-02-08T23:39:18Z</time>
			</trkpt>

			<trkpt lat="48.03511" lon="1.80735">
			 <ele>127</ele>
			<time>2016-02-08T23:41:18Z</time>
			</trkpt>

			<trkpt lat="48.03524" lon="1.80686">
			 <ele>128</ele>
			<time>2016-02-08T23:43:18Z</time>
			</trkpt>

			<trkpt lat="48.03647" lon="1.80465">
			 <ele>128</ele>
			<time>2016-02-08T23:45:18Z</time>
			</trkpt>

			<trkpt lat="48.03703" lon="1.8031">
			 <ele>126</ele>
			<time>2016-02-08T23:47:18Z</time>
			</trkpt>

			<trkpt lat="48.03743" lon="1.8034">
			 <ele>125</ele>
			<time>2016-02-08T23:49:18Z</time>
			</trkpt>

			<trkpt lat="48.03785" lon="1.80351">
			 <ele>126</ele>
			<time>2016-02-08T23:51:18Z</time>
			</trkpt>

			<trkpt lat="48.03824" lon="1.80366">
			 <ele>126</ele>
			<time>2016-02-08T23:53:18Z</time>
			</trkpt>

			<trkpt lat="48.03898" lon="1.80402">
			 <ele>125</ele>
			<time>2016-02-08T23:55:18Z</time>
			</trkpt>

			<trkpt lat="48.04007" lon="1.80394">
			 <ele>125</ele>
			<time>2016-02-08T23:57:18Z</time>
			</trkpt>

			<trkpt lat="48.04049" lon="1.8036">
			 <ele>126</ele>
			<time>2016-02-08T23:59:18Z</time>
			</trkpt>

			<trkpt lat="48.04469" lon="1.79965">
			 <ele>125</ele>
			<time>2016-02-09T00:01:18Z</time>
			</trkpt>

			<trkpt lat="48.04539" lon="1.79892">
			 <ele>127</ele>
			<time>2016-02-09T00:03:18Z</time>
			</trkpt>

			<trkpt lat="48.04667" lon="1.79754">
			 <ele>130</ele>
			<time>2016-02-09T00:05:18Z</time>
			</trkpt>

			<trkpt lat="48.04842" lon="1.79561">
			 <ele>128</ele>
			<time>2016-02-09T00:07:18Z</time>
			</trkpt>

			<trkpt lat="48.04877" lon="1.79512">
			 <ele>127</ele>
			<time>2016-02-09T00:09:18Z</time>
			</trkpt>

			<trkpt lat="48.04976" lon="1.79377">
			 <ele>126</ele>
			<time>2016-02-09T00:11:18Z</time>
			</trkpt>

			<trkpt lat="48.05103" lon="1.7919">
			 <ele>127</ele>
			<time>2016-02-09T00:13:18Z</time>
			</trkpt>

			<trkpt lat="48.0514" lon="1.79147">
			 <ele>127</ele>
			<time>2016-02-09T00:15:18Z</time>
			</trkpt>

			<trkpt lat="48.05198" lon="1.79141">
			 <ele>128</ele>
			<time>2016-02-09T00:17:18Z</time>
			</trkpt>

			<trkpt lat="48.05239" lon="1.79149">
			 <ele>130</ele>
			<time>2016-02-09T00:19:18Z</time>
			</trkpt>

			<trkpt lat="48.05275" lon="1.79182">
			 <ele>130</ele>
			<time>2016-02-09T00:21:18Z</time>
			</trkpt>

			<trkpt lat="48.05303" lon="1.79151">
			 <ele>130</ele>
			<time>2016-02-09T00:23:18Z</time>
			</trkpt>

			<trkpt lat="48.05344" lon="1.79081">
			 <ele>130</ele>
			<time>2016-02-09T00:25:18Z</time>
			</trkpt>

			<trkpt lat="48.05374" lon="1.79023">
			 <ele>131</ele>
			<time>2016-02-09T00:27:18Z</time>
			</trkpt>

			<trkpt lat="48.054" lon="1.78952">
			 <ele>132</ele>
			<time>2016-02-09T00:29:18Z</time>
			</trkpt>

			<trkpt lat="48.05416" lon="1.78905">
			 <ele>132</ele>
			<time>2016-02-09T00:31:18Z</time>
			</trkpt>

			<trkpt lat="48.05427" lon="1.78866">
			 <ele>131</ele>
			<time>2016-02-09T00:33:18Z</time>
			</trkpt>

			<trkpt lat="48.05459" lon="1.7884">
			 <ele>130</ele>
			<time>2016-02-09T00:35:18Z</time>
			</trkpt>

			<trkpt lat="48.05516" lon="1.78742">
			 <ele>130</ele>
			<time>2016-02-09T00:37:18Z</time>
			</trkpt>

			<trkpt lat="48.05536" lon="1.78679">
			 <ele>130</ele>
			<time>2016-02-09T00:39:18Z</time>
			</trkpt>

			<trkpt lat="48.05566" lon="1.78615">
			 <ele>129</ele>
			<time>2016-02-09T00:41:18Z</time>
			</trkpt>

			<trkpt lat="48.05651" lon="1.78413">
			 <ele>129</ele>
			<time>2016-02-09T00:43:18Z</time>
			</trkpt>

			<trkpt lat="48.05762" lon="1.78203">
			 <ele>128</ele>
			<time>2016-02-09T00:45:18Z</time>
			</trkpt>

			<trkpt lat="48.05832" lon="1.78059">
			 <ele>128</ele>
			<time>2016-02-09T00:47:18Z</time>
			</trkpt>

			<trkpt lat="48.05888" lon="1.77924">
			 <ele>129</ele>
			<time>2016-02-09T00:49:18Z</time>
			</trkpt>

			<trkpt lat="48.05921" lon="1.77838">
			 <ele>128</ele>
			<time>2016-02-09T00:51:18Z</time>
			</trkpt>

			<trkpt lat="48.06017" lon="1.77561">
			 <ele>128</ele>
			<time>2016-02-09T00:53:18Z</time>
			</trkpt>

			<trkpt lat="48.06043" lon="1.77486">
			 <ele>128</ele>
			<time>2016-02-09T00:55:18Z</time>
			</trkpt>

			<trkpt lat="48.0611" lon="1.77362">
			 <ele>127</ele>
			<time>2016-02-09T00:57:18Z</time>
			</trkpt>

			<trkpt lat="48.06154" lon="1.77265">
			 <ele>127</ele>
			<time>2016-02-09T00:59:18Z</time>
			</trkpt>

			<trkpt lat="48.06208" lon="1.77167">
			 <ele>126</ele>
			<time>2016-02-09T01:01:18Z</time>
			</trkpt>

			<trkpt lat="48.06271" lon="1.77077">
			 <ele>127</ele>
			<time>2016-02-09T01:03:18Z</time>
			</trkpt>

			<trkpt lat="48.06322" lon="1.77004">
			 <ele>128</ele>
			<time>2016-02-09T01:05:18Z</time>
			</trkpt>

			<trkpt lat="48.06408" lon="1.76911">
			 <ele>129</ele>
			<time>2016-02-09T01:07:18Z</time>
			</trkpt>

			<trkpt lat="48.06477" lon="1.76838">
			 <ele>129</ele>
			<time>2016-02-09T01:09:18Z</time>
			</trkpt>

			<trkpt lat="48.0656" lon="1.76744">
			 <ele>129</ele>
			<time>2016-02-09T01:11:18Z</time>
			</trkpt>

			<trkpt lat="48.06592" lon="1.76695">
			 <ele>129</ele>
			<time>2016-02-09T01:13:18Z</time>
			</trkpt>

			<trkpt lat="48.06744" lon="1.76467">
			 <ele>128</ele>
			<time>2016-02-09T01:15:18Z</time>
			</trkpt>

			<trkpt lat="48.06781" lon="1.76416">
			 <ele>129</ele>
			<time>2016-02-09T01:17:18Z</time>
			</trkpt>

			<trkpt lat="48.06933" lon="1.7619">
			 <ele>127</ele>
			<time>2016-02-09T01:19:18Z</time>
			</trkpt>

			<trkpt lat="48.07033" lon="1.76042">
			 <ele>127</ele>
			<time>2016-02-09T01:21:18Z</time>
			</trkpt>

			<trkpt lat="48.0712" lon="1.75886">
			 <ele>128</ele>
			<time>2016-02-09T01:23:18Z</time>
			</trkpt>

			<trkpt lat="48.07188" lon="1.75742">
			 <ele>127</ele>
			<time>2016-02-09T01:25:18Z</time>
			</trkpt>

			<trkpt lat="48.0726" lon="1.75583">
			 <ele>128</ele>
			<time>2016-02-09T01:27:18Z</time>
			</trkpt>

			<trkpt lat="48.07323" lon="1.7542">
			 <ele>125</ele>
			<time>2016-02-09T01:29:18Z</time>
			</trkpt>

			<trkpt lat="48.07366" lon="1.75302">
			 <ele>126</ele>
			<time>2016-02-09T01:31:18Z</time>
			</trkpt>

			<trkpt lat="48.07432" lon="1.75163">
			 <ele>124</ele>
			<time>2016-02-09T01:33:18Z</time>
			</trkpt>

			<trkpt lat="48.07458" lon="1.75096">
			 <ele>122</ele>
			<time>2016-02-09T01:35:18Z</time>
			</trkpt>

			<trkpt lat="48.07512" lon="1.74926">
			 <ele>122</ele>
			<time>2016-02-09T01:37:18Z</time>
			</trkpt>

			<trkpt lat="48.07591" lon="1.7483">
			 <ele>122</ele>
			<time>2016-02-09T01:39:18Z</time>
			</trkpt>

			<trkpt lat="48.077" lon="1.74712">
			 <ele>121</ele>
			<time>2016-02-09T01:41:18Z</time>
			</trkpt>

			<trkpt lat="48.07776" lon="1.7463">
			 <ele>122</ele>
			<time>2016-02-09T01:43:18Z</time>
			</trkpt>

			<trkpt lat="48.07858" lon="1.74514">
			 <ele>122</ele>
			<time>2016-02-09T01:45:18Z</time>
			</trkpt>

			<trkpt lat="48.07925" lon="1.74424">
			 <ele>123</ele>
			<time>2016-02-09T01:47:18Z</time>
			</trkpt>

			<trkpt lat="48.07971" lon="1.7436">
			 <ele>125</ele>
			<time>2016-02-09T01:49:18Z</time>
			</trkpt>

			<trkpt lat="48.08016" lon="1.74319">
			 <ele>126</ele>
			<time>2016-02-09T01:51:18Z</time>
			</trkpt>

			<trkpt lat="48.08109" lon="1.74193">
			 <ele>128</ele>
			<time>2016-02-09T01:53:18Z</time>
			</trkpt>

			<trkpt lat="48.08176" lon="1.7404">
			 <ele>129</ele>
			<time>2016-02-09T01:55:18Z</time>
			</trkpt>

			<trkpt lat="48.08215" lon="1.74034">
			 <ele>130</ele>
			<time>2016-02-09T01:57:18Z</time>
			</trkpt>

			<trkpt lat="48.08255" lon="1.74047">
			 <ele>131</ele>
			<time>2016-02-09T01:59:18Z</time>
			</trkpt>

			<trkpt lat="48.08301" lon="1.73999">
			 <ele>129</ele>
			<time>2016-02-09T02:01:18Z</time>
			</trkpt>

			<trkpt lat="48.08385" lon="1.73905">
			 <ele>127</ele>
			<time>2016-02-09T02:03:18Z</time>
			</trkpt>

			<trkpt lat="48.08542" lon="1.73718">
			 <ele>128</ele>
			<time>2016-02-09T02:05:18Z</time>
			</trkpt>

			<trkpt lat="48.08572" lon="1.73699">
			 <ele>128</ele>
			<time>2016-02-09T02:07:18Z</time>
			</trkpt>

			<trkpt lat="48.08631" lon="1.73673">
			 <ele>129</ele>
			<time>2016-02-09T02:09:18Z</time>
			</trkpt>

			<trkpt lat="48.08899" lon="1.73555">
			 <ele>131</ele>
			<time>2016-02-09T02:11:18Z</time>
			</trkpt>

			<trkpt lat="48.08939" lon="1.73527">
			 <ele>131</ele>
			<time>2016-02-09T02:13:18Z</time>
			</trkpt>

			<trkpt lat="48.09032" lon="1.73452">
			 <ele>132</ele>
			<time>2016-02-09T02:15:18Z</time>
			</trkpt>

			<trkpt lat="48.09119" lon="1.73362">
			 <ele>132</ele>
			<time>2016-02-09T02:17:18Z</time>
			</trkpt>

			<trkpt lat="48.09237" lon="1.73285">
			 <ele>131</ele>
			<time>2016-02-09T02:19:18Z</time>
			</trkpt>

			<trkpt lat="48.09367" lon="1.73206">
			 <ele>130</ele>
			<time>2016-02-09T02:21:18Z</time>
			</trkpt>

			<trkpt lat="48.09417" lon="1.73156">
			 <ele>130</ele>
			<time>2016-02-09T02:23:18Z</time>
			</trkpt>

			<trkpt lat="48.09463" lon="1.73079">
			 <ele>127</ele>
			<time>2016-02-09T02:25:18Z</time>
			</trkpt>

			<trkpt lat="48.09539" lon="1.72939">
			 <ele>127</ele>
			<time>2016-02-09T02:27:18Z</time>
			</trkpt>

			<trkpt lat="48.09594" lon="1.72869">
			 <ele>128</ele>
			<time>2016-02-09T02:29:18Z</time>
			</trkpt>

			<trkpt lat="48.09614" lon="1.72839">
			 <ele>129</ele>
			<time>2016-02-09T02:31:18Z</time>
			</trkpt>

			<trkpt lat="48.0965" lon="1.72791">
			 <ele>129</ele>
			<time>2016-02-09T02:33:18Z</time>
			</trkpt>

			<trkpt lat="48.09674" lon="1.72768">
			 <ele>129</ele>
			<time>2016-02-09T02:35:18Z</time>
			</trkpt>

			<trkpt lat="48.09751" lon="1.72749">
			 <ele>129</ele>
			<time>2016-02-09T02:37:18Z</time>
			</trkpt>

			<trkpt lat="48.09784" lon="1.72718">
			 <ele>129</ele>
			<time>2016-02-09T02:39:18Z</time>
			</trkpt>

			<trkpt lat="48.09804" lon="1.7268">
			 <ele>129</ele>
			<time>2016-02-09T02:41:18Z</time>
			</trkpt>

			<trkpt lat="48.09859" lon="1.72476">
			 <ele>129</ele>
			<time>2016-02-09T02:43:18Z</time>
			</trkpt>

			<trkpt lat="48.09978" lon="1.72495">
			 <ele>128</ele>
			<time>2016-02-09T02:45:18Z</time>
			</trkpt>

			<trkpt lat="48.10051" lon="1.72525">
			 <ele>127</ele>
			<time>2016-02-09T02:47:18Z</time>
			</trkpt>

			<trkpt lat="48.10173" lon="1.72081">
			 <ele>129</ele>
			<time>2016-02-09T02:49:18Z</time>
			</trkpt>

			<trkpt lat="48.10269" lon="1.71886">
			 <ele>128</ele>
			<time>2016-02-09T02:51:18Z</time>
			</trkpt>

			<trkpt lat="48.10297" lon="1.71817">
			 <ele>129</ele>
			<time>2016-02-09T02:53:18Z</time>
			</trkpt>

			<trkpt lat="48.10339" lon="1.71719">
			 <ele>128</ele>
			<time>2016-02-09T02:55:18Z</time>
			</trkpt>

			<trkpt lat="48.10382" lon="1.71618">
			 <ele>127</ele>
			<time>2016-02-09T02:57:18Z</time>
			</trkpt>

			<trkpt lat="48.10465" lon="1.71493">
			 <ele>128</ele>
			<time>2016-02-09T02:59:18Z</time>
			</trkpt>

			<trkpt lat="48.10614" lon="1.71277">
			 <ele>129</ele>
			<time>2016-02-09T03:01:18Z</time>
			</trkpt>

			<trkpt lat="48.10729" lon="1.71101">
			 <ele>130</ele>
			<time>2016-02-09T03:03:18Z</time>
			</trkpt>

			<trkpt lat="48.1077" lon="1.70993">
			 <ele>131</ele>
			<time>2016-02-09T03:05:18Z</time>
			</trkpt>

			<trkpt lat="48.10747" lon="1.7097">
			 <ele>131</ele>
			<time>2016-02-09T03:07:18Z</time>
			</trkpt>

			<trkpt lat="48.10684" lon="1.70931">
			 <ele>131</ele>
			<time>2016-02-09T03:09:18Z</time>
			</trkpt>

			<trkpt lat="48.10511" lon="1.70798">
			 <ele>129</ele>
			<time>2016-02-09T03:11:18Z</time>
			</trkpt>

			<trkpt lat="48.10151" lon="1.70491">
			 <ele>130</ele>
			<time>2016-02-09T03:13:18Z</time>
			</trkpt>

			<trkpt lat="48.1011" lon="1.70468">
			 <ele>130</ele>
			<time>2016-02-09T03:15:18Z</time>
			</trkpt>

			<trkpt lat="48.09982" lon="1.70401">
			 <ele>128</ele>
			<time>2016-02-09T03:17:18Z</time>
			</trkpt>

			<trkpt lat="48.09799" lon="1.70326">
			 <ele>130</ele>
			<time>2016-02-09T03:19:18Z</time>
			</trkpt>

			<trkpt lat="48.09585" lon="1.70242">
			 <ele>130</ele>
			<time>2016-02-09T03:21:18Z</time>
			</trkpt>

			<trkpt lat="48.094" lon="1.70176">
			 <ele>129</ele>
			<time>2016-02-09T03:23:18Z</time>
			</trkpt>

			<trkpt lat="48.09118" lon="1.70071">
			 <ele>130</ele>
			<time>2016-02-09T03:25:18Z</time>
			</trkpt>

			<trkpt lat="48.09046" lon="1.70051">
			 <ele>131</ele>
			<time>2016-02-09T03:27:18Z</time>
			</trkpt>

			<trkpt lat="48.08963" lon="1.70088">
			 <ele>130</ele>
			<time>2016-02-09T03:29:18Z</time>
			</trkpt>

			<trkpt lat="48.08937" lon="1.70101">
			 <ele>130</ele>
			<time>2016-02-09T03:31:18Z</time>
			</trkpt>

			<trkpt lat="48.08953" lon="1.70019">
			 <ele>131</ele>
			<time>2016-02-09T03:33:18Z</time>
			</trkpt>

			<trkpt lat="48.08972" lon="1.6986">
			 <ele>130</ele>
			<time>2016-02-09T03:35:18Z</time>
			</trkpt>

			<trkpt lat="48.08982" lon="1.69794">
			 <ele>129</ele>
			<time>2016-02-09T03:37:18Z</time>
			</trkpt>

			<trkpt lat="48.08985" lon="1.69687">
			 <ele>130</ele>
			<time>2016-02-09T03:39:18Z</time>
			</trkpt>

			<trkpt lat="48.09019" lon="1.69532">
			 <ele>132</ele>
			<time>2016-02-09T03:41:18Z</time>
			</trkpt>

			<trkpt lat="48.09035" lon="1.69431">
			 <ele>130</ele>
			<time>2016-02-09T03:43:18Z</time>
			</trkpt>

			<trkpt lat="48.09088" lon="1.69124">
			 <ele>130</ele>
			<time>2016-02-09T03:45:18Z</time>
			</trkpt>

			<trkpt lat="48.09099" lon="1.69004">
			 <ele>130</ele>
			<time>2016-02-09T03:47:18Z</time>
			</trkpt>

			<trkpt lat="48.09098" lon="1.6892">
			 <ele>127</ele>
			<time>2016-02-09T03:49:18Z</time>
			</trkpt>

			<trkpt lat="48.09058" lon="1.68234">
			 <ele>132</ele>
			<time>2016-02-09T03:51:18Z</time>
			</trkpt>

			<trkpt lat="48.09059" lon="1.67987">
			 <ele>132</ele>
			<time>2016-02-09T03:53:18Z</time>
			</trkpt>

			<trkpt lat="48.09083" lon="1.67466">
			 <ele>130</ele>
			<time>2016-02-09T03:55:18Z</time>
			</trkpt>

			<trkpt lat="48.09081" lon="1.67305">
			 <ele>128</ele>
			<time>2016-02-09T03:57:18Z</time>
			</trkpt>

			<trkpt lat="48.09042" lon="1.668">
			 <ele>129</ele>
			<time>2016-02-09T03:59:18Z</time>
			</trkpt>

			<trkpt lat="48.09036" lon="1.66747">
			 <ele>128</ele>
			<time>2016-02-09T04:01:18Z</time>
			</trkpt>

			<trkpt lat="48.0902" lon="1.66659">
			 <ele>129</ele>
			<time>2016-02-09T04:03:18Z</time>
			</trkpt>

			<trkpt lat="48.09028" lon="1.66612">
			 <ele>129</ele>
			<time>2016-02-09T04:05:18Z</time>
			</trkpt>

			<trkpt lat="48.09085" lon="1.6647">
			 <ele>130</ele>
			<time>2016-02-09T04:07:18Z</time>
			</trkpt>

			<trkpt lat="48.09147" lon="1.66343">
			 <ele>133</ele>
			<time>2016-02-09T04:09:18Z</time>
			</trkpt>

			<trkpt lat="48.09169" lon="1.66279">
			 <ele>134</ele>
			<time>2016-02-09T04:11:18Z</time>
			</trkpt>

			<trkpt lat="48.09181" lon="1.66202">
			 <ele>134</ele>
			<time>2016-02-09T04:13:18Z</time>
			</trkpt>

			<trkpt lat="48.09149" lon="1.66228">
			 <ele>134</ele>
			<time>2016-02-09T04:15:18Z</time>
			</trkpt>

			<trkpt lat="48.09099" lon="1.66238">
			 <ele>133</ele>
			<time>2016-02-09T04:17:18Z</time>
			</trkpt>

			<trkpt lat="48.09049" lon="1.66245">
			 <ele>132</ele>
			<time>2016-02-09T04:19:18Z</time>
			</trkpt>

			<trkpt lat="48.09" lon="1.66264">
			 <ele>130</ele>
			<time>2016-02-09T04:21:18Z</time>
			</trkpt>

			<trkpt lat="48.08853" lon="1.66367">
			 <ele>129</ele>
			<time>2016-02-09T04:23:18Z</time>
			</trkpt>

			<trkpt lat="48.08795" lon="1.66401">
			 <ele>130</ele>
			<time>2016-02-09T04:25:18Z</time>
			</trkpt>

			<trkpt lat="48.08698" lon="1.66444">
			 <ele>129</ele>
			<time>2016-02-09T04:27:18Z</time>
			</trkpt>

			<trkpt lat="48.08546" lon="1.66506">
			 <ele>129</ele>
			<time>2016-02-09T04:29:18Z</time>
			</trkpt>

			<trkpt lat="48.07995" lon="1.66738">
			 <ele>130</ele>
			<time>2016-02-09T04:31:18Z</time>
			</trkpt>

			<trkpt lat="48.07812" lon="1.66811">
			 <ele>132</ele>
			<time>2016-02-09T04:33:18Z</time>
			</trkpt>

			<trkpt lat="48.07398" lon="1.66976">
			 <ele>129</ele>
			<time>2016-02-09T04:35:18Z</time>
			</trkpt>

			<trkpt lat="48.07345" lon="1.67004">
			 <ele>128</ele>
			<time>2016-02-09T04:37:18Z</time>
			</trkpt>

			<trkpt lat="48.07197" lon="1.67124">
			 <ele>127</ele>
			<time>2016-02-09T04:39:18Z</time>
			</trkpt>

			<trkpt lat="48.07035" lon="1.67262">
			 <ele>124</ele>
			<time>2016-02-09T04:41:18Z</time>
			</trkpt>

			<trkpt lat="48.0691" lon="1.67367">
			 <ele>124</ele>
			<time>2016-02-09T04:43:18Z</time>
			</trkpt>

			<trkpt lat="48.06807" lon="1.67461">
			 <ele>128</ele>
			<time>2016-02-09T04:45:18Z</time>
			</trkpt>

			<trkpt lat="48.06514" lon="1.67736">
			 <ele>125</ele>
			<time>2016-02-09T04:47:18Z</time>
			</trkpt>

			<trkpt lat="48.06351" lon="1.67895">
			 <ele>128</ele>
			<time>2016-02-09T04:49:18Z</time>
			</trkpt>

			<trkpt lat="48.06252" lon="1.67996">
			 <ele>128</ele>
			<time>2016-02-09T04:51:18Z</time>
			</trkpt>

			<trkpt lat="48.0604" lon="1.68191">
			 <ele>124</ele>
			<time>2016-02-09T04:53:18Z</time>
			</trkpt>

			<trkpt lat="48.05866" lon="1.6836">
			 <ele>124</ele>
			<time>2016-02-09T04:55:18Z</time>
			</trkpt>

			<trkpt lat="48.05764" lon="1.68461">
			 <ele>124</ele>
			<time>2016-02-09T04:57:18Z</time>
			</trkpt>

			<trkpt lat="48.05506" lon="1.68712">
			 <ele>122</ele>
			<time>2016-02-09T04:59:18Z</time>
			</trkpt>

			<trkpt lat="48.05424" lon="1.6879">
			 <ele>122</ele>
			<time>2016-02-09T05:01:18Z</time>
			</trkpt>

			<trkpt lat="48.05323" lon="1.6889">
			 <ele>125</ele>
			<time>2016-02-09T05:03:18Z</time>
			</trkpt>

			<trkpt lat="48.05404" lon="1.68813">
			 <ele>122</ele>
			<time>2016-02-09T05:05:18Z</time>
			</trkpt>

			<trkpt lat="48.05347" lon="1.68867">
			 <ele>124</ele>
			<time>2016-02-09T05:07:18Z</time>
			</trkpt>

			<trkpt lat="48.05277" lon="1.68942">
			 <ele>125</ele>
			<time>2016-02-09T05:09:18Z</time>
			</trkpt>

			<trkpt lat="48.05241" lon="1.68987">
			 <ele>126</ele>
			<time>2016-02-09T05:11:18Z</time>
			</trkpt>

			<trkpt lat="48.05201" lon="1.69047">
			 <ele>127</ele>
			<time>2016-02-09T05:13:18Z</time>
			</trkpt>

			<trkpt lat="48.05136" lon="1.69163">
			 <ele>127</ele>
			<time>2016-02-09T05:15:18Z</time>
			</trkpt>

			<trkpt lat="48.05102" lon="1.69223">
			 <ele>126</ele>
			<time>2016-02-09T05:17:18Z</time>
			</trkpt>

			<trkpt lat="48.05059" lon="1.69281">
			 <ele>124</ele>
			<time>2016-02-09T05:19:18Z</time>
			</trkpt>

			<trkpt lat="48.05007" lon="1.69343">
			 <ele>123</ele>
			<time>2016-02-09T05:21:18Z</time>
			</trkpt>

			<trkpt lat="48.04973" lon="1.69397">
			 <ele>123</ele>
			<time>2016-02-09T05:23:18Z</time>
			</trkpt>

			<trkpt lat="48.0494" lon="1.69461">
			 <ele>123</ele>
			<time>2016-02-09T05:25:18Z</time>
			</trkpt>

			<trkpt lat="48.04918" lon="1.69506">
			 <ele>123</ele>
			<time>2016-02-09T05:27:18Z</time>
			</trkpt>

			<trkpt lat="48.04905" lon="1.69536">
			 <ele>123</ele>
			<time>2016-02-09T05:29:18Z</time>
			</trkpt>

			<trkpt lat="48.04848" lon="1.69573">
			 <ele>124</ele>
			<time>2016-02-09T05:31:18Z</time>
			</trkpt>

			<trkpt lat="48.04812" lon="1.69562">
			 <ele>124</ele>
			<time>2016-02-09T05:33:18Z</time>
			</trkpt>

			<trkpt lat="48.04793" lon="1.69553">
			 <ele>124</ele>
			<time>2016-02-09T05:35:18Z</time>
			</trkpt>

			<trkpt lat="48.04782" lon="1.6953">
			 <ele>123</ele>
			<time>2016-02-09T05:37:18Z</time>
			</trkpt>

			<trkpt lat="48.04743" lon="1.69564">
			 <ele>123</ele>
			<time>2016-02-09T05:39:18Z</time>
			</trkpt>

			<trkpt lat="48.04697" lon="1.6959">
			 <ele>121</ele>
			<time>2016-02-09T05:41:18Z</time>
			</trkpt>

			<trkpt lat="48.04667" lon="1.69584">
			 <ele>120</ele>
			<time>2016-02-09T05:43:18Z</time>
			</trkpt>

			<trkpt lat="48.04643" lon="1.69568">
			 <ele>120</ele>
			<time>2016-02-09T05:45:18Z</time>
			</trkpt>

			<trkpt lat="48.04561" lon="1.69663">
			 <ele>120</ele>
			<time>2016-02-09T05:47:18Z</time>
			</trkpt>

			<trkpt lat="48.04459" lon="1.6979">
			 <ele>121</ele>
			<time>2016-02-09T05:49:18Z</time>
			</trkpt>

			<trkpt lat="48.04432" lon="1.69811">
			 <ele>122</ele>
			<time>2016-02-09T05:51:18Z</time>
			</trkpt>

			<trkpt lat="48.04402" lon="1.6982">
			 <ele>122</ele>
			<time>2016-02-09T05:53:18Z</time>
			</trkpt>

			<trkpt lat="48.04308" lon="1.69839">
			 <ele>122</ele>
			<time>2016-02-09T05:55:18Z</time>
			</trkpt>

			<trkpt lat="48.04268" lon="1.69869">
			 <ele>122</ele>
			<time>2016-02-09T05:57:18Z</time>
			</trkpt>

			<trkpt lat="48.04151" lon="1.69959">
			 <ele>121</ele>
			<time>2016-02-09T05:59:18Z</time>
			</trkpt>

			<trkpt lat="48.03915" lon="1.70137">
			 <ele>120</ele>
			<time>2016-02-09T06:01:18Z</time>
			</trkpt>

			<trkpt lat="48.03512" lon="1.70438">
			 <ele>124</ele>
			<time>2016-02-09T06:03:18Z</time>
			</trkpt>

			<trkpt lat="48.03387" lon="1.70536">
			 <ele>124</ele>
			<time>2016-02-09T06:05:18Z</time>
			</trkpt>

			<trkpt lat="48.03336" lon="1.70575">
			 <ele>124</ele>
			<time>2016-02-09T06:07:18Z</time>
			</trkpt>

			<trkpt lat="48.03275" lon="1.70607">
			 <ele>124</ele>
			<time>2016-02-09T06:09:18Z</time>
			</trkpt>

			<trkpt lat="48.03152" lon="1.70639">
			 <ele>123</ele>
			<time>2016-02-09T06:11:18Z</time>
			</trkpt>

			<trkpt lat="48.03042" lon="1.70639">
			 <ele>121</ele>
			<time>2016-02-09T06:13:18Z</time>
			</trkpt>

			<trkpt lat="48.03034" lon="1.70669">
			 <ele>120</ele>
			<time>2016-02-09T06:15:18Z</time>
			</trkpt>

			<trkpt lat="48.03017" lon="1.70684">
			 <ele>120</ele>
			<time>2016-02-09T06:17:18Z</time>
			</trkpt>

			<trkpt lat="48.02961" lon="1.70729">
			 <ele>120</ele>
			<time>2016-02-09T06:19:18Z</time>
			</trkpt>

			<trkpt lat="48.02917" lon="1.70766">
			 <ele>121</ele>
			<time>2016-02-09T06:21:18Z</time>
			</trkpt>

			<trkpt lat="48.02849" lon="1.7083">
			 <ele>120</ele>
			<time>2016-02-09T06:23:18Z</time>
			</trkpt>

			<trkpt lat="48.02782" lon="1.7089">
			 <ele>120</ele>
			<time>2016-02-09T06:25:18Z</time>
			</trkpt>

			<trkpt lat="48.027" lon="1.70961">
			 <ele>119</ele>
			<time>2016-02-09T06:27:18Z</time>
			</trkpt>

			<trkpt lat="48.026" lon="1.71075">
			 <ele>119</ele>
			<time>2016-02-09T06:29:18Z</time>
			</trkpt>

			<trkpt lat="48.02518" lon="1.71161">
			 <ele>119</ele>
			<time>2016-02-09T06:31:18Z</time>
			</trkpt>

			<trkpt lat="48.02466" lon="1.71277">
			 <ele>117</ele>
			<time>2016-02-09T06:33:18Z</time>
			</trkpt>

			<trkpt lat="48.02452" lon="1.71463">
			 <ele>118</ele>
			<time>2016-02-09T06:35:18Z</time>
			</trkpt>

			<trkpt lat="48.02447" lon="1.71519">
			 <ele>119</ele>
			<time>2016-02-09T06:37:18Z</time>
			</trkpt>

			<trkpt lat="48.02432" lon="1.71566">
			 <ele>118</ele>
			<time>2016-02-09T06:39:18Z</time>
			</trkpt>

			<trkpt lat="48.02412" lon="1.71618">
			 <ele>118</ele>
			<time>2016-02-09T06:41:18Z</time>
			</trkpt>

			<trkpt lat="48.02341" lon="1.71742">
			 <ele>117</ele>
			<time>2016-02-09T06:43:18Z</time>
			</trkpt>

			<trkpt lat="48.02291" lon="1.71832">
			 <ele>116</ele>
			<time>2016-02-09T06:45:18Z</time>
			</trkpt>

			<trkpt lat="48.02269" lon="1.71886">
			 <ele>116</ele>
			<time>2016-02-09T06:47:18Z</time>
			</trkpt>

			<trkpt lat="48.02225" lon="1.72073">
			 <ele>118</ele>
			<time>2016-02-09T06:49:18Z</time>
			</trkpt>

			<trkpt lat="48.02132" lon="1.72457">
			 <ele>119</ele>
			<time>2016-02-09T06:51:18Z</time>
			</trkpt>

			<trkpt lat="48.02096" lon="1.7254">
			 <ele>118</ele>
			<time>2016-02-09T06:53:18Z</time>
			</trkpt>

			<trkpt lat="48.02004" lon="1.72716">
			 <ele>118</ele>
			<time>2016-02-09T06:55:18Z</time>
			</trkpt>

			<trkpt lat="48.01937" lon="1.72824">
			 <ele>118</ele>
			<time>2016-02-09T06:57:18Z</time>
			</trkpt>

			<trkpt lat="48.01895" lon="1.72864">
			 <ele>117</ele>
			<time>2016-02-09T06:59:18Z</time>
			</trkpt>

			<trkpt lat="48.01852" lon="1.72903">
			 <ele>118</ele>
			<time>2016-02-09T07:01:18Z</time>
			</trkpt>

			<trkpt lat="48.01816" lon="1.72929">
			 <ele>118</ele>
			<time>2016-02-09T07:03:18Z</time>
			</trkpt>

			<trkpt lat="48.01769" lon="1.7297">
			 <ele>116</ele>
			<time>2016-02-09T07:05:18Z</time>
			</trkpt>

			<trkpt lat="48.01731" lon="1.73004">
			 <ele>116</ele>
			<time>2016-02-09T07:07:18Z</time>
			</trkpt>

			<trkpt lat="48.01685" lon="1.73055">
			 <ele>117</ele>
			<time>2016-02-09T07:09:18Z</time>
			</trkpt>

			<trkpt lat="48.01635" lon="1.731">
			 <ele>117</ele>
			<time>2016-02-09T07:11:18Z</time>
			</trkpt>

			<trkpt lat="48.01575" lon="1.73152">
			 <ele>117</ele>
			<time>2016-02-09T07:13:18Z</time>
			</trkpt>

			<trkpt lat="48.0152" lon="1.73184">
			 <ele>116</ele>
			<time>2016-02-09T07:15:18Z</time>
			</trkpt>

			<trkpt lat="48.01479" lon="1.73227">
			 <ele>116</ele>
			<time>2016-02-09T07:17:18Z</time>
			</trkpt>

			<trkpt lat="48.0141" lon="1.73306">
			 <ele>116</ele>
			<time>2016-02-09T07:19:18Z</time>
			</trkpt>

			<trkpt lat="48.01354" lon="1.73373">
			 <ele>116</ele>
			<time>2016-02-09T07:21:18Z</time>
			</trkpt>

			<trkpt lat="48.01316" lon="1.73442">
			 <ele>116</ele>
			<time>2016-02-09T07:23:18Z</time>
			</trkpt>

			<trkpt lat="48.01232" lon="1.73568">
			 <ele>116</ele>
			<time>2016-02-09T07:25:18Z</time>
			</trkpt>

			<trkpt lat="48.01203" lon="1.73611">
			 <ele>116</ele>
			<time>2016-02-09T07:27:18Z</time>
			</trkpt>

			<trkpt lat="48.01179" lon="1.73673">
			 <ele>115</ele>
			<time>2016-02-09T07:29:18Z</time>
			</trkpt>

			<trkpt lat="48.01157" lon="1.73731">
			 <ele>116</ele>
			<time>2016-02-09T07:31:18Z</time>
			</trkpt>

			<trkpt lat="48.01115" lon="1.73804">
			 <ele>117</ele>
			<time>2016-02-09T07:33:18Z</time>
			</trkpt>

			<trkpt lat="48.01064" lon="1.73894">
			 <ele>117</ele>
			<time>2016-02-09T07:35:18Z</time>
			</trkpt>

			<trkpt lat="48.01031" lon="1.73909">
			 <ele>118</ele>
			<time>2016-02-09T07:37:18Z</time>
			</trkpt>

			<trkpt lat="48.00999" lon="1.73937">
			 <ele>118</ele>
			<time>2016-02-09T07:39:18Z</time>
			</trkpt>

			<trkpt lat="48.01009" lon="1.73982">
			 <ele>117</ele>
			<time>2016-02-09T07:41:18Z</time>
			</trkpt>

			<trkpt lat="48.01032" lon="1.74038">
			 <ele>117</ele>
			<time>2016-02-09T07:43:18Z</time>
			</trkpt>

			<trkpt lat="48.01049" lon="1.74081">
			 <ele>117</ele>
			<time>2016-02-09T07:45:18Z</time>
			</trkpt>

			<trkpt lat="48.01072" lon="1.74124">
			 <ele>117</ele>
			<time>2016-02-09T07:47:18Z</time>
			</trkpt>

			<trkpt lat="48.01037" lon="1.74175">
			 <ele>117</ele>
			<time>2016-02-09T07:49:18Z</time>
			</trkpt>

			<trkpt lat="48.00929" lon="1.74343">
			 <ele>116</ele>
			<time>2016-02-09T07:51:18Z</time>
			</trkpt>

			<trkpt lat="48.00886" lon="1.74409">
			 <ele>116</ele>
			<time>2016-02-09T07:53:18Z</time>
			</trkpt>

			<trkpt lat="48.00848" lon="1.74489">
			 <ele>116</ele>
			<time>2016-02-09T07:55:18Z</time>
			</trkpt>

			<trkpt lat="48.00751" lon="1.74748">
			 <ele>117</ele>
			<time>2016-02-09T07:57:18Z</time>
			</trkpt>

			<trkpt lat="48.00692" lon="1.74926">
			 <ele>117</ele>
			<time>2016-02-09T07:59:18Z</time>
			</trkpt>

			<trkpt lat="48.00682" lon="1.7501">
			 <ele>117</ele>
			<time>2016-02-09T08:01:18Z</time>
			</trkpt>

			<trkpt lat="48.00647" lon="1.75414">
			 <ele>117</ele>
			<time>2016-02-09T08:03:18Z</time>
			</trkpt>

			<trkpt lat="48.00603" lon="1.75748">
			 <ele>117</ele>
			<time>2016-02-09T08:05:18Z</time>
			</trkpt>

			<trkpt lat="48.00584" lon="1.75926">
			 <ele>116</ele>
			<time>2016-02-09T08:07:18Z</time>
			</trkpt>

			<trkpt lat="48.00579" lon="1.75997">
			 <ele>118</ele>
			<time>2016-02-09T08:09:18Z</time>
			</trkpt>

			<trkpt lat="48.0058" lon="1.76066">
			 <ele>116</ele>
			<time>2016-02-09T08:11:18Z</time>
			</trkpt>

			<trkpt lat="48.00592" lon="1.7622">
			 <ele>116</ele>
			<time>2016-02-09T08:13:18Z</time>
			</trkpt>

			<trkpt lat="48.00564" lon="1.76409">
			 <ele>116</ele>
			<time>2016-02-09T08:15:18Z</time>
			</trkpt>

			<trkpt lat="48.00534" lon="1.76596">
			 <ele>116</ele>
			<time>2016-02-09T08:17:18Z</time>
			</trkpt>

			<trkpt lat="48.00528" lon="1.76639">
			 <ele>117</ele>
			<time>2016-02-09T08:19:18Z</time>
			</trkpt>

			<trkpt lat="48.00525" lon="1.76707">
			 <ele>117</ele>
			<time>2016-02-09T08:21:18Z</time>
			</trkpt>

			<trkpt lat="48.00514" lon="1.76746">
			 <ele>116</ele>
			<time>2016-02-09T08:23:18Z</time>
			</trkpt>

			<trkpt lat="48.00482" lon="1.76813">
			 <ele>116</ele>
			<time>2016-02-09T08:25:18Z</time>
			</trkpt>

			<trkpt lat="48.00444" lon="1.76903">
			 <ele>116</ele>
			<time>2016-02-09T08:27:18Z</time>
			</trkpt>

			<trkpt lat="48.00425" lon="1.76946">
			 <ele>116</ele>
			<time>2016-02-09T08:29:18Z</time>
			</trkpt>

			<trkpt lat="48.00405" lon="1.77001">
			 <ele>116</ele>
			<time>2016-02-09T08:31:18Z</time>
			</trkpt>

			<trkpt lat="48.00375" lon="1.77098">
			 <ele>117</ele>
			<time>2016-02-09T08:33:18Z</time>
			</trkpt>

			<trkpt lat="48.00349" lon="1.77162">
			 <ele>117</ele>
			<time>2016-02-09T08:35:18Z</time>
			</trkpt>

			<trkpt lat="48.00324" lon="1.77242">
			 <ele>118</ele>
			<time>2016-02-09T08:37:18Z</time>
			</trkpt>

			<trkpt lat="48.00297" lon="1.77315">
			 <ele>119</ele>
			<time>2016-02-09T08:39:18Z</time>
			</trkpt>

			<trkpt lat="48.00271" lon="1.77394">
			 <ele>120</ele>
			<time>2016-02-09T08:41:18Z</time>
			</trkpt>

			<trkpt lat="48.00263" lon="1.77559">
			 <ele>124</ele>
			<time>2016-02-09T08:43:18Z</time>
			</trkpt>

			<trkpt lat="48.00214" lon="1.77637">
			 <ele>124</ele>
			<time>2016-02-09T08:45:18Z</time>
			</trkpt>

			<trkpt lat="48.00188" lon="1.77677">
			 <ele>123</ele>
			<time>2016-02-09T08:47:18Z</time>
			</trkpt>

			<trkpt lat="48.00159" lon="1.77718">
			 <ele>124</ele>
			<time>2016-02-09T08:49:18Z</time>
			</trkpt>

			<trkpt lat="48.00134" lon="1.77744">
			 <ele>124</ele>
			<time>2016-02-09T08:51:18Z</time>
			</trkpt>

			<trkpt lat="48.00116" lon="1.77759">
			 <ele>125</ele>
			<time>2016-02-09T08:53:18Z</time>
			</trkpt>

			<trkpt lat="48.00099" lon="1.778">
			 <ele>124</ele>
			<time>2016-02-09T08:55:18Z</time>
			</trkpt>

			<trkpt lat="48.00067" lon="1.77858">
			 <ele>124</ele>
			<time>2016-02-09T08:57:18Z</time>
			</trkpt>

			<trkpt lat="48.00047" lon="1.77888">
			 <ele>124</ele>
			<time>2016-02-09T08:59:18Z</time>
			</trkpt>

			<trkpt lat="47.99968" lon="1.77937">
			 <ele>124</ele>
			<time>2016-02-09T09:01:18Z</time>
			</trkpt>

			<trkpt lat="47.99918" lon="1.77971">
			 <ele>122</ele>
			<time>2016-02-09T09:03:18Z</time>
			</trkpt>

			<trkpt lat="47.99892" lon="1.77993">
			 <ele>122</ele>
			<time>2016-02-09T09:05:18Z</time>
			</trkpt>

			<trkpt lat="47.99861" lon="1.78044">
			 <ele>123</ele>
			<time>2016-02-09T09:07:18Z</time>
			</trkpt>

			<trkpt lat="47.99835" lon="1.78072">
			 <ele>123</ele>
			<time>2016-02-09T09:09:18Z</time>
			</trkpt>

			<trkpt lat="47.99795" lon="1.78102">
			 <ele>123</ele>
			<time>2016-02-09T09:11:18Z</time>
			</trkpt>

			<trkpt lat="47.99753" lon="1.78137">
			 <ele>123</ele>
			<time>2016-02-09T09:13:18Z</time>
			</trkpt>

			<trkpt lat="47.99696" lon="1.78156">
			 <ele>125</ele>
			<time>2016-02-09T09:15:18Z</time>
			</trkpt>

			<trkpt lat="47.99657" lon="1.78164">
			 <ele>126</ele>
			<time>2016-02-09T09:17:18Z</time>
			</trkpt>

			<trkpt lat="47.99611" lon="1.78143">
			 <ele>126</ele>
			<time>2016-02-09T09:19:18Z</time>
			</trkpt>

			<trkpt lat="47.99536" lon="1.78089">
			 <ele>125</ele>
			<time>2016-02-09T09:21:18Z</time>
			</trkpt>

			<trkpt lat="47.99506" lon="1.78076">
			 <ele>124</ele>
			<time>2016-02-09T09:23:18Z</time>
			</trkpt>

			<trkpt lat="47.99466" lon="1.78076">
			 <ele>124</ele>
			<time>2016-02-09T09:25:18Z</time>
			</trkpt>

			<trkpt lat="47.99395" lon="1.78096">
			 <ele>124</ele>
			<time>2016-02-09T09:27:18Z</time>
			</trkpt>

			<trkpt lat="47.99261" lon="1.78137">
			 <ele>124</ele>
			<time>2016-02-09T09:29:18Z</time>
			</trkpt>

			<trkpt lat="47.9923" lon="1.78158">
			 <ele>123</ele>
			<time>2016-02-09T09:31:18Z</time>
			</trkpt>

			<trkpt lat="47.99163" lon="1.78192">
			 <ele>121</ele>
			<time>2016-02-09T09:33:18Z</time>
			</trkpt>

			<trkpt lat="47.99095" lon="1.78237">
			 <ele>121</ele>
			<time>2016-02-09T09:35:18Z</time>
			</trkpt>

			<trkpt lat="47.99028" lon="1.78263">
			 <ele>122</ele>
			<time>2016-02-09T09:37:18Z</time>
			</trkpt>

			<trkpt lat="47.99002" lon="1.78274">
			 <ele>122</ele>
			<time>2016-02-09T09:39:18Z</time>
			</trkpt>

			<trkpt lat="47.98957" lon="1.78293">
			 <ele>123</ele>
			<time>2016-02-09T09:41:18Z</time>
			</trkpt>

			<trkpt lat="47.98929" lon="1.78304">
			 <ele>124</ele>
			<time>2016-02-09T09:43:18Z</time>
			</trkpt>

			<trkpt lat="47.98861" lon="1.78368">
			 <ele>124</ele>
			<time>2016-02-09T09:45:18Z</time>
			</trkpt>

			<trkpt lat="47.98785" lon="1.7837">
			 <ele>123</ele>
			<time>2016-02-09T09:47:18Z</time>
			</trkpt>

			<trkpt lat="47.98742" lon="1.7837">
			 <ele>123</ele>
			<time>2016-02-09T09:49:18Z</time>
			</trkpt>

			<trkpt lat="47.987" lon="1.78377">
			 <ele>123</ele>
			<time>2016-02-09T09:51:18Z</time>
			</trkpt>

			<trkpt lat="47.98621" lon="1.7839">
			 <ele>124</ele>
			<time>2016-02-09T09:53:18Z</time>
			</trkpt>

			<trkpt lat="47.98519" lon="1.78405">
			 <ele>124</ele>
			<time>2016-02-09T09:55:18Z</time>
			</trkpt>

			<trkpt lat="47.9841" lon="1.78409">
			 <ele>125</ele>
			<time>2016-02-09T09:57:18Z</time>
			</trkpt>

			<trkpt lat="47.98192" lon="1.7842">
			 <ele>125</ele>
			<time>2016-02-09T09:59:18Z</time>
			</trkpt>

			<trkpt lat="47.98219" lon="1.78473">
			 <ele>126</ele>
			<time>2016-02-09T10:01:18Z</time>
			</trkpt>

			<trkpt lat="47.98262" lon="1.78559">
			 <ele>126</ele>
			<time>2016-02-09T10:03:18Z</time>
			</trkpt>

			<trkpt lat="47.98331" lon="1.78755">
			 <ele>126</ele>
			<time>2016-02-09T10:05:18Z</time>
			</trkpt>

			<trkpt lat="47.98364" lon="1.7887">
			 <ele>125</ele>
			<time>2016-02-09T10:07:18Z</time>
			</trkpt>

			<trkpt lat="47.98436" lon="1.79104">
			 <ele>123</ele>
			<time>2016-02-09T10:09:18Z</time>
			</trkpt>

			<trkpt lat="47.98458" lon="1.79149">
			 <ele>123</ele>
			<time>2016-02-09T10:11:18Z</time>
			</trkpt>

			<trkpt lat="47.98735" lon="1.79568">
			 <ele>123</ele>
			<time>2016-02-09T10:13:18Z</time>
			</trkpt>

			<trkpt lat="47.9886" lon="1.79757">
			 <ele>124</ele>
			<time>2016-02-09T10:15:18Z</time>
			</trkpt>

			<trkpt lat="47.98903" lon="1.7983">
			 <ele>124</ele>
			<time>2016-02-09T10:17:18Z</time>
			</trkpt>

			<trkpt lat="47.98913" lon="1.79881">
			 <ele>123</ele>
			<time>2016-02-09T10:19:18Z</time>
			</trkpt>

			<trkpt lat="47.9895" lon="1.80239">
			 <ele>121</ele>
			<time>2016-02-09T10:21:18Z</time>
			</trkpt>

			<trkpt lat="47.98965" lon="1.80327">
			 <ele>120</ele>
			<time>2016-02-09T10:23:18Z</time>
			</trkpt>

			<trkpt lat="47.98979" lon="1.8039">
			 <ele>120</ele>
			<time>2016-02-09T10:25:18Z</time>
			</trkpt>

			<trkpt lat="47.98985" lon="1.80445">
			 <ele>120</ele>
			<time>2016-02-09T10:27:18Z</time>
			</trkpt>

			<trkpt lat="47.9898" lon="1.80482">
			 <ele>120</ele>
			<time>2016-02-09T10:29:18Z</time>
			</trkpt>

			<trkpt lat="47.98966" lon="1.8051">
			 <ele>120</ele>
			<time>2016-02-09T10:31:18Z</time>
			</trkpt>

			<trkpt lat="47.98942" lon="1.80555">
			 <ele>120</ele>
			<time>2016-02-09T10:33:18Z</time>
			</trkpt>

			<trkpt lat="47.98913" lon="1.80589">
			 <ele>120</ele>
			<time>2016-02-09T10:35:18Z</time>
			</trkpt>

			<trkpt lat="47.98876" lon="1.80669">
			 <ele>119</ele>
			<time>2016-02-09T10:37:18Z</time>
			</trkpt>

			<trkpt lat="47.98851" lon="1.80744">
			 <ele>119</ele>
			<time>2016-02-09T10:39:18Z</time>
			</trkpt>

			<trkpt lat="47.9883" lon="1.80817">
			 <ele>118</ele>
			<time>2016-02-09T10:41:18Z</time>
			</trkpt>

			<trkpt lat="47.98827" lon="1.80851">
			 <ele>118</ele>
			<time>2016-02-09T10:43:18Z</time>
			</trkpt>

			<trkpt lat="47.98841" lon="1.81244">
			 <ele>119</ele>
			<time>2016-02-09T10:45:18Z</time>
			</trkpt>

			<trkpt lat="47.9885" lon="1.81432">
			 <ele>119</ele>
			<time>2016-02-09T10:47:18Z</time>
			</trkpt>

			<trkpt lat="47.98847" lon="1.81596">
			 <ele>120</ele>
			<time>2016-02-09T10:49:18Z</time>
			</trkpt>

			<trkpt lat="47.98844" lon="1.8166">
			 <ele>119</ele>
			<time>2016-02-09T10:51:18Z</time>
			</trkpt>

			<trkpt lat="47.98843" lon="1.81778">
			 <ele>118</ele>
			<time>2016-02-09T10:53:18Z</time>
			</trkpt>

			<trkpt lat="47.98887" lon="1.82186">
			 <ele>119</ele>
			<time>2016-02-09T10:55:18Z</time>
			</trkpt>

			<trkpt lat="47.98939" lon="1.82484">
			 <ele>119</ele>
			<time>2016-02-09T10:57:18Z</time>
			</trkpt>

			<trkpt lat="47.98978" lon="1.82722">
			 <ele>123</ele>
			<time>2016-02-09T10:59:18Z</time>
			</trkpt>

			<trkpt lat="47.99012" lon="1.82896">
			 <ele>122</ele>
			<time>2016-02-09T11:01:18Z</time>
			</trkpt>

			<trkpt lat="47.99024" lon="1.82967">
			 <ele>122</ele>
			<time>2016-02-09T11:03:18Z</time>
			</trkpt>

			<trkpt lat="47.99032" lon="1.83065">
			 <ele>122</ele>
			<time>2016-02-09T11:05:18Z</time>
			</trkpt>

			<trkpt lat="47.99034" lon="1.83164">
			 <ele>122</ele>
			<time>2016-02-09T11:07:18Z</time>
			</trkpt>

			<trkpt lat="47.99031" lon="1.83271">
			 <ele>123</ele>
			<time>2016-02-09T11:09:18Z</time>
			</trkpt>

			<trkpt lat="47.99026" lon="1.83368">
			 <ele>123</ele>
			<time>2016-02-09T11:11:18Z</time>
			</trkpt>

			<trkpt lat="47.99021" lon="1.8349">
			 <ele>124</ele>
			<time>2016-02-09T11:13:18Z</time>
			</trkpt>

			<trkpt lat="47.99035" lon="1.83574">
			 <ele>124</ele>
			<time>2016-02-09T11:15:18Z</time>
			</trkpt>

			<trkpt lat="47.99038" lon="1.8361">
			 <ele>124</ele>
			<time>2016-02-09T11:17:18Z</time>
			</trkpt>

			<trkpt lat="47.99032" lon="1.83636">
			 <ele>124</ele>
			<time>2016-02-09T11:19:18Z</time>
			</trkpt>

			<trkpt lat="47.98995" lon="1.83649">
			 <ele>124</ele>
			<time>2016-02-09T11:21:18Z</time>
			</trkpt>

			<trkpt lat="47.98947" lon="1.83694">
			 <ele>122</ele>
			<time>2016-02-09T11:23:18Z</time>
			</trkpt>

			<trkpt lat="47.98818" lon="1.83711">
			 <ele>120</ele>
			<time>2016-02-09T11:25:18Z</time>
			</trkpt>

			<trkpt lat="47.98779" lon="1.83724">
			 <ele>120</ele>
			<time>2016-02-09T11:27:18Z</time>
			</trkpt>

			<trkpt lat="47.98696" lon="1.83763">
			 <ele>120</ele>
			<time>2016-02-09T11:29:18Z</time>
			</trkpt>

			<trkpt lat="47.98614" lon="1.83808">
			 <ele>122</ele>
			<time>2016-02-09T11:31:18Z</time>
			</trkpt>

			<trkpt lat="47.98465" lon="1.83876">
			 <ele>123</ele>
			<time>2016-02-09T11:33:18Z</time>
			</trkpt>

			<trkpt lat="47.9838" lon="1.83917">
			 <ele>123</ele>
			<time>2016-02-09T11:35:18Z</time>
			</trkpt>

			<trkpt lat="47.98343" lon="1.83934">
			 <ele>122</ele>
			<time>2016-02-09T11:37:18Z</time>
			</trkpt>

			<trkpt lat="47.98232" lon="1.84025">
			 <ele>122</ele>
			<time>2016-02-09T11:39:18Z</time>
			</trkpt>

			<trkpt lat="47.98189" lon="1.84035">
			 <ele>122</ele>
			<time>2016-02-09T11:41:18Z</time>
			</trkpt>

			<trkpt lat="47.9808" lon="1.84029">
			 <ele>123</ele>
			<time>2016-02-09T11:43:18Z</time>
			</trkpt>

			<trkpt lat="47.98038" lon="1.84044">
			 <ele>122</ele>
			<time>2016-02-09T11:45:18Z</time>
			</trkpt>

			<trkpt lat="47.97912" lon="1.84108">
			 <ele>120</ele>
			<time>2016-02-09T11:47:18Z</time>
			</trkpt>

			<trkpt lat="47.97738" lon="1.84177">
			 <ele>121</ele>
			<time>2016-02-09T11:49:18Z</time>
			</trkpt>

			<trkpt lat="47.97692" lon="1.842">
			 <ele>120</ele>
			<time>2016-02-09T11:51:18Z</time>
			</trkpt>

			<trkpt lat="47.97662" lon="1.842">
			 <ele>120</ele>
			<time>2016-02-09T11:53:18Z</time>
			</trkpt>

			<trkpt lat="47.97513" lon="1.841">
			 <ele>121</ele>
			<time>2016-02-09T11:55:18Z</time>
			</trkpt>

			<trkpt lat="47.97258" lon="1.83924">
			 <ele>122</ele>
			<time>2016-02-09T11:57:18Z</time>
			</trkpt>

			<trkpt lat="47.97192" lon="1.83919">
			 <ele>122</ele>
			<time>2016-02-09T11:59:18Z</time>
			</trkpt>

			<trkpt lat="47.96982" lon="1.83904">
			 <ele>121</ele>
			<time>2016-02-09T12:01:18Z</time>
			</trkpt>

			<trkpt lat="47.96929" lon="1.83842">
			 <ele>121</ele>
			<time>2016-02-09T12:03:18Z</time>
			</trkpt>

			<trkpt lat="47.96914" lon="1.8378">
			 <ele>122</ele>
			<time>2016-02-09T12:05:18Z</time>
			</trkpt>

			<trkpt lat="47.96849" lon="1.83342">
			 <ele>124</ele>
			<time>2016-02-09T12:07:18Z</time>
			</trkpt>

			<trkpt lat="47.96803" lon="1.83297">
			 <ele>123</ele>
			<time>2016-02-09T12:09:18Z</time>
			</trkpt>

			<trkpt lat="47.96504" lon="1.83042">
			 <ele>121</ele>
			<time>2016-02-09T12:11:18Z</time>
			</trkpt>

			<trkpt lat="47.96136" lon="1.82726">
			 <ele>124</ele>
			<time>2016-02-09T12:13:18Z</time>
			</trkpt>

			<trkpt lat="47.96066" lon="1.82711">
			 <ele>123</ele>
			<time>2016-02-09T12:15:18Z</time>
			</trkpt>

			<trkpt lat="47.95922" lon="1.82701">
			 <ele>118</ele>
			<time>2016-02-09T12:17:18Z</time>
			</trkpt>

			<trkpt lat="47.95678" lon="1.82681">
			 <ele>122</ele>
			<time>2016-02-09T12:19:18Z</time>
			</trkpt>

			<trkpt lat="47.95615" lon="1.82647">
			 <ele>123</ele>
			<time>2016-02-09T12:21:18Z</time>
			</trkpt>

			<trkpt lat="47.95584" lon="1.82647">
			 <ele>123</ele>
			<time>2016-02-09T12:23:18Z</time>
			</trkpt>

			<trkpt lat="47.95448" lon="1.82718">
			 <ele>120</ele>
			<time>2016-02-09T12:25:18Z</time>
			</trkpt>

			<trkpt lat="47.95424" lon="1.82739">
			 <ele>121</ele>
			<time>2016-02-09T12:27:18Z</time>
			</trkpt>

			<trkpt lat="47.95369" lon="1.82806">
			 <ele>120</ele>
			<time>2016-02-09T12:29:18Z</time>
			</trkpt>

			<trkpt lat="47.95311" lon="1.82862">
			 <ele>117</ele>
			<time>2016-02-09T12:31:18Z</time>
			</trkpt>

			<trkpt lat="47.95268" lon="1.82896">
			 <ele>116</ele>
			<time>2016-02-09T12:33:18Z</time>
			</trkpt>

			<trkpt lat="47.95215" lon="1.82924">
			 <ele>117</ele>
			<time>2016-02-09T12:35:18Z</time>
			</trkpt>

			<trkpt lat="47.95129" lon="1.82949">
			 <ele>118</ele>
			<time>2016-02-09T12:37:18Z</time>
			</trkpt>

			<trkpt lat="47.94997" lon="1.8301">
			 <ele>117</ele>
			<time>2016-02-09T12:39:18Z</time>
			</trkpt>

			<trkpt lat="47.94954" lon="1.83029">
			 <ele>117</ele>
			<time>2016-02-09T12:41:18Z</time>
			</trkpt>

			<trkpt lat="47.94905" lon="1.83046">
			 <ele>117</ele>
			<time>2016-02-09T12:43:18Z</time>
			</trkpt>

			<trkpt lat="47.94889" lon="1.83007">
			 <ele>117</ele>
			<time>2016-02-09T12:45:18Z</time>
			</trkpt>

			<trkpt lat="47.94876" lon="1.82907">
			 <ele>118</ele>
			<time>2016-02-09T12:47:18Z</time>
			</trkpt>

			<trkpt lat="47.94857" lon="1.82789">
			 <ele>118</ele>
			<time>2016-02-09T12:49:18Z</time>
			</trkpt>

			<trkpt lat="47.94841" lon="1.82686">
			 <ele>117</ele>
			<time>2016-02-09T12:51:18Z</time>
			</trkpt>

			<trkpt lat="47.94823" lon="1.82559">
			 <ele>114</ele>
			<time>2016-02-09T12:53:18Z</time>
			</trkpt>

			<trkpt lat="47.94812" lon="1.82489">
			 <ele>113</ele>
			<time>2016-02-09T12:55:18Z</time>
			</trkpt>

			<trkpt lat="47.94805" lon="1.82437">
			 <ele>114</ele>
			<time>2016-02-09T12:57:18Z</time>
			</trkpt>

			<trkpt lat="47.94796" lon="1.82376">
			 <ele>115</ele>
			<time>2016-02-09T12:59:18Z</time>
			</trkpt>

			<trkpt lat="47.94787" lon="1.82304">
			 <ele>115</ele>
			<time>2016-02-09T13:01:18Z</time>
			</trkpt>

			<trkpt lat="47.94793" lon="1.82248">
			 <ele>114</ele>
			<time>2016-02-09T13:03:18Z</time>
			</trkpt>

			<trkpt lat="47.94801" lon="1.82215">
			 <ele>114</ele>
			<time>2016-02-09T13:05:18Z</time>
			</trkpt>

			<trkpt lat="47.94808" lon="1.82165">
			 <ele>113</ele>
			<time>2016-02-09T13:07:18Z</time>
			</trkpt>

			<trkpt lat="47.94812" lon="1.82071">
			 <ele>114</ele>
			<time>2016-02-09T13:09:18Z</time>
			</trkpt>

			<trkpt lat="47.94772" lon="1.81993">
			 <ele>115</ele>
			<time>2016-02-09T13:11:18Z</time>
			</trkpt>

			<trkpt lat="47.9475" lon="1.81932">
			 <ele>117</ele>
			<time>2016-02-09T13:13:18Z</time>
			</trkpt>

			<trkpt lat="47.94699" lon="1.81831">
			 <ele>118</ele>
			<time>2016-02-09T13:15:18Z</time>
			</trkpt>

			<trkpt lat="47.94686" lon="1.81831">
			 <ele>117</ele>
			<time>2016-02-09T13:17:18Z</time>
			</trkpt>

			<trkpt lat="47.94648" lon="1.81863">
			 <ele>117</ele>
			<time>2016-02-09T13:19:18Z</time>
			</trkpt>

			<trkpt lat="47.94548" lon="1.81944">
			 <ele>117</ele>
			<time>2016-02-09T13:21:18Z</time>
			</trkpt>

			<trkpt lat="47.94433" lon="1.81707">
			 <ele>117</ele>
			<time>2016-02-09T13:23:18Z</time>
			</trkpt>

			<trkpt lat="47.94408" lon="1.81657">
			 <ele>117</ele>
			<time>2016-02-09T13:25:18Z</time>
			</trkpt>

			<trkpt lat="47.94387" lon="1.81614">
			 <ele>116</ele>
			<time>2016-02-09T13:27:18Z</time>
			</trkpt>

			<trkpt lat="47.94359" lon="1.81583">
			 <ele>117</ele>
			<time>2016-02-09T13:29:18Z</time>
			</trkpt>

			<trkpt lat="47.94341" lon="1.8158">
			 <ele>117</ele>
			<time>2016-02-09T13:31:18Z</time>
			</trkpt>

			<trkpt lat="47.94323" lon="1.81542">
			 <ele>116</ele>
			<time>2016-02-09T13:33:18Z</time>
			</trkpt>

			<trkpt lat="47.94308" lon="1.8151">
			 <ele>116</ele>
			<time>2016-02-09T13:35:18Z</time>
			</trkpt>

			<trkpt lat="47.94287" lon="1.81465">
			 <ele>116</ele>
			<time>2016-02-09T13:37:18Z</time>
			</trkpt>

			<trkpt lat="47.94272" lon="1.8142">
			 <ele>115</ele>
			<time>2016-02-09T13:39:18Z</time>
			</trkpt>

			<trkpt lat="47.94261" lon="1.81387">
			 <ele>115</ele>
			<time>2016-02-09T13:41:18Z</time>
			</trkpt>

			<trkpt lat="47.9423" lon="1.81407">
			 <ele>115</ele>
			<time>2016-02-09T13:43:18Z</time>
			</trkpt>

			<trkpt lat="47.94208" lon="1.8136">
			 <ele>115</ele>
			<time>2016-02-09T13:45:18Z</time>
			</trkpt>

				</trkseg>
			   </trk>
			 </gpx>
