<?xml version="1.0" encoding="UTF-8" ?>
		<gpx
		 version="1.0"
		 xmlns:xsi="http://www.w3.org/2001/XMLSchema-instance"
		 xmlns="http://www.topografix.com/GPX/1/0"
		 xsi:schemaLocation="http://www.topografix.com/GPX/1/0 http://www.topografix.com/GPX/1/0/gpx.xsd"
		 creator="http://www.openrunner.com">
			<trk>
				<name>A23 - 65km - Baule</name>
			    <trkseg>

			<trkpt lat="47.942160" lon="1.813690">
			 <ele>115</ele>
			<time>2017-07-16T18:46:07Z</time>
			</trkpt>

			<trkpt lat="47.941500" lon="1.812470">
			 <ele>116</ele>
			<time>2017-07-16T18:48:07Z</time>
			</trkpt>

			<trkpt lat="47.940550" lon="1.813840">
			 <ele>114</ele>
			<time>2017-07-16T18:50:07Z</time>
			</trkpt>

			<trkpt lat="47.940220" lon="1.813270">
			 <ele>115</ele>
			<time>2017-07-16T18:52:07Z</time>
			</trkpt>

			<trkpt lat="47.939850" lon="1.813510">
			 <ele>116</ele>
			<time>2017-07-16T18:54:07Z</time>
			</trkpt>

			<trkpt lat="47.939470" lon="1.813830">
			 <ele>116</ele>
			<time>2017-07-16T18:56:07Z</time>
			</trkpt>

			<trkpt lat="47.939130" lon="1.813630">
			 <ele>116</ele>
			<time>2017-07-16T18:58:07Z</time>
			</trkpt>

			<trkpt lat="47.938740" lon="1.813030">
			 <ele>117</ele>
			<time>2017-07-16T19:00:07Z</time>
			</trkpt>

			<trkpt lat="47.938670" lon="1.812960">
			 <ele>117</ele>
			<time>2017-07-16T19:02:07Z</time>
			</trkpt>

			<trkpt lat="47.938550" lon="1.812940">
			 <ele>117</ele>
			<time>2017-07-16T19:04:07Z</time>
			</trkpt>

			<trkpt lat="47.938420" lon="1.812960">
			 <ele>117</ele>
			<time>2017-07-16T19:06:07Z</time>
			</trkpt>

			<trkpt lat="47.938290" lon="1.813110">
			 <ele>117</ele>
			<time>2017-07-16T19:08:07Z</time>
			</trkpt>

			<trkpt lat="47.937260" lon="1.814110">
			 <ele>116</ele>
			<time>2017-07-16T19:10:07Z</time>
			</trkpt>

			<trkpt lat="47.937130" lon="1.814150">
			 <ele>116</ele>
			<time>2017-07-16T19:12:07Z</time>
			</trkpt>

			<trkpt lat="47.936950" lon="1.814140">
			 <ele>117</ele>
			<time>2017-07-16T19:14:07Z</time>
			</trkpt>

			<trkpt lat="47.936790" lon="1.814060">
			 <ele>117</ele>
			<time>2017-07-16T19:16:07Z</time>
			</trkpt>

			<trkpt lat="47.936640" lon="1.813900">
			 <ele>117</ele>
			<time>2017-07-16T19:18:07Z</time>
			</trkpt>

			<trkpt lat="47.936600" lon="1.813740">
			 <ele>117</ele>
			<time>2017-07-16T19:20:07Z</time>
			</trkpt>

			<trkpt lat="47.936380" lon="1.813250">
			 <ele>116</ele>
			<time>2017-07-16T19:22:07Z</time>
			</trkpt>

			<trkpt lat="47.935260" lon="1.814500">
			 <ele>115</ele>
			<time>2017-07-16T19:24:07Z</time>
			</trkpt>

			<trkpt lat="47.934530" lon="1.815050">
			 <ele>116</ele>
			<time>2017-07-16T19:26:07Z</time>
			</trkpt>

			<trkpt lat="47.934330" lon="1.815100">
			 <ele>116</ele>
			<time>2017-07-16T19:28:07Z</time>
			</trkpt>

			<trkpt lat="47.933160" lon="1.815960">
			 <ele>116</ele>
			<time>2017-07-16T19:30:07Z</time>
			</trkpt>

			<trkpt lat="47.932040" lon="1.816830">
			 <ele>117</ele>
			<time>2017-07-16T19:32:07Z</time>
			</trkpt>

			<trkpt lat="47.931580" lon="1.817100">
			 <ele>118</ele>
			<time>2017-07-16T19:34:07Z</time>
			</trkpt>

			<trkpt lat="47.930200" lon="1.817020">
			 <ele>119</ele>
			<time>2017-07-16T19:36:07Z</time>
			</trkpt>

			<trkpt lat="47.928810" lon="1.817690">
			 <ele>122</ele>
			<time>2017-07-16T19:38:07Z</time>
			</trkpt>

			<trkpt lat="47.926450" lon="1.819670">
			 <ele>128</ele>
			<time>2017-07-16T19:40:07Z</time>
			</trkpt>

			<trkpt lat="47.925040" lon="1.819950">
			 <ele>130</ele>
			<time>2017-07-16T19:42:07Z</time>
			</trkpt>

			<trkpt lat="47.924390" lon="1.819390">
			 <ele>129</ele>
			<time>2017-07-16T19:44:07Z</time>
			</trkpt>

			<trkpt lat="47.923830" lon="1.820030">
			 <ele>128</ele>
			<time>2017-07-16T19:46:07Z</time>
			</trkpt>

			<trkpt lat="47.923440" lon="1.820980">
			 <ele>128</ele>
			<time>2017-07-16T19:48:07Z</time>
			</trkpt>

			<trkpt lat="47.923260" lon="1.821560">
			 <ele>128</ele>
			<time>2017-07-16T19:50:07Z</time>
			</trkpt>

			<trkpt lat="47.923040" lon="1.822690">
			 <ele>125</ele>
			<time>2017-07-16T19:52:07Z</time>
			</trkpt>

			<trkpt lat="47.922150" lon="1.825630">
			 <ele>119</ele>
			<time>2017-07-16T19:54:07Z</time>
			</trkpt>

			<trkpt lat="47.921400" lon="1.825930">
			 <ele>117</ele>
			<time>2017-07-16T19:56:07Z</time>
			</trkpt>

			<trkpt lat="47.920970" lon="1.826230">
			 <ele>117</ele>
			<time>2017-07-16T19:58:07Z</time>
			</trkpt>

			<trkpt lat="47.920610" lon="1.826330">
			 <ele>118</ele>
			<time>2017-07-16T20:00:07Z</time>
			</trkpt>

			<trkpt lat="47.920120" lon="1.826720">
			 <ele>120</ele>
			<time>2017-07-16T20:02:07Z</time>
			</trkpt>

			<trkpt lat="47.920000" lon="1.827140">
			 <ele>119</ele>
			<time>2017-07-16T20:04:07Z</time>
			</trkpt>

			<trkpt lat="47.919660" lon="1.827380">
			 <ele>118</ele>
			<time>2017-07-16T20:06:07Z</time>
			</trkpt>

			<trkpt lat="47.919790" lon="1.828140">
			 <ele>118</ele>
			<time>2017-07-16T20:08:07Z</time>
			</trkpt>

			<trkpt lat="47.918640" lon="1.828700">
			 <ele>114</ele>
			<time>2017-07-16T20:10:07Z</time>
			</trkpt>

			<trkpt lat="47.917520" lon="1.829840">
			 <ele>110</ele>
			<time>2017-07-16T20:12:07Z</time>
			</trkpt>

			<trkpt lat="47.917350" lon="1.830740">
			 <ele>109</ele>
			<time>2017-07-16T20:14:07Z</time>
			</trkpt>

			<trkpt lat="47.916580" lon="1.834470">
			 <ele>109</ele>
			<time>2017-07-16T20:16:07Z</time>
			</trkpt>

			<trkpt lat="47.916400" lon="1.835630">
			 <ele>112</ele>
			<time>2017-07-16T20:18:07Z</time>
			</trkpt>

			<trkpt lat="47.916370" lon="1.837180">
			 <ele>112</ele>
			<time>2017-07-16T20:20:07Z</time>
			</trkpt>

			<trkpt lat="47.916280" lon="1.837780">
			 <ele>113</ele>
			<time>2017-07-16T20:22:07Z</time>
			</trkpt>

			<trkpt lat="47.915950" lon="1.839790">
			 <ele>112</ele>
			<time>2017-07-16T20:24:07Z</time>
			</trkpt>

			<trkpt lat="47.915820" lon="1.840880">
			 <ele>111</ele>
			<time>2017-07-16T20:26:07Z</time>
			</trkpt>

			<trkpt lat="47.915180" lon="1.844340">
			 <ele>113</ele>
			<time>2017-07-16T20:28:07Z</time>
			</trkpt>

			<trkpt lat="47.914660" lon="1.847610">
			 <ele>112</ele>
			<time>2017-07-16T20:30:07Z</time>
			</trkpt>

			<trkpt lat="47.914560" lon="1.848760">
			 <ele>113</ele>
			<time>2017-07-16T20:32:07Z</time>
			</trkpt>

			<trkpt lat="47.914460" lon="1.850890">
			 <ele>113</ele>
			<time>2017-07-16T20:34:07Z</time>
			</trkpt>

			<trkpt lat="47.914340" lon="1.851960">
			 <ele>114</ele>
			<time>2017-07-16T20:36:07Z</time>
			</trkpt>

			<trkpt lat="47.914010" lon="1.854150">
			 <ele>112</ele>
			<time>2017-07-16T20:38:07Z</time>
			</trkpt>

			<trkpt lat="47.913740" lon="1.855440">
			 <ele>112</ele>
			<time>2017-07-16T20:40:07Z</time>
			</trkpt>

			<trkpt lat="47.913550" lon="1.856490">
			 <ele>113</ele>
			<time>2017-07-16T20:42:07Z</time>
			</trkpt>

			<trkpt lat="47.913380" lon="1.858100">
			 <ele>113</ele>
			<time>2017-07-16T20:44:07Z</time>
			</trkpt>

			<trkpt lat="47.913180" lon="1.858330">
			 <ele>114</ele>
			<time>2017-07-16T20:46:07Z</time>
			</trkpt>

			<trkpt lat="47.913350" lon="1.859020">
			 <ele>114</ele>
			<time>2017-07-16T20:48:07Z</time>
			</trkpt>

			<trkpt lat="47.913220" lon="1.859130">
			 <ele>114</ele>
			<time>2017-07-16T20:50:07Z</time>
			</trkpt>

			<trkpt lat="47.913090" lon="1.859550">
			 <ele>114</ele>
			<time>2017-07-16T20:52:07Z</time>
			</trkpt>

			<trkpt lat="47.912690" lon="1.861720">
			 <ele>114</ele>
			<time>2017-07-16T20:54:07Z</time>
			</trkpt>

			<trkpt lat="47.911970" lon="1.864430">
			 <ele>111</ele>
			<time>2017-07-16T20:56:07Z</time>
			</trkpt>

			<trkpt lat="47.911540" lon="1.865330">
			 <ele>111</ele>
			<time>2017-07-16T20:58:07Z</time>
			</trkpt>

			<trkpt lat="47.911150" lon="1.866790">
			 <ele>112</ele>
			<time>2017-07-16T21:00:07Z</time>
			</trkpt>

			<trkpt lat="47.910860" lon="1.867020">
			 <ele>112</ele>
			<time>2017-07-16T21:02:07Z</time>
			</trkpt>

			<trkpt lat="47.909950" lon="1.867260">
			 <ele>112</ele>
			<time>2017-07-16T21:04:07Z</time>
			</trkpt>

			<trkpt lat="47.909490" lon="1.867400">
			 <ele>113</ele>
			<time>2017-07-16T21:06:07Z</time>
			</trkpt>

			<trkpt lat="47.908080" lon="1.868350">
			 <ele>110</ele>
			<time>2017-07-16T21:08:07Z</time>
			</trkpt>

			<trkpt lat="47.907280" lon="1.869190">
			 <ele>108</ele>
			<time>2017-07-16T21:10:07Z</time>
			</trkpt>

			<trkpt lat="47.906700" lon="1.869860">
			 <ele>106</ele>
			<time>2017-07-16T21:12:07Z</time>
			</trkpt>

			<trkpt lat="47.905770" lon="1.870800">
			 <ele>107</ele>
			<time>2017-07-16T21:14:07Z</time>
			</trkpt>

			<trkpt lat="47.905150" lon="1.871290">
			 <ele>106</ele>
			<time>2017-07-16T21:16:07Z</time>
			</trkpt>

			<trkpt lat="47.904370" lon="1.871700">
			 <ele>105</ele>
			<time>2017-07-16T21:18:07Z</time>
			</trkpt>

			<trkpt lat="47.903750" lon="1.871850">
			 <ele>103</ele>
			<time>2017-07-16T21:20:07Z</time>
			</trkpt>

			<trkpt lat="47.902560" lon="1.871960">
			 <ele>101</ele>
			<time>2017-07-16T21:22:07Z</time>
			</trkpt>

			<trkpt lat="47.901240" lon="1.871980">
			 <ele>107</ele>
			<time>2017-07-16T21:24:07Z</time>
			</trkpt>

			<trkpt lat="47.899020" lon="1.873000">
			 <ele>108</ele>
			<time>2017-07-16T21:26:07Z</time>
			</trkpt>

			<trkpt lat="47.897960" lon="1.876440">
			 <ele>105</ele>
			<time>2017-07-16T21:28:07Z</time>
			</trkpt>

			<trkpt lat="47.893170" lon="1.876180">
			 <ele>94</ele>
			<time>2017-07-16T21:30:07Z</time>
			</trkpt>

			<trkpt lat="47.892990" lon="1.875850">
			 <ele>93</ele>
			<time>2017-07-16T21:32:07Z</time>
			</trkpt>

			<trkpt lat="47.892780" lon="1.875030">
			 <ele>91</ele>
			<time>2017-07-16T21:34:07Z</time>
			</trkpt>

			<trkpt lat="47.892610" lon="1.874900">
			 <ele>92</ele>
			<time>2017-07-16T21:36:07Z</time>
			</trkpt>

			<trkpt lat="47.892300" lon="1.874080">
			 <ele>92</ele>
			<time>2017-07-16T21:38:07Z</time>
			</trkpt>

			<trkpt lat="47.891600" lon="1.872710">
			 <ele>93</ele>
			<time>2017-07-16T21:40:07Z</time>
			</trkpt>

			<trkpt lat="47.891370" lon="1.871870">
			 <ele>92</ele>
			<time>2017-07-16T21:42:07Z</time>
			</trkpt>

			<trkpt lat="47.890920" lon="1.869750">
			 <ele>90</ele>
			<time>2017-07-16T21:44:07Z</time>
			</trkpt>

			<trkpt lat="47.890500" lon="1.868950">
			 <ele>91</ele>
			<time>2017-07-16T21:46:07Z</time>
			</trkpt>

			<trkpt lat="47.889140" lon="1.863590">
			 <ele>91</ele>
			<time>2017-07-16T21:48:07Z</time>
			</trkpt>

			<trkpt lat="47.888620" lon="1.863030">
			 <ele>91</ele>
			<time>2017-07-16T21:50:07Z</time>
			</trkpt>

			<trkpt lat="47.888670" lon="1.861920">
			 <ele>91</ele>
			<time>2017-07-16T21:52:07Z</time>
			</trkpt>

			<trkpt lat="47.888630" lon="1.861300">
			 <ele>90</ele>
			<time>2017-07-16T21:54:07Z</time>
			</trkpt>

			<trkpt lat="47.888430" lon="1.860440">
			 <ele>91</ele>
			<time>2017-07-16T21:56:07Z</time>
			</trkpt>

			<trkpt lat="47.887320" lon="1.857560">
			 <ele>93</ele>
			<time>2017-07-16T21:58:07Z</time>
			</trkpt>

			<trkpt lat="47.887140" lon="1.856680">
			 <ele>93</ele>
			<time>2017-07-16T22:00:07Z</time>
			</trkpt>

			<trkpt lat="47.887170" lon="1.855910">
			 <ele>91</ele>
			<time>2017-07-16T22:02:07Z</time>
			</trkpt>

			<trkpt lat="47.887020" lon="1.855070">
			 <ele>91</ele>
			<time>2017-07-16T22:04:07Z</time>
			</trkpt>

			<trkpt lat="47.886610" lon="1.853530">
			 <ele>91</ele>
			<time>2017-07-16T22:06:07Z</time>
			</trkpt>

			<trkpt lat="47.886160" lon="1.851900">
			 <ele>90</ele>
			<time>2017-07-16T22:08:07Z</time>
			</trkpt>

			<trkpt lat="47.885510" lon="1.850310">
			 <ele>90</ele>
			<time>2017-07-16T22:10:07Z</time>
			</trkpt>

			<trkpt lat="47.884300" lon="1.847630">
			 <ele>91</ele>
			<time>2017-07-16T22:12:07Z</time>
			</trkpt>

			<trkpt lat="47.883510" lon="1.845500">
			 <ele>90</ele>
			<time>2017-07-16T22:14:07Z</time>
			</trkpt>

			<trkpt lat="47.882890" lon="1.844450">
			 <ele>91</ele>
			<time>2017-07-16T22:16:07Z</time>
			</trkpt>

			<trkpt lat="47.882390" lon="1.844020">
			 <ele>92</ele>
			<time>2017-07-16T22:18:07Z</time>
			</trkpt>

			<trkpt lat="47.881680" lon="1.843290">
			 <ele>91</ele>
			<time>2017-07-16T22:20:07Z</time>
			</trkpt>

			<trkpt lat="47.881300" lon="1.842520">
			 <ele>91</ele>
			<time>2017-07-16T22:22:07Z</time>
			</trkpt>

			<trkpt lat="47.880790" lon="1.841190">
			 <ele>91</ele>
			<time>2017-07-16T22:24:07Z</time>
			</trkpt>

			<trkpt lat="47.879770" lon="1.839750">
			 <ele>90</ele>
			<time>2017-07-16T22:26:07Z</time>
			</trkpt>

			<trkpt lat="47.878920" lon="1.838310">
			 <ele>91</ele>
			<time>2017-07-16T22:28:07Z</time>
			</trkpt>

			<trkpt lat="47.878780" lon="1.838400">
			 <ele>91</ele>
			<time>2017-07-16T22:30:07Z</time>
			</trkpt>

			<trkpt lat="47.878590" lon="1.838680">
			 <ele>91</ele>
			<time>2017-07-16T22:32:07Z</time>
			</trkpt>

			<trkpt lat="47.878290" lon="1.838790">
			 <ele>91</ele>
			<time>2017-07-16T22:34:07Z</time>
			</trkpt>

			<trkpt lat="47.877770" lon="1.838700">
			 <ele>94</ele>
			<time>2017-07-16T22:36:07Z</time>
			</trkpt>

			<trkpt lat="47.877480" lon="1.838080">
			 <ele>93</ele>
			<time>2017-07-16T22:38:07Z</time>
			</trkpt>

			<trkpt lat="47.876990" lon="1.837410">
			 <ele>93</ele>
			<time>2017-07-16T22:40:07Z</time>
			</trkpt>

			<trkpt lat="47.875770" lon="1.837860">
			 <ele>93</ele>
			<time>2017-07-16T22:42:07Z</time>
			</trkpt>

			<trkpt lat="47.875140" lon="1.838060">
			 <ele>92</ele>
			<time>2017-07-16T22:44:07Z</time>
			</trkpt>

			<trkpt lat="47.874320" lon="1.838700">
			 <ele>92</ele>
			<time>2017-07-16T22:46:07Z</time>
			</trkpt>

			<trkpt lat="47.873960" lon="1.839070">
			 <ele>91</ele>
			<time>2017-07-16T22:48:07Z</time>
			</trkpt>

			<trkpt lat="47.873290" lon="1.840160">
			 <ele>91</ele>
			<time>2017-07-16T22:50:07Z</time>
			</trkpt>

			<trkpt lat="47.873150" lon="1.840030">
			 <ele>90</ele>
			<time>2017-07-16T22:52:07Z</time>
			</trkpt>

			<trkpt lat="47.871720" lon="1.840010">
			 <ele>91</ele>
			<time>2017-07-16T22:54:07Z</time>
			</trkpt>

			<trkpt lat="47.870200" lon="1.839750">
			 <ele>92</ele>
			<time>2017-07-16T22:56:07Z</time>
			</trkpt>

			<trkpt lat="47.869440" lon="1.839860">
			 <ele>97</ele>
			<time>2017-07-16T22:58:07Z</time>
			</trkpt>

			<trkpt lat="47.868900" lon="1.839970">
			 <ele>99</ele>
			<time>2017-07-16T23:00:07Z</time>
			</trkpt>

			<trkpt lat="47.868100" lon="1.837970">
			 <ele>101</ele>
			<time>2017-07-16T23:02:07Z</time>
			</trkpt>

			<trkpt lat="47.868110" lon="1.837580">
			 <ele>101</ele>
			<time>2017-07-16T23:04:07Z</time>
			</trkpt>

			<trkpt lat="47.867970" lon="1.836210">
			 <ele>100</ele>
			<time>2017-07-16T23:06:07Z</time>
			</trkpt>

			<trkpt lat="47.867750" lon="1.835460">
			 <ele>100</ele>
			<time>2017-07-16T23:08:07Z</time>
			</trkpt>

			<trkpt lat="47.867450" lon="1.834640">
			 <ele>100</ele>
			<time>2017-07-16T23:10:07Z</time>
			</trkpt>

			<trkpt lat="47.866080" lon="1.830250">
			 <ele>99</ele>
			<time>2017-07-16T23:12:07Z</time>
			</trkpt>

			<trkpt lat="47.865870" lon="1.829730">
			 <ele>99</ele>
			<time>2017-07-16T23:14:07Z</time>
			</trkpt>

			<trkpt lat="47.865330" lon="1.828510">
			 <ele>100</ele>
			<time>2017-07-16T23:16:07Z</time>
			</trkpt>

			<trkpt lat="47.865130" lon="1.827840">
			 <ele>101</ele>
			<time>2017-07-16T23:18:07Z</time>
			</trkpt>

			<trkpt lat="47.864400" lon="1.825220">
			 <ele>99</ele>
			<time>2017-07-16T23:20:07Z</time>
			</trkpt>

			<trkpt lat="47.864110" lon="1.824220">
			 <ele>97</ele>
			<time>2017-07-16T23:22:07Z</time>
			</trkpt>

			<trkpt lat="47.863990" lon="1.823100">
			 <ele>100</ele>
			<time>2017-07-16T23:24:07Z</time>
			</trkpt>

			<trkpt lat="47.863610" lon="1.821320">
			 <ele>98</ele>
			<time>2017-07-16T23:26:07Z</time>
			</trkpt>

			<trkpt lat="47.863530" lon="1.820460">
			 <ele>96</ele>
			<time>2017-07-16T23:28:07Z</time>
			</trkpt>

			<trkpt lat="47.863400" lon="1.819240">
			 <ele>94</ele>
			<time>2017-07-16T23:30:07Z</time>
			</trkpt>

			<trkpt lat="47.863260" lon="1.817780">
			 <ele>90</ele>
			<time>2017-07-16T23:32:07Z</time>
			</trkpt>

			<trkpt lat="47.863200" lon="1.816470">
			 <ele>91</ele>
			<time>2017-07-16T23:34:07Z</time>
			</trkpt>

			<trkpt lat="47.863160" lon="1.814620">
			 <ele>91</ele>
			<time>2017-07-16T23:36:07Z</time>
			</trkpt>

			<trkpt lat="47.863130" lon="1.813490">
			 <ele>91</ele>
			<time>2017-07-16T23:38:07Z</time>
			</trkpt>

			<trkpt lat="47.863190" lon="1.811260">
			 <ele>93</ele>
			<time>2017-07-16T23:40:07Z</time>
			</trkpt>

			<trkpt lat="47.863160" lon="1.808510">
			 <ele>92</ele>
			<time>2017-07-16T23:42:07Z</time>
			</trkpt>

			<trkpt lat="47.862900" lon="1.806860">
			 <ele>90</ele>
			<time>2017-07-16T23:44:07Z</time>
			</trkpt>

			<trkpt lat="47.862350" lon="1.804840">
			 <ele>88</ele>
			<time>2017-07-16T23:46:07Z</time>
			</trkpt>

			<trkpt lat="47.862170" lon="1.804000">
			 <ele>89</ele>
			<time>2017-07-16T23:48:07Z</time>
			</trkpt>

			<trkpt lat="47.861940" lon="1.801640">
			 <ele>92</ele>
			<time>2017-07-16T23:50:07Z</time>
			</trkpt>

			<trkpt lat="47.862280" lon="1.800030">
			 <ele>90</ele>
			<time>2017-07-16T23:52:07Z</time>
			</trkpt>

			<trkpt lat="47.862740" lon="1.798720">
			 <ele>90</ele>
			<time>2017-07-16T23:54:07Z</time>
			</trkpt>

			<trkpt lat="47.863160" lon="1.797650">
			 <ele>90</ele>
			<time>2017-07-16T23:56:07Z</time>
			</trkpt>

			<trkpt lat="47.863360" lon="1.797090">
			 <ele>90</ele>
			<time>2017-07-16T23:58:07Z</time>
			</trkpt>

			<trkpt lat="47.863670" lon="1.795670">
			 <ele>92</ele>
			<time>2017-07-17T00:00:07Z</time>
			</trkpt>

			<trkpt lat="47.863620" lon="1.793060">
			 <ele>89</ele>
			<time>2017-07-17T00:02:07Z</time>
			</trkpt>

			<trkpt lat="47.863610" lon="1.792630">
			 <ele>89</ele>
			<time>2017-07-17T00:04:07Z</time>
			</trkpt>

			<trkpt lat="47.863550" lon="1.792120">
			 <ele>89</ele>
			<time>2017-07-17T00:06:07Z</time>
			</trkpt>

			<trkpt lat="47.863100" lon="1.791130">
			 <ele>89</ele>
			<time>2017-07-17T00:08:07Z</time>
			</trkpt>

			<trkpt lat="47.862910" lon="1.790310">
			 <ele>89</ele>
			<time>2017-07-17T00:10:07Z</time>
			</trkpt>

			<trkpt lat="47.863160" lon="1.788830">
			 <ele>88</ele>
			<time>2017-07-17T00:12:07Z</time>
			</trkpt>

			<trkpt lat="47.863460" lon="1.785290">
			 <ele>89</ele>
			<time>2017-07-17T00:14:07Z</time>
			</trkpt>

			<trkpt lat="47.862680" lon="1.782760">
			 <ele>90</ele>
			<time>2017-07-17T00:16:07Z</time>
			</trkpt>

			<trkpt lat="47.862350" lon="1.781990">
			 <ele>92</ele>
			<time>2017-07-17T00:18:07Z</time>
			</trkpt>

			<trkpt lat="47.862150" lon="1.781450">
			 <ele>92</ele>
			<time>2017-07-17T00:20:07Z</time>
			</trkpt>

			<trkpt lat="47.861120" lon="1.780290">
			 <ele>90</ele>
			<time>2017-07-17T00:22:07Z</time>
			</trkpt>

			<trkpt lat="47.858710" lon="1.776620">
			 <ele>88</ele>
			<time>2017-07-17T00:24:07Z</time>
			</trkpt>

			<trkpt lat="47.858180" lon="1.775680">
			 <ele>88</ele>
			<time>2017-07-17T00:26:07Z</time>
			</trkpt>

			<trkpt lat="47.857590" lon="1.774010">
			 <ele>88</ele>
			<time>2017-07-17T00:28:07Z</time>
			</trkpt>

			<trkpt lat="47.857270" lon="1.773360">
			 <ele>88</ele>
			<time>2017-07-17T00:30:07Z</time>
			</trkpt>

			<trkpt lat="47.856910" lon="1.772570">
			 <ele>87</ele>
			<time>2017-07-17T00:32:07Z</time>
			</trkpt>

			<trkpt lat="47.856670" lon="1.770980">
			 <ele>90</ele>
			<time>2017-07-17T00:34:07Z</time>
			</trkpt>

			<trkpt lat="47.855030" lon="1.767630">
			 <ele>89</ele>
			<time>2017-07-17T00:36:07Z</time>
			</trkpt>

			<trkpt lat="47.854460" lon="1.766070">
			 <ele>89</ele>
			<time>2017-07-17T00:38:07Z</time>
			</trkpt>

			<trkpt lat="47.853010" lon="1.762050">
			 <ele>88</ele>
			<time>2017-07-17T00:40:07Z</time>
			</trkpt>

			<trkpt lat="47.852290" lon="1.760440">
			 <ele>87</ele>
			<time>2017-07-17T00:42:07Z</time>
			</trkpt>

			<trkpt lat="47.851380" lon="1.758470">
			 <ele>88</ele>
			<time>2017-07-17T00:44:07Z</time>
			</trkpt>

			<trkpt lat="47.850910" lon="1.757140">
			 <ele>89</ele>
			<time>2017-07-17T00:46:07Z</time>
			</trkpt>

			<trkpt lat="47.850040" lon="1.755680">
			 <ele>89</ele>
			<time>2017-07-17T00:48:07Z</time>
			</trkpt>

			<trkpt lat="47.848130" lon="1.752720">
			 <ele>89</ele>
			<time>2017-07-17T00:50:07Z</time>
			</trkpt>

			<trkpt lat="47.846160" lon="1.750490">
			 <ele>87</ele>
			<time>2017-07-17T00:52:07Z</time>
			</trkpt>

			<trkpt lat="47.843890" lon="1.748600">
			 <ele>87</ele>
			<time>2017-07-17T00:54:07Z</time>
			</trkpt>

			<trkpt lat="47.842710" lon="1.747390">
			 <ele>88</ele>
			<time>2017-07-17T00:56:07Z</time>
			</trkpt>

			<trkpt lat="47.842150" lon="1.746780">
			 <ele>87</ele>
			<time>2017-07-17T00:58:07Z</time>
			</trkpt>

			<trkpt lat="47.840740" lon="1.744740">
			 <ele>88</ele>
			<time>2017-07-17T01:00:07Z</time>
			</trkpt>

			<trkpt lat="47.839930" lon="1.743750">
			 <ele>88</ele>
			<time>2017-07-17T01:02:07Z</time>
			</trkpt>

			<trkpt lat="47.838780" lon="1.742910">
			 <ele>87</ele>
			<time>2017-07-17T01:04:07Z</time>
			</trkpt>

			<trkpt lat="47.836330" lon="1.741020">
			 <ele>90</ele>
			<time>2017-07-17T01:06:07Z</time>
			</trkpt>

			<trkpt lat="47.834830" lon="1.740060">
			 <ele>90</ele>
			<time>2017-07-17T01:08:07Z</time>
			</trkpt>

			<trkpt lat="47.832560" lon="1.739220">
			 <ele>87</ele>
			<time>2017-07-17T01:10:07Z</time>
			</trkpt>

			<trkpt lat="47.830670" lon="1.738000">
			 <ele>86</ele>
			<time>2017-07-17T01:12:07Z</time>
			</trkpt>

			<trkpt lat="47.828960" lon="1.737400">
			 <ele>85</ele>
			<time>2017-07-17T01:14:07Z</time>
			</trkpt>

			<trkpt lat="47.827630" lon="1.737180">
			 <ele>86</ele>
			<time>2017-07-17T01:16:07Z</time>
			</trkpt>

			<trkpt lat="47.827180" lon="1.737000">
			 <ele>86</ele>
			<time>2017-07-17T01:18:07Z</time>
			</trkpt>

			<trkpt lat="47.827050" lon="1.737400">
			 <ele>87</ele>
			<time>2017-07-17T01:20:07Z</time>
			</trkpt>

			<trkpt lat="47.826820" lon="1.740260">
			 <ele>86</ele>
			<time>2017-07-17T01:22:07Z</time>
			</trkpt>

			<trkpt lat="47.826840" lon="1.743360">
			 <ele>85</ele>
			<time>2017-07-17T01:24:07Z</time>
			</trkpt>

			<trkpt lat="47.827160" lon="1.746130">
			 <ele>87</ele>
			<time>2017-07-17T01:26:07Z</time>
			</trkpt>

			<trkpt lat="47.827010" lon="1.746670">
			 <ele>87</ele>
			<time>2017-07-17T01:28:07Z</time>
			</trkpt>

			<trkpt lat="47.825570" lon="1.747960">
			 <ele>86</ele>
			<time>2017-07-17T01:30:07Z</time>
			</trkpt>

			<trkpt lat="47.825070" lon="1.748300">
			 <ele>89</ele>
			<time>2017-07-17T01:32:07Z</time>
			</trkpt>

			<trkpt lat="47.824230" lon="1.748300">
			 <ele>88</ele>
			<time>2017-07-17T01:34:07Z</time>
			</trkpt>

			<trkpt lat="47.823730" lon="1.748510">
			 <ele>88</ele>
			<time>2017-07-17T01:36:07Z</time>
			</trkpt>

			<trkpt lat="47.822290" lon="1.750830">
			 <ele>90</ele>
			<time>2017-07-17T01:38:07Z</time>
			</trkpt>

			<trkpt lat="47.822090" lon="1.751320">
			 <ele>90</ele>
			<time>2017-07-17T01:40:07Z</time>
			</trkpt>

			<trkpt lat="47.820730" lon="1.755440">
			 <ele>94</ele>
			<time>2017-07-17T01:42:07Z</time>
			</trkpt>

			<trkpt lat="47.819260" lon="1.753770">
			 <ele>93</ele>
			<time>2017-07-17T01:44:07Z</time>
			</trkpt>

			<trkpt lat="47.817820" lon="1.752100">
			 <ele>90</ele>
			<time>2017-07-17T01:46:07Z</time>
			</trkpt>

			<trkpt lat="47.817320" lon="1.751750">
			 <ele>89</ele>
			<time>2017-07-17T01:48:07Z</time>
			</trkpt>

			<trkpt lat="47.816510" lon="1.751130">
			 <ele>89</ele>
			<time>2017-07-17T01:50:07Z</time>
			</trkpt>

			<trkpt lat="47.815100" lon="1.749260">
			 <ele>88</ele>
			<time>2017-07-17T01:52:07Z</time>
			</trkpt>

			<trkpt lat="47.814920" lon="1.748690">
			 <ele>88</ele>
			<time>2017-07-17T01:54:07Z</time>
			</trkpt>

			<trkpt lat="47.814190" lon="1.747330">
			 <ele>89</ele>
			<time>2017-07-17T01:56:07Z</time>
			</trkpt>

			<trkpt lat="47.813790" lon="1.746680">
			 <ele>89</ele>
			<time>2017-07-17T01:58:07Z</time>
			</trkpt>

			<trkpt lat="47.812690" lon="1.744390">
			 <ele>91</ele>
			<time>2017-07-17T02:00:07Z</time>
			</trkpt>

			<trkpt lat="47.810990" lon="1.739460">
			 <ele>92</ele>
			<time>2017-07-17T02:02:07Z</time>
			</trkpt>

			<trkpt lat="47.810370" lon="1.738300">
			 <ele>90</ele>
			<time>2017-07-17T02:04:07Z</time>
			</trkpt>

			<trkpt lat="47.809460" lon="1.736280">
			 <ele>90</ele>
			<time>2017-07-17T02:06:07Z</time>
			</trkpt>

			<trkpt lat="47.807920" lon="1.734030">
			 <ele>89</ele>
			<time>2017-07-17T02:08:07Z</time>
			</trkpt>

			<trkpt lat="47.806550" lon="1.732140">
			 <ele>92</ele>
			<time>2017-07-17T02:10:07Z</time>
			</trkpt>

			<trkpt lat="47.805990" lon="1.731580">
			 <ele>92</ele>
			<time>2017-07-17T02:12:07Z</time>
			</trkpt>

			<trkpt lat="47.805140" lon="1.730830">
			 <ele>91</ele>
			<time>2017-07-17T02:14:07Z</time>
			</trkpt>

			<trkpt lat="47.804150" lon="1.729730">
			 <ele>94</ele>
			<time>2017-07-17T02:16:07Z</time>
			</trkpt>

			<trkpt lat="47.802570" lon="1.727250">
			 <ele>94</ele>
			<time>2017-07-17T02:18:07Z</time>
			</trkpt>

			<trkpt lat="47.802490" lon="1.726690">
			 <ele>92</ele>
			<time>2017-07-17T02:20:07Z</time>
			</trkpt>

			<trkpt lat="47.803140" lon="1.724160">
			 <ele>88</ele>
			<time>2017-07-17T02:22:07Z</time>
			</trkpt>

			<trkpt lat="47.803180" lon="1.723690">
			 <ele>88</ele>
			<time>2017-07-17T02:24:07Z</time>
			</trkpt>

			<trkpt lat="47.802860" lon="1.723110">
			 <ele>87</ele>
			<time>2017-07-17T02:26:07Z</time>
			</trkpt>

			<trkpt lat="47.800560" lon="1.719370">
			 <ele>89</ele>
			<time>2017-07-17T02:28:07Z</time>
			</trkpt>

			<trkpt lat="47.800050" lon="1.718750">
			 <ele>88</ele>
			<time>2017-07-17T02:30:07Z</time>
			</trkpt>

			<trkpt lat="47.798860" lon="1.717810">
			 <ele>90</ele>
			<time>2017-07-17T02:32:07Z</time>
			</trkpt>

			<trkpt lat="47.797790" lon="1.716200">
			 <ele>90</ele>
			<time>2017-07-17T02:34:07Z</time>
			</trkpt>

			<trkpt lat="47.798020" lon="1.715730">
			 <ele>89</ele>
			<time>2017-07-17T02:36:07Z</time>
			</trkpt>

			<trkpt lat="47.797820" lon="1.714810">
			 <ele>89</ele>
			<time>2017-07-17T02:38:07Z</time>
			</trkpt>

			<trkpt lat="47.798210" lon="1.714440">
			 <ele>88</ele>
			<time>2017-07-17T02:40:07Z</time>
			</trkpt>

			<trkpt lat="47.799190" lon="1.714050">
			 <ele>86</ele>
			<time>2017-07-17T02:42:07Z</time>
			</trkpt>

			<trkpt lat="47.799520" lon="1.713880">
			 <ele>85</ele>
			<time>2017-07-17T02:44:07Z</time>
			</trkpt>

			<trkpt lat="47.800350" lon="1.713560">
			 <ele>84</ele>
			<time>2017-07-17T02:46:07Z</time>
			</trkpt>

			<trkpt lat="47.800890" lon="1.712920">
			 <ele>84</ele>
			<time>2017-07-17T02:48:07Z</time>
			</trkpt>

			<trkpt lat="47.802100" lon="1.711650">
			 <ele>83</ele>
			<time>2017-07-17T02:50:07Z</time>
			</trkpt>

			<trkpt lat="47.805980" lon="1.709550">
			 <ele>86</ele>
			<time>2017-07-17T02:52:07Z</time>
			</trkpt>

			<trkpt lat="47.808500" lon="1.706780">
			 <ele>86</ele>
			<time>2017-07-17T02:54:07Z</time>
			</trkpt>

			<trkpt lat="47.808970" lon="1.707060">
			 <ele>85</ele>
			<time>2017-07-17T02:56:07Z</time>
			</trkpt>

			<trkpt lat="47.809290" lon="1.707060">
			 <ele>85</ele>
			<time>2017-07-17T02:58:07Z</time>
			</trkpt>

			<trkpt lat="47.816800" lon="1.705060">
			 <ele>85</ele>
			<time>2017-07-17T03:00:07Z</time>
			</trkpt>

			<trkpt lat="47.819550" lon="1.703580">
			 <ele>85</ele>
			<time>2017-07-17T03:02:07Z</time>
			</trkpt>

			<trkpt lat="47.821780" lon="1.703860">
			 <ele>85</ele>
			<time>2017-07-17T03:04:07Z</time>
			</trkpt>

			<trkpt lat="47.821980" lon="1.703670">
			 <ele>84</ele>
			<time>2017-07-17T03:06:07Z</time>
			</trkpt>

			<trkpt lat="47.822720" lon="1.702110">
			 <ele>84</ele>
			<time>2017-07-17T03:08:07Z</time>
			</trkpt>

			<trkpt lat="47.824800" lon="1.698020">
			 <ele>89</ele>
			<time>2017-07-17T03:10:07Z</time>
			</trkpt>

			<trkpt lat="47.824260" lon="1.697020">
			 <ele>90</ele>
			<time>2017-07-17T03:12:07Z</time>
			</trkpt>

			<trkpt lat="47.824280" lon="1.696500">
			 <ele>90</ele>
			<time>2017-07-17T03:14:07Z</time>
			</trkpt>

			<trkpt lat="47.823690" lon="1.696410">
			 <ele>89</ele>
			<time>2017-07-17T03:16:07Z</time>
			</trkpt>

			<trkpt lat="47.822690" lon="1.695410">
			 <ele>94</ele>
			<time>2017-07-17T03:18:07Z</time>
			</trkpt>

			<trkpt lat="47.821730" lon="1.695300">
			 <ele>94</ele>
			<time>2017-07-17T03:20:07Z</time>
			</trkpt>

			<trkpt lat="47.820310" lon="1.694380">
			 <ele>92</ele>
			<time>2017-07-17T03:22:07Z</time>
			</trkpt>

			<trkpt lat="47.818570" lon="1.692210">
			 <ele>91</ele>
			<time>2017-07-17T03:24:07Z</time>
			</trkpt>

			<trkpt lat="47.817580" lon="1.690580">
			 <ele>88</ele>
			<time>2017-07-17T03:26:07Z</time>
			</trkpt>

			<trkpt lat="47.816150" lon="1.688650">
			 <ele>87</ele>
			<time>2017-07-17T03:28:07Z</time>
			</trkpt>

			<trkpt lat="47.815890" lon="1.688200">
			 <ele>87</ele>
			<time>2017-07-17T03:30:07Z</time>
			</trkpt>

			<trkpt lat="47.815920" lon="1.687700">
			 <ele>89</ele>
			<time>2017-07-17T03:32:07Z</time>
			</trkpt>

			<trkpt lat="47.816110" lon="1.687420">
			 <ele>91</ele>
			<time>2017-07-17T03:34:07Z</time>
			</trkpt>

			<trkpt lat="47.816050" lon="1.686780">
			 <ele>92</ele>
			<time>2017-07-17T03:36:07Z</time>
			</trkpt>

			<trkpt lat="47.815860" lon="1.686420">
			 <ele>91</ele>
			<time>2017-07-17T03:38:07Z</time>
			</trkpt>

			<trkpt lat="47.815860" lon="1.686210">
			 <ele>92</ele>
			<time>2017-07-17T03:40:07Z</time>
			</trkpt>

			<trkpt lat="47.815620" lon="1.685130">
			 <ele>93</ele>
			<time>2017-07-17T03:42:07Z</time>
			</trkpt>

			<trkpt lat="47.815240" lon="1.684360">
			 <ele>95</ele>
			<time>2017-07-17T03:44:07Z</time>
			</trkpt>

			<trkpt lat="47.813940" lon="1.682870">
			 <ele>96</ele>
			<time>2017-07-17T03:46:07Z</time>
			</trkpt>

			<trkpt lat="47.810720" lon="1.678520">
			 <ele>95</ele>
			<time>2017-07-17T03:48:07Z</time>
			</trkpt>

			<trkpt lat="47.810260" lon="1.677470">
			 <ele>97</ele>
			<time>2017-07-17T03:50:07Z</time>
			</trkpt>

			<trkpt lat="47.809540" lon="1.676220">
			 <ele>98</ele>
			<time>2017-07-17T03:52:07Z</time>
			</trkpt>

			<trkpt lat="47.809550" lon="1.675770">
			 <ele>100</ele>
			<time>2017-07-17T03:54:07Z</time>
			</trkpt>

			<trkpt lat="47.810080" lon="1.674570">
			 <ele>105</ele>
			<time>2017-07-17T03:56:07Z</time>
			</trkpt>

			<trkpt lat="47.810290" lon="1.673750">
			 <ele>105</ele>
			<time>2017-07-17T03:58:07Z</time>
			</trkpt>

			<trkpt lat="47.810860" lon="1.670690">
			 <ele>102</ele>
			<time>2017-07-17T04:00:07Z</time>
			</trkpt>

			<trkpt lat="47.811380" lon="1.669510">
			 <ele>103</ele>
			<time>2017-07-17T04:02:07Z</time>
			</trkpt>

			<trkpt lat="47.810010" lon="1.667940">
			 <ele>99</ele>
			<time>2017-07-17T04:04:07Z</time>
			</trkpt>

			<trkpt lat="47.809820" lon="1.667510">
			 <ele>99</ele>
			<time>2017-07-17T04:06:07Z</time>
			</trkpt>

			<trkpt lat="47.809780" lon="1.666930">
			 <ele>100</ele>
			<time>2017-07-17T04:08:07Z</time>
			</trkpt>

			<trkpt lat="47.809880" lon="1.666480">
			 <ele>100</ele>
			<time>2017-07-17T04:10:07Z</time>
			</trkpt>

			<trkpt lat="47.810900" lon="1.664490">
			 <ele>100</ele>
			<time>2017-07-17T04:12:07Z</time>
			</trkpt>

			<trkpt lat="47.811250" lon="1.663800">
			 <ele>100</ele>
			<time>2017-07-17T04:14:07Z</time>
			</trkpt>

			<trkpt lat="47.811520" lon="1.663280">
			 <ele>99</ele>
			<time>2017-07-17T04:16:07Z</time>
			</trkpt>

			<trkpt lat="47.811830" lon="1.662980">
			 <ele>100</ele>
			<time>2017-07-17T04:18:07Z</time>
			</trkpt>

			<trkpt lat="47.812210" lon="1.663110">
			 <ele>100</ele>
			<time>2017-07-17T04:20:07Z</time>
			</trkpt>

			<trkpt lat="47.812960" lon="1.664150">
			 <ele>100</ele>
			<time>2017-07-17T04:22:07Z</time>
			</trkpt>

			<trkpt lat="47.813200" lon="1.663670">
			 <ele>100</ele>
			<time>2017-07-17T04:24:07Z</time>
			</trkpt>

			<trkpt lat="47.813510" lon="1.663070">
			 <ele>101</ele>
			<time>2017-07-17T04:26:07Z</time>
			</trkpt>

			<trkpt lat="47.814310" lon="1.661850">
			 <ele>102</ele>
			<time>2017-07-17T04:28:07Z</time>
			</trkpt>

			<trkpt lat="47.814550" lon="1.661500">
			 <ele>102</ele>
			<time>2017-07-17T04:30:07Z</time>
			</trkpt>

			<trkpt lat="47.814910" lon="1.661140">
			 <ele>103</ele>
			<time>2017-07-17T04:32:07Z</time>
			</trkpt>

			<trkpt lat="47.815440" lon="1.660670">
			 <ele>103</ele>
			<time>2017-07-17T04:34:07Z</time>
			</trkpt>

			<trkpt lat="47.816280" lon="1.659310">
			 <ele>104</ele>
			<time>2017-07-17T04:36:07Z</time>
			</trkpt>

			<trkpt lat="47.816700" lon="1.659100">
			 <ele>105</ele>
			<time>2017-07-17T04:38:07Z</time>
			</trkpt>

			<trkpt lat="47.817130" lon="1.658880">
			 <ele>103</ele>
			<time>2017-07-17T04:40:07Z</time>
			</trkpt>

			<trkpt lat="47.818310" lon="1.660970">
			 <ele>104</ele>
			<time>2017-07-17T04:42:07Z</time>
			</trkpt>

			<trkpt lat="47.818690" lon="1.661700">
			 <ele>104</ele>
			<time>2017-07-17T04:44:07Z</time>
			</trkpt>

			<trkpt lat="47.818970" lon="1.662490">
			 <ele>104</ele>
			<time>2017-07-17T04:46:07Z</time>
			</trkpt>

			<trkpt lat="47.819330" lon="1.662060">
			 <ele>104</ele>
			<time>2017-07-17T04:48:07Z</time>
			</trkpt>

			<trkpt lat="47.819820" lon="1.661030">
			 <ele>104</ele>
			<time>2017-07-17T04:50:07Z</time>
			</trkpt>

			<trkpt lat="47.820130" lon="1.659980">
			 <ele>104</ele>
			<time>2017-07-17T04:52:07Z</time>
			</trkpt>

			<trkpt lat="47.820600" lon="1.658950">
			 <ele>103</ele>
			<time>2017-07-17T04:54:07Z</time>
			</trkpt>

			<trkpt lat="47.821780" lon="1.656290">
			 <ele>102</ele>
			<time>2017-07-17T04:56:07Z</time>
			</trkpt>

			<trkpt lat="47.822140" lon="1.655840">
			 <ele>103</ele>
			<time>2017-07-17T04:58:07Z</time>
			</trkpt>

			<trkpt lat="47.824450" lon="1.657700">
			 <ele>106</ele>
			<time>2017-07-17T05:00:07Z</time>
			</trkpt>

			<trkpt lat="47.824850" lon="1.657880">
			 <ele>107</ele>
			<time>2017-07-17T05:02:07Z</time>
			</trkpt>

			<trkpt lat="47.825050" lon="1.657430">
			 <ele>107</ele>
			<time>2017-07-17T05:04:07Z</time>
			</trkpt>

			<trkpt lat="47.825540" lon="1.656220">
			 <ele>106</ele>
			<time>2017-07-17T05:06:07Z</time>
			</trkpt>

			<trkpt lat="47.825890" lon="1.655670">
			 <ele>106</ele>
			<time>2017-07-17T05:08:07Z</time>
			</trkpt>

			<trkpt lat="47.827650" lon="1.654740">
			 <ele>106</ele>
			<time>2017-07-17T05:10:07Z</time>
			</trkpt>

			<trkpt lat="47.829190" lon="1.655410">
			 <ele>107</ele>
			<time>2017-07-17T05:12:07Z</time>
			</trkpt>

			<trkpt lat="47.830590" lon="1.655340">
			 <ele>104</ele>
			<time>2017-07-17T05:14:07Z</time>
			</trkpt>

			<trkpt lat="47.831610" lon="1.655150">
			 <ele>105</ele>
			<time>2017-07-17T05:16:07Z</time>
			</trkpt>

			<trkpt lat="47.831950" lon="1.654700">
			 <ele>105</ele>
			<time>2017-07-17T05:18:07Z</time>
			</trkpt>

			<trkpt lat="47.832430" lon="1.654120">
			 <ele>104</ele>
			<time>2017-07-17T05:20:07Z</time>
			</trkpt>

			<trkpt lat="47.832780" lon="1.653950">
			 <ele>104</ele>
			<time>2017-07-17T05:22:07Z</time>
			</trkpt>

			<trkpt lat="47.833020" lon="1.654030">
			 <ele>105</ele>
			<time>2017-07-17T05:24:07Z</time>
			</trkpt>

			<trkpt lat="47.835250" lon="1.656630">
			 <ele>103</ele>
			<time>2017-07-17T05:26:07Z</time>
			</trkpt>

			<trkpt lat="47.836400" lon="1.658330">
			 <ele>104</ele>
			<time>2017-07-17T05:28:07Z</time>
			</trkpt>

			<trkpt lat="47.838980" lon="1.661160">
			 <ele>104</ele>
			<time>2017-07-17T05:30:07Z</time>
			</trkpt>

			<trkpt lat="47.839500" lon="1.661740">
			 <ele>104</ele>
			<time>2017-07-17T05:32:07Z</time>
			</trkpt>

			<trkpt lat="47.840370" lon="1.662280">
			 <ele>102</ele>
			<time>2017-07-17T05:34:07Z</time>
			</trkpt>

			<trkpt lat="47.841270" lon="1.663650">
			 <ele>101</ele>
			<time>2017-07-17T05:36:07Z</time>
			</trkpt>

			<trkpt lat="47.842070" lon="1.664550">
			 <ele>100</ele>
			<time>2017-07-17T05:38:07Z</time>
			</trkpt>

			<trkpt lat="47.843520" lon="1.666440">
			 <ele>101</ele>
			<time>2017-07-17T05:40:07Z</time>
			</trkpt>

			<trkpt lat="47.843580" lon="1.667020">
			 <ele>101</ele>
			<time>2017-07-17T05:42:07Z</time>
			</trkpt>

			<trkpt lat="47.843990" lon="1.667530">
			 <ele>101</ele>
			<time>2017-07-17T05:44:07Z</time>
			</trkpt>

			<trkpt lat="47.844330" lon="1.668260">
			 <ele>100</ele>
			<time>2017-07-17T05:46:07Z</time>
			</trkpt>

			<trkpt lat="47.844510" lon="1.669210">
			 <ele>100</ele>
			<time>2017-07-17T05:48:07Z</time>
			</trkpt>

			<trkpt lat="47.844770" lon="1.671930">
			 <ele>100</ele>
			<time>2017-07-17T05:50:07Z</time>
			</trkpt>

			<trkpt lat="47.844960" lon="1.673130">
			 <ele>99</ele>
			<time>2017-07-17T05:52:07Z</time>
			</trkpt>

			<trkpt lat="47.845130" lon="1.675300">
			 <ele>99</ele>
			<time>2017-07-17T05:54:07Z</time>
			</trkpt>

			<trkpt lat="47.845610" lon="1.677450">
			 <ele>98</ele>
			<time>2017-07-17T05:56:07Z</time>
			</trkpt>

			<trkpt lat="47.845780" lon="1.678970">
			 <ele>98</ele>
			<time>2017-07-17T05:58:07Z</time>
			</trkpt>

			<trkpt lat="47.845950" lon="1.679700">
			 <ele>99</ele>
			<time>2017-07-17T06:00:07Z</time>
			</trkpt>

			<trkpt lat="47.846200" lon="1.680450">
			 <ele>99</ele>
			<time>2017-07-17T06:02:07Z</time>
			</trkpt>

			<trkpt lat="47.847520" lon="1.682420">
			 <ele>106</ele>
			<time>2017-07-17T06:04:07Z</time>
			</trkpt>

			<trkpt lat="47.847880" lon="1.682230">
			 <ele>105</ele>
			<time>2017-07-17T06:06:07Z</time>
			</trkpt>

			<trkpt lat="47.848720" lon="1.681910">
			 <ele>104</ele>
			<time>2017-07-17T06:08:07Z</time>
			</trkpt>

			<trkpt lat="47.849650" lon="1.681540">
			 <ele>106</ele>
			<time>2017-07-17T06:10:07Z</time>
			</trkpt>

			<trkpt lat="47.850420" lon="1.681010">
			 <ele>108</ele>
			<time>2017-07-17T06:12:07Z</time>
			</trkpt>

			<trkpt lat="47.851090" lon="1.680340">
			 <ele>109</ele>
			<time>2017-07-17T06:14:07Z</time>
			</trkpt>

			<trkpt lat="47.851920" lon="1.680150">
			 <ele>107</ele>
			<time>2017-07-17T06:16:07Z</time>
			</trkpt>

			<trkpt lat="47.852880" lon="1.680210">
			 <ele>106</ele>
			<time>2017-07-17T06:18:07Z</time>
			</trkpt>

			<trkpt lat="47.853790" lon="1.680430">
			 <ele>106</ele>
			<time>2017-07-17T06:20:07Z</time>
			</trkpt>

			<trkpt lat="47.854580" lon="1.681050">
			 <ele>105</ele>
			<time>2017-07-17T06:22:07Z</time>
			</trkpt>

			<trkpt lat="47.855230" lon="1.681390">
			 <ele>104</ele>
			<time>2017-07-17T06:24:07Z</time>
			</trkpt>

			<trkpt lat="47.855820" lon="1.682230">
			 <ele>102</ele>
			<time>2017-07-17T06:26:07Z</time>
			</trkpt>

			<trkpt lat="47.856750" lon="1.683500">
			 <ele>100</ele>
			<time>2017-07-17T06:28:07Z</time>
			</trkpt>

			<trkpt lat="47.857290" lon="1.684830">
			 <ele>100</ele>
			<time>2017-07-17T06:30:07Z</time>
			</trkpt>

			<trkpt lat="47.858120" lon="1.684140">
			 <ele>102</ele>
			<time>2017-07-17T06:32:07Z</time>
			</trkpt>

			<trkpt lat="47.858800" lon="1.683860">
			 <ele>102</ele>
			<time>2017-07-17T06:34:07Z</time>
			</trkpt>

			<trkpt lat="47.859420" lon="1.683350">
			 <ele>102</ele>
			<time>2017-07-17T06:36:07Z</time>
			</trkpt>

			<trkpt lat="47.860060" lon="1.683180">
			 <ele>100</ele>
			<time>2017-07-17T06:38:07Z</time>
			</trkpt>

			<trkpt lat="47.860500" lon="1.683580">
			 <ele>100</ele>
			<time>2017-07-17T06:40:07Z</time>
			</trkpt>

			<trkpt lat="47.860770" lon="1.684270">
			 <ele>99</ele>
			<time>2017-07-17T06:42:07Z</time>
			</trkpt>

			<trkpt lat="47.861200" lon="1.685470">
			 <ele>98</ele>
			<time>2017-07-17T06:44:07Z</time>
			</trkpt>

			<trkpt lat="47.862140" lon="1.686930">
			 <ele>99</ele>
			<time>2017-07-17T06:46:07Z</time>
			</trkpt>

			<trkpt lat="47.864560" lon="1.686950">
			 <ele>101</ele>
			<time>2017-07-17T06:48:07Z</time>
			</trkpt>

			<trkpt lat="47.865660" lon="1.688150">
			 <ele>103</ele>
			<time>2017-07-17T06:50:07Z</time>
			</trkpt>

			<trkpt lat="47.865610" lon="1.688450">
			 <ele>104</ele>
			<time>2017-07-17T06:52:07Z</time>
			</trkpt>

			<trkpt lat="47.864690" lon="1.689290">
			 <ele>105</ele>
			<time>2017-07-17T06:54:07Z</time>
			</trkpt>

			<trkpt lat="47.864610" lon="1.689570">
			 <ele>104</ele>
			<time>2017-07-17T06:56:07Z</time>
			</trkpt>

			<trkpt lat="47.864930" lon="1.695020">
			 <ele>100</ele>
			<time>2017-07-17T06:58:07Z</time>
			</trkpt>

			<trkpt lat="47.866070" lon="1.694100">
			 <ele>101</ele>
			<time>2017-07-17T07:00:07Z</time>
			</trkpt>

			<trkpt lat="47.867330" lon="1.692960">
			 <ele>99</ele>
			<time>2017-07-17T07:02:07Z</time>
			</trkpt>

			<trkpt lat="47.867580" lon="1.692570">
			 <ele>99</ele>
			<time>2017-07-17T07:04:07Z</time>
			</trkpt>

			<trkpt lat="47.868140" lon="1.691870">
			 <ele>99</ele>
			<time>2017-07-17T07:06:07Z</time>
			</trkpt>

			<trkpt lat="47.868500" lon="1.690810">
			 <ele>100</ele>
			<time>2017-07-17T07:08:07Z</time>
			</trkpt>

			<trkpt lat="47.868950" lon="1.690150">
			 <ele>101</ele>
			<time>2017-07-17T07:10:07Z</time>
			</trkpt>

			<trkpt lat="47.869250" lon="1.690060">
			 <ele>101</ele>
			<time>2017-07-17T07:12:07Z</time>
			</trkpt>

			<trkpt lat="47.869750" lon="1.691180">
			 <ele>100</ele>
			<time>2017-07-17T07:14:07Z</time>
			</trkpt>

			<trkpt lat="47.870490" lon="1.692360">
			 <ele>100</ele>
			<time>2017-07-17T07:16:07Z</time>
			</trkpt>

			<trkpt lat="47.870750" lon="1.692960">
			 <ele>100</ele>
			<time>2017-07-17T07:18:07Z</time>
			</trkpt>

			<trkpt lat="47.871130" lon="1.693670">
			 <ele>99</ele>
			<time>2017-07-17T07:20:07Z</time>
			</trkpt>

			<trkpt lat="47.871810" lon="1.694720">
			 <ele>99</ele>
			<time>2017-07-17T07:22:07Z</time>
			</trkpt>

			<trkpt lat="47.871950" lon="1.695120">
			 <ele>99</ele>
			<time>2017-07-17T07:24:07Z</time>
			</trkpt>

			<trkpt lat="47.871940" lon="1.695690">
			 <ele>100</ele>
			<time>2017-07-17T07:26:07Z</time>
			</trkpt>

			<trkpt lat="47.873680" lon="1.695860">
			 <ele>100</ele>
			<time>2017-07-17T07:28:07Z</time>
			</trkpt>

			<trkpt lat="47.875190" lon="1.696410">
			 <ele>100</ele>
			<time>2017-07-17T07:30:07Z</time>
			</trkpt>

			<trkpt lat="47.877340" lon="1.697900">
			 <ele>101</ele>
			<time>2017-07-17T07:32:07Z</time>
			</trkpt>

			<trkpt lat="47.878630" lon="1.699010">
			 <ele>101</ele>
			<time>2017-07-17T07:34:07Z</time>
			</trkpt>

			<trkpt lat="47.880400" lon="1.699680">
			 <ele>102</ele>
			<time>2017-07-17T07:36:07Z</time>
			</trkpt>

			<trkpt lat="47.883470" lon="1.700640">
			 <ele>101</ele>
			<time>2017-07-17T07:38:07Z</time>
			</trkpt>

			<trkpt lat="47.884350" lon="1.701220">
			 <ele>102</ele>
			<time>2017-07-17T07:40:07Z</time>
			</trkpt>

			<trkpt lat="47.888330" lon="1.704830">
			 <ele>104</ele>
			<time>2017-07-17T07:42:07Z</time>
			</trkpt>

			<trkpt lat="47.888620" lon="1.705190">
			 <ele>104</ele>
			<time>2017-07-17T07:44:07Z</time>
			</trkpt>

			<trkpt lat="47.889050" lon="1.705190">
			 <ele>105</ele>
			<time>2017-07-17T07:46:07Z</time>
			</trkpt>

			<trkpt lat="47.891730" lon="1.706630">
			 <ele>107</ele>
			<time>2017-07-17T07:48:07Z</time>
			</trkpt>

			<trkpt lat="47.891310" lon="1.708400">
			 <ele>108</ele>
			<time>2017-07-17T07:50:07Z</time>
			</trkpt>

			<trkpt lat="47.891630" lon="1.708800">
			 <ele>108</ele>
			<time>2017-07-17T07:52:07Z</time>
			</trkpt>

			<trkpt lat="47.891840" lon="1.709270">
			 <ele>106</ele>
			<time>2017-07-17T07:54:07Z</time>
			</trkpt>

			<trkpt lat="47.891890" lon="1.710060">
			 <ele>106</ele>
			<time>2017-07-17T07:56:07Z</time>
			</trkpt>

			<trkpt lat="47.891910" lon="1.711280">
			 <ele>106</ele>
			<time>2017-07-17T07:58:07Z</time>
			</trkpt>

			<trkpt lat="47.891730" lon="1.714780">
			 <ele>105</ele>
			<time>2017-07-17T08:00:07Z</time>
			</trkpt>

			<trkpt lat="47.891700" lon="1.715960">
			 <ele>105</ele>
			<time>2017-07-17T08:02:07Z</time>
			</trkpt>

			<trkpt lat="47.891480" lon="1.718000">
			 <ele>107</ele>
			<time>2017-07-17T08:04:07Z</time>
			</trkpt>

			<trkpt lat="47.891450" lon="1.718820">
			 <ele>106</ele>
			<time>2017-07-17T08:06:07Z</time>
			</trkpt>

			<trkpt lat="47.891680" lon="1.724740">
			 <ele>107</ele>
			<time>2017-07-17T08:08:07Z</time>
			</trkpt>

			<trkpt lat="47.891580" lon="1.726370">
			 <ele>110</ele>
			<time>2017-07-17T08:10:07Z</time>
			</trkpt>

			<trkpt lat="47.891680" lon="1.727790">
			 <ele>112</ele>
			<time>2017-07-17T08:12:07Z</time>
			</trkpt>

			<trkpt lat="47.891680" lon="1.729820">
			 <ele>110</ele>
			<time>2017-07-17T08:14:07Z</time>
			</trkpt>

			<trkpt lat="47.892150" lon="1.733920">
			 <ele>115</ele>
			<time>2017-07-17T08:16:07Z</time>
			</trkpt>

			<trkpt lat="47.892200" lon="1.735450">
			 <ele>114</ele>
			<time>2017-07-17T08:18:07Z</time>
			</trkpt>

			<trkpt lat="47.892030" lon="1.739570">
			 <ele>111</ele>
			<time>2017-07-17T08:20:07Z</time>
			</trkpt>

			<trkpt lat="47.892040" lon="1.740550">
			 <ele>112</ele>
			<time>2017-07-17T08:22:07Z</time>
			</trkpt>

			<trkpt lat="47.892220" lon="1.741520">
			 <ele>114</ele>
			<time>2017-07-17T08:24:07Z</time>
			</trkpt>

			<trkpt lat="47.891860" lon="1.744570">
			 <ele>113</ele>
			<time>2017-07-17T08:26:07Z</time>
			</trkpt>

			<trkpt lat="47.891530" lon="1.748990">
			 <ele>100</ele>
			<time>2017-07-17T08:28:07Z</time>
			</trkpt>

			<trkpt lat="47.891570" lon="1.749870">
			 <ele>99</ele>
			<time>2017-07-17T08:30:07Z</time>
			</trkpt>

			<trkpt lat="47.891940" lon="1.751730">
			 <ele>97</ele>
			<time>2017-07-17T08:32:07Z</time>
			</trkpt>

			<trkpt lat="47.894460" lon="1.762140">
			 <ele>106</ele>
			<time>2017-07-17T08:34:07Z</time>
			</trkpt>

			<trkpt lat="47.894500" lon="1.762550">
			 <ele>105</ele>
			<time>2017-07-17T08:36:07Z</time>
			</trkpt>

			<trkpt lat="47.894390" lon="1.763040">
			 <ele>105</ele>
			<time>2017-07-17T08:38:07Z</time>
			</trkpt>

			<trkpt lat="47.894220" lon="1.763360">
			 <ele>105</ele>
			<time>2017-07-17T08:40:07Z</time>
			</trkpt>

			<trkpt lat="47.893810" lon="1.763710">
			 <ele>105</ele>
			<time>2017-07-17T08:42:07Z</time>
			</trkpt>

			<trkpt lat="47.892900" lon="1.763990">
			 <ele>108</ele>
			<time>2017-07-17T08:44:07Z</time>
			</trkpt>

			<trkpt lat="47.890610" lon="1.765660">
			 <ele>108</ele>
			<time>2017-07-17T08:46:07Z</time>
			</trkpt>

			<trkpt lat="47.888650" lon="1.766820">
			 <ele>109</ele>
			<time>2017-07-17T08:48:07Z</time>
			</trkpt>

			<trkpt lat="47.888040" lon="1.767310">
			 <ele>110</ele>
			<time>2017-07-17T08:50:07Z</time>
			</trkpt>

			<trkpt lat="47.887660" lon="1.767720">
			 <ele>112</ele>
			<time>2017-07-17T08:52:07Z</time>
			</trkpt>

			<trkpt lat="47.886790" lon="1.768810">
			 <ele>114</ele>
			<time>2017-07-17T08:54:07Z</time>
			</trkpt>

			<trkpt lat="47.885870" lon="1.770210">
			 <ele>113</ele>
			<time>2017-07-17T08:56:07Z</time>
			</trkpt>

			<trkpt lat="47.885180" lon="1.771320">
			 <ele>110</ele>
			<time>2017-07-17T08:58:07Z</time>
			</trkpt>

			<trkpt lat="47.883970" lon="1.772520">
			 <ele>109</ele>
			<time>2017-07-17T09:00:07Z</time>
			</trkpt>

			<trkpt lat="47.884490" lon="1.773450">
			 <ele>108</ele>
			<time>2017-07-17T09:02:07Z</time>
			</trkpt>

			<trkpt lat="47.884840" lon="1.774480">
			 <ele>107</ele>
			<time>2017-07-17T09:04:07Z</time>
			</trkpt>

			<trkpt lat="47.884910" lon="1.774950">
			 <ele>106</ele>
			<time>2017-07-17T09:06:07Z</time>
			</trkpt>

			<trkpt lat="47.885400" lon="1.776280">
			 <ele>107</ele>
			<time>2017-07-17T09:08:07Z</time>
			</trkpt>

			<trkpt lat="47.885640" lon="1.777020">
			 <ele>108</ele>
			<time>2017-07-17T09:10:07Z</time>
			</trkpt>

			<trkpt lat="47.886990" lon="1.780400">
			 <ele>110</ele>
			<time>2017-07-17T09:12:07Z</time>
			</trkpt>

			<trkpt lat="47.887570" lon="1.782180">
			 <ele>111</ele>
			<time>2017-07-17T09:14:07Z</time>
			</trkpt>

			<trkpt lat="47.887870" lon="1.782970">
			 <ele>111</ele>
			<time>2017-07-17T09:16:07Z</time>
			</trkpt>

			<trkpt lat="47.889240" lon="1.785960">
			 <ele>112</ele>
			<time>2017-07-17T09:18:07Z</time>
			</trkpt>

			<trkpt lat="47.890620" lon="1.789880">
			 <ele>110</ele>
			<time>2017-07-17T09:20:07Z</time>
			</trkpt>

			<trkpt lat="47.891040" lon="1.790720">
			 <ele>110</ele>
			<time>2017-07-17T09:22:07Z</time>
			</trkpt>

			<trkpt lat="47.891940" lon="1.792420">
			 <ele>111</ele>
			<time>2017-07-17T09:24:07Z</time>
			</trkpt>

			<trkpt lat="47.892380" lon="1.793920">
			 <ele>112</ele>
			<time>2017-07-17T09:26:07Z</time>
			</trkpt>

			<trkpt lat="47.893730" lon="1.798600">
			 <ele>113</ele>
			<time>2017-07-17T09:28:07Z</time>
			</trkpt>

			<trkpt lat="47.893900" lon="1.799370">
			 <ele>113</ele>
			<time>2017-07-17T09:30:07Z</time>
			</trkpt>

			<trkpt lat="47.894070" lon="1.800420">
			 <ele>114</ele>
			<time>2017-07-17T09:32:07Z</time>
			</trkpt>

			<trkpt lat="47.894560" lon="1.806360">
			 <ele>111</ele>
			<time>2017-07-17T09:34:07Z</time>
			</trkpt>

			<trkpt lat="47.895250" lon="1.809450">
			 <ele>111</ele>
			<time>2017-07-17T09:36:07Z</time>
			</trkpt>

			<trkpt lat="47.895510" lon="1.809220">
			 <ele>110</ele>
			<time>2017-07-17T09:38:07Z</time>
			</trkpt>

			<trkpt lat="47.895910" lon="1.808850">
			 <ele>110</ele>
			<time>2017-07-17T09:40:07Z</time>
			</trkpt>

			<trkpt lat="47.896250" lon="1.808830">
			 <ele>109</ele>
			<time>2017-07-17T09:42:07Z</time>
			</trkpt>

			<trkpt lat="47.897050" lon="1.809050">
			 <ele>108</ele>
			<time>2017-07-17T09:44:07Z</time>
			</trkpt>

			<trkpt lat="47.897730" lon="1.809090">
			 <ele>106</ele>
			<time>2017-07-17T09:46:07Z</time>
			</trkpt>

			<trkpt lat="47.898530" lon="1.809200">
			 <ele>104</ele>
			<time>2017-07-17T09:48:07Z</time>
			</trkpt>

			<trkpt lat="47.899470" lon="1.809170">
			 <ele>106</ele>
			<time>2017-07-17T09:50:07Z</time>
			</trkpt>

			<trkpt lat="47.900070" lon="1.809200">
			 <ele>107</ele>
			<time>2017-07-17T09:52:07Z</time>
			</trkpt>

			<trkpt lat="47.901310" lon="1.809260">
			 <ele>107</ele>
			<time>2017-07-17T09:54:07Z</time>
			</trkpt>

			<trkpt lat="47.901840" lon="1.809350">
			 <ele>107</ele>
			<time>2017-07-17T09:56:07Z</time>
			</trkpt>

			<trkpt lat="47.902160" lon="1.809020">
			 <ele>108</ele>
			<time>2017-07-17T09:58:07Z</time>
			</trkpt>

			<trkpt lat="47.902320" lon="1.808360">
			 <ele>109</ele>
			<time>2017-07-17T10:00:07Z</time>
			</trkpt>

			<trkpt lat="47.902370" lon="1.807760">
			 <ele>109</ele>
			<time>2017-07-17T10:02:07Z</time>
			</trkpt>

			<trkpt lat="47.902170" lon="1.807140">
			 <ele>110</ele>
			<time>2017-07-17T10:04:07Z</time>
			</trkpt>

			<trkpt lat="47.901930" lon="1.806150">
			 <ele>109</ele>
			<time>2017-07-17T10:06:07Z</time>
			</trkpt>

			<trkpt lat="47.901650" lon="1.805290">
			 <ele>109</ele>
			<time>2017-07-17T10:08:07Z</time>
			</trkpt>

			<trkpt lat="47.901500" lon="1.804580">
			 <ele>109</ele>
			<time>2017-07-17T10:10:07Z</time>
			</trkpt>

			<trkpt lat="47.902920" lon="1.803550">
			 <ele>109</ele>
			<time>2017-07-17T10:12:07Z</time>
			</trkpt>

			<trkpt lat="47.903630" lon="1.803250">
			 <ele>109</ele>
			<time>2017-07-17T10:14:07Z</time>
			</trkpt>

			<trkpt lat="47.904240" lon="1.803400">
			 <ele>108</ele>
			<time>2017-07-17T10:16:07Z</time>
			</trkpt>

			<trkpt lat="47.904930" lon="1.803530">
			 <ele>108</ele>
			<time>2017-07-17T10:18:07Z</time>
			</trkpt>

			<trkpt lat="47.905520" lon="1.803600">
			 <ele>109</ele>
			<time>2017-07-17T10:20:07Z</time>
			</trkpt>

			<trkpt lat="47.906010" lon="1.803620">
			 <ele>109</ele>
			<time>2017-07-17T10:22:07Z</time>
			</trkpt>

			<trkpt lat="47.906990" lon="1.803900">
			 <ele>109</ele>
			<time>2017-07-17T10:24:07Z</time>
			</trkpt>

			<trkpt lat="47.907370" lon="1.803870">
			 <ele>109</ele>
			<time>2017-07-17T10:26:07Z</time>
			</trkpt>

			<trkpt lat="47.908080" lon="1.803850">
			 <ele>108</ele>
			<time>2017-07-17T10:28:07Z</time>
			</trkpt>

			<trkpt lat="47.909010" lon="1.803700">
			 <ele>108</ele>
			<time>2017-07-17T10:30:07Z</time>
			</trkpt>

			<trkpt lat="47.909510" lon="1.803680">
			 <ele>108</ele>
			<time>2017-07-17T10:32:07Z</time>
			</trkpt>

			<trkpt lat="47.910830" lon="1.803420">
			 <ele>110</ele>
			<time>2017-07-17T10:34:07Z</time>
			</trkpt>

			<trkpt lat="47.911340" lon="1.803380">
			 <ele>111</ele>
			<time>2017-07-17T10:36:07Z</time>
			</trkpt>

			<trkpt lat="47.911940" lon="1.803340">
			 <ele>112</ele>
			<time>2017-07-17T10:38:07Z</time>
			</trkpt>

			<trkpt lat="47.912000" lon="1.803640">
			 <ele>112</ele>
			<time>2017-07-17T10:40:07Z</time>
			</trkpt>

			<trkpt lat="47.912800" lon="1.803380">
			 <ele>113</ele>
			<time>2017-07-17T10:42:07Z</time>
			</trkpt>

			<trkpt lat="47.913390" lon="1.803080">
			 <ele>113</ele>
			<time>2017-07-17T10:44:07Z</time>
			</trkpt>

			<trkpt lat="47.914270" lon="1.802720">
			 <ele>116</ele>
			<time>2017-07-17T10:46:07Z</time>
			</trkpt>

			<trkpt lat="47.914840" lon="1.802720">
			 <ele>117</ele>
			<time>2017-07-17T10:48:07Z</time>
			</trkpt>

			<trkpt lat="47.915550" lon="1.802870">
			 <ele>117</ele>
			<time>2017-07-17T10:50:07Z</time>
			</trkpt>

			<trkpt lat="47.917030" lon="1.803320">
			 <ele>115</ele>
			<time>2017-07-17T10:52:07Z</time>
			</trkpt>

			<trkpt lat="47.917590" lon="1.803400">
			 <ele>116</ele>
			<time>2017-07-17T10:54:07Z</time>
			</trkpt>

			<trkpt lat="47.918200" lon="1.803120">
			 <ele>116</ele>
			<time>2017-07-17T10:56:07Z</time>
			</trkpt>

			<trkpt lat="47.919680" lon="1.802390">
			 <ele>120</ele>
			<time>2017-07-17T10:58:07Z</time>
			</trkpt>

			<trkpt lat="47.919830" lon="1.803320">
			 <ele>119</ele>
			<time>2017-07-17T11:00:07Z</time>
			</trkpt>

			<trkpt lat="47.919920" lon="1.803980">
			 <ele>118</ele>
			<time>2017-07-17T11:02:07Z</time>
			</trkpt>

			<trkpt lat="47.919950" lon="1.804780">
			 <ele>118</ele>
			<time>2017-07-17T11:04:07Z</time>
			</trkpt>

			<trkpt lat="47.919940" lon="1.805400">
			 <ele>117</ele>
			<time>2017-07-17T11:06:07Z</time>
			</trkpt>

			<trkpt lat="47.920020" lon="1.805810">
			 <ele>117</ele>
			<time>2017-07-17T11:08:07Z</time>
			</trkpt>

			<trkpt lat="47.919980" lon="1.806080">
			 <ele>118</ele>
			<time>2017-07-17T11:10:07Z</time>
			</trkpt>

			<trkpt lat="47.919980" lon="1.806540">
			 <ele>119</ele>
			<time>2017-07-17T11:12:07Z</time>
			</trkpt>

			<trkpt lat="47.920040" lon="1.807160">
			 <ele>120</ele>
			<time>2017-07-17T11:14:07Z</time>
			</trkpt>

			<trkpt lat="47.919990" lon="1.811750">
			 <ele>121</ele>
			<time>2017-07-17T11:16:07Z</time>
			</trkpt>

			<trkpt lat="47.919680" lon="1.813170">
			 <ele>119</ele>
			<time>2017-07-17T11:18:07Z</time>
			</trkpt>

			<trkpt lat="47.919660" lon="1.813570">
			 <ele>118</ele>
			<time>2017-07-17T11:20:07Z</time>
			</trkpt>

			<trkpt lat="47.919820" lon="1.814500">
			 <ele>118</ele>
			<time>2017-07-17T11:22:07Z</time>
			</trkpt>

			<trkpt lat="47.919940" lon="1.816210">
			 <ele>119</ele>
			<time>2017-07-17T11:24:07Z</time>
			</trkpt>

			<trkpt lat="47.921140" lon="1.815850">
			 <ele>122</ele>
			<time>2017-07-17T11:26:07Z</time>
			</trkpt>

			<trkpt lat="47.922440" lon="1.815870">
			 <ele>122</ele>
			<time>2017-07-17T11:28:07Z</time>
			</trkpt>

			<trkpt lat="47.923210" lon="1.816380">
			 <ele>123</ele>
			<time>2017-07-17T11:30:07Z</time>
			</trkpt>

			<trkpt lat="47.924610" lon="1.816080">
			 <ele>125</ele>
			<time>2017-07-17T11:32:07Z</time>
			</trkpt>

			<trkpt lat="47.924920" lon="1.817540">
			 <ele>128</ele>
			<time>2017-07-17T11:34:07Z</time>
			</trkpt>

			<trkpt lat="47.924820" lon="1.818400">
			 <ele>129</ele>
			<time>2017-07-17T11:36:07Z</time>
			</trkpt>

			<trkpt lat="47.924390" lon="1.819430">
			 <ele>129</ele>
			<time>2017-07-17T11:38:07Z</time>
			</trkpt>

			<trkpt lat="47.925150" lon="1.819900">
			 <ele>130</ele>
			<time>2017-07-17T11:40:07Z</time>
			</trkpt>

			<trkpt lat="47.926260" lon="1.819730">
			 <ele>129</ele>
			<time>2017-07-17T11:42:07Z</time>
			</trkpt>

			<trkpt lat="47.926690" lon="1.819450">
			 <ele>127</ele>
			<time>2017-07-17T11:44:07Z</time>
			</trkpt>

			<trkpt lat="47.929020" lon="1.817610">
			 <ele>121</ele>
			<time>2017-07-17T11:46:07Z</time>
			</trkpt>

			<trkpt lat="47.930010" lon="1.817090">
			 <ele>119</ele>
			<time>2017-07-17T11:48:07Z</time>
			</trkpt>

			<trkpt lat="47.930520" lon="1.816990">
			 <ele>119</ele>
			<time>2017-07-17T11:50:07Z</time>
			</trkpt>

			<trkpt lat="47.931290" lon="1.817180">
			 <ele>118</ele>
			<time>2017-07-17T11:52:07Z</time>
			</trkpt>

			<trkpt lat="47.931830" lon="1.817050">
			 <ele>117</ele>
			<time>2017-07-17T11:54:07Z</time>
			</trkpt>

			<trkpt lat="47.934180" lon="1.815200">
			 <ele>116</ele>
			<time>2017-07-17T11:56:07Z</time>
			</trkpt>

			<trkpt lat="47.934730" lon="1.814930">
			 <ele>115</ele>
			<time>2017-07-17T11:58:07Z</time>
			</trkpt>

			<trkpt lat="47.935380" lon="1.814370">
			 <ele>115</ele>
			<time>2017-07-17T12:00:07Z</time>
			</trkpt>

			<trkpt lat="47.936380" lon="1.813210">
			 <ele>116</ele>
			<time>2017-07-17T12:02:07Z</time>
			</trkpt>

			<trkpt lat="47.936600" lon="1.813700">
			 <ele>117</ele>
			<time>2017-07-17T12:04:07Z</time>
			</trkpt>

			<trkpt lat="47.936840" lon="1.814080">
			 <ele>117</ele>
			<time>2017-07-17T12:06:07Z</time>
			</trkpt>

			<trkpt lat="47.937220" lon="1.814170">
			 <ele>116</ele>
			<time>2017-07-17T12:08:07Z</time>
			</trkpt>

			<trkpt lat="47.938480" lon="1.812930">
			 <ele>117</ele>
			<time>2017-07-17T12:10:07Z</time>
			</trkpt>

			<trkpt lat="47.938710" lon="1.812970">
			 <ele>117</ele>
			<time>2017-07-17T12:12:07Z</time>
			</trkpt>

			<trkpt lat="47.939040" lon="1.813570">
			 <ele>116</ele>
			<time>2017-07-17T12:14:07Z</time>
			</trkpt>

			<trkpt lat="47.939270" lon="1.813790">
			 <ele>116</ele>
			<time>2017-07-17T12:16:07Z</time>
			</trkpt>

			<trkpt lat="47.939630" lon="1.813720">
			 <ele>116</ele>
			<time>2017-07-17T12:18:07Z</time>
			</trkpt>

			<trkpt lat="47.940220" lon="1.813250">
			 <ele>115</ele>
			<time>2017-07-17T12:20:07Z</time>
			</trkpt>

			<trkpt lat="47.940520" lon="1.813790">
			 <ele>114</ele>
			<time>2017-07-17T12:22:07Z</time>
			</trkpt>

			<trkpt lat="47.941490" lon="1.812410">
			 <ele>115</ele>
			<time>2017-07-17T12:24:07Z</time>
			</trkpt>

			<trkpt lat="47.942130" lon="1.813700">
			 <ele>115</ele>
			<time>2017-07-17T12:26:07Z</time>
			</trkpt>

				</trkseg>
			   </trk>
			 </gpx>
