<?xml version="1.0" encoding="UTF-8" ?>
<gpx version="1.1" xmlns:xsi="http://www.w3.org/2001/XMLSchema-instance"
    xmlns="http://www.topografix.com/GPX/1/1"
    xsi:schemaLocation="http://www.topografix.com/GPX/1/1 http://www.topografix.com/GPX/1/1/gpx.xsd"
    creator="Openrunner - https://www.openrunner.com" >	<trk>
						<name>A32 - 78km - Villemblain</name>
						<trkseg>
					<trkpt lat="47.942050" lon="1.813580">
						<ele>115</ele>
						<time>2023-01-27T16:02:11Z</time>
					</trkpt>
					<trkpt lat="47.941470" lon="1.812510">
						<ele>116</ele>
						<time>2023-01-27T16:02:27Z</time>
					</trkpt>
					<trkpt lat="47.941160" lon="1.813030">
						<ele>115</ele>
						<time>2023-01-27T16:02:36Z</time>
					</trkpt>
					<trkpt lat="47.940520" lon="1.813930">
						<ele>114</ele>
						<time>2023-01-27T16:02:51Z</time>
					</trkpt>
					<trkpt lat="47.940240" lon="1.813200">
						<ele>115</ele>
						<time>2023-01-27T16:03:01Z</time>
					</trkpt>
					<trkpt lat="47.939570" lon="1.813800">
						<ele>116</ele>
						<time>2023-01-27T16:03:15Z</time>
					</trkpt>
					<trkpt lat="47.939000" lon="1.813580">
						<ele>116</ele>
						<time>2023-01-27T16:03:26Z</time>
					</trkpt>
					<trkpt lat="47.938580" lon="1.812930">
						<ele>117</ele>
						<time>2023-01-27T16:03:37Z</time>
					</trkpt>
					<trkpt lat="47.937380" lon="1.814020">
						<ele>116</ele>
						<time>2023-01-27T16:04:02Z</time>
					</trkpt>
					<trkpt lat="47.937060" lon="1.814170">
						<ele>117</ele>
						<time>2023-01-27T16:04:07Z</time>
					</trkpt>
					<trkpt lat="47.936670" lon="1.813980">
						<ele>117</ele>
						<time>2023-01-27T16:04:15Z</time>
					</trkpt>
					<trkpt lat="47.936410" lon="1.813230">
						<ele>116</ele>
						<time>2023-01-27T16:04:25Z</time>
					</trkpt>
					<trkpt lat="47.935970" lon="1.813640">
						<ele>115</ele>
						<time>2023-01-27T16:04:34Z</time>
					</trkpt>
					<trkpt lat="47.935460" lon="1.814300">
						<ele>115</ele>
						<time>2023-01-27T16:04:46Z</time>
					</trkpt>
					<trkpt lat="47.934560" lon="1.815050">
						<ele>116</ele>
						<time>2023-01-27T16:05:04Z</time>
					</trkpt>
					<trkpt lat="47.934140" lon="1.815200">
						<ele>116</ele>
						<time>2023-01-27T16:05:12Z</time>
					</trkpt>
					<trkpt lat="47.931750" lon="1.817090">
						<ele>117</ele>
						<time>2023-01-27T16:06:00Z</time>
					</trkpt>
					<trkpt lat="47.931250" lon="1.817140">
						<ele>118</ele>
						<time>2023-01-27T16:06:09Z</time>
					</trkpt>
					<trkpt lat="47.930400" lon="1.817010">
						<ele>119</ele>
						<time>2023-01-27T16:06:24Z</time>
					</trkpt>
					<trkpt lat="47.930000" lon="1.817070">
						<ele>119</ele>
						<time>2023-01-27T16:06:32Z</time>
					</trkpt>
					<trkpt lat="47.928160" lon="1.818230">
						<ele>123</ele>
						<time>2023-01-27T16:07:07Z</time>
					</trkpt>
					<trkpt lat="47.926490" lon="1.819670">
						<ele>128</ele>
						<time>2023-01-27T16:07:41Z</time>
					</trkpt>
					<trkpt lat="47.925070" lon="1.819970">
						<ele>130</ele>
						<time>2023-01-27T16:08:07Z</time>
					</trkpt>
					<trkpt lat="47.924410" lon="1.819370">
						<ele>129</ele>
						<time>2023-01-27T16:08:21Z</time>
					</trkpt>
					<trkpt lat="47.924670" lon="1.818790">
						<ele>128</ele>
						<time>2023-01-27T16:08:29Z</time>
					</trkpt>
					<trkpt lat="47.924920" lon="1.817910">
						<ele>128</ele>
						<time>2023-01-27T16:08:40Z</time>
					</trkpt>
					<trkpt lat="47.924810" lon="1.816960">
						<ele>127</ele>
						<time>2023-01-27T16:08:52Z</time>
					</trkpt>
					<trkpt lat="47.924570" lon="1.816110">
						<ele>125</ele>
						<time>2023-01-27T16:09:03Z</time>
					</trkpt>
					<trkpt lat="47.923360" lon="1.816410">
						<ele>124</ele>
						<time>2023-01-27T16:09:25Z</time>
					</trkpt>
					<trkpt lat="47.922720" lon="1.815930">
						<ele>122</ele>
						<time>2023-01-27T16:09:37Z</time>
					</trkpt>
					<trkpt lat="47.922050" lon="1.815830">
						<ele>123</ele>
						<time>2023-01-27T16:09:49Z</time>
					</trkpt>
					<trkpt lat="47.921130" lon="1.815870">
						<ele>122</ele>
						<time>2023-01-27T16:10:06Z</time>
					</trkpt>
					<trkpt lat="47.919960" lon="1.816230">
						<ele>119</ele>
						<time>2023-01-27T16:10:27Z</time>
					</trkpt>
					<trkpt lat="47.919920" lon="1.813550">
						<ele>119</ele>
						<time>2023-01-27T16:10:59Z</time>
					</trkpt>
					<trkpt lat="47.920080" lon="1.810990">
						<ele>120</ele>
						<time>2023-01-27T16:11:30Z</time>
					</trkpt>
					<trkpt lat="47.919960" lon="1.806870">
						<ele>119</ele>
						<time>2023-01-27T16:12:19Z</time>
					</trkpt>
					<trkpt lat="47.919790" lon="1.802750">
						<ele>120</ele>
						<time>2023-01-27T16:13:08Z</time>
					</trkpt>
					<trkpt lat="47.917320" lon="1.803350">
						<ele>116</ele>
						<time>2023-01-27T16:13:53Z</time>
					</trkpt>
					<trkpt lat="47.914730" lon="1.802400">
						<ele>117</ele>
						<time>2023-01-27T16:14:40Z</time>
					</trkpt>
					<trkpt lat="47.912000" lon="1.803660">
						<ele>112</ele>
						<time>2023-01-27T16:15:31Z</time>
					</trkpt>
					<trkpt lat="47.911920" lon="1.803320">
						<ele>112</ele>
						<time>2023-01-27T16:15:35Z</time>
					</trkpt>
					<trkpt lat="47.910730" lon="1.803470">
						<ele>110</ele>
						<time>2023-01-27T16:15:56Z</time>
					</trkpt>
					<trkpt lat="47.909360" lon="1.803680">
						<ele>108</ele>
						<time>2023-01-27T16:16:21Z</time>
					</trkpt>
					<trkpt lat="47.907680" lon="1.803830">
						<ele>108</ele>
						<time>2023-01-27T16:16:51Z</time>
					</trkpt>
					<trkpt lat="47.906980" lon="1.803960">
						<ele>109</ele>
						<time>2023-01-27T16:17:03Z</time>
					</trkpt>
					<trkpt lat="47.905900" lon="1.803620">
						<ele>109</ele>
						<time>2023-01-27T16:17:23Z</time>
					</trkpt>
					<trkpt lat="47.904790" lon="1.803530">
						<ele>108</ele>
						<time>2023-01-27T16:17:43Z</time>
					</trkpt>
					<trkpt lat="47.903810" lon="1.803320">
						<ele>108</ele>
						<time>2023-01-27T16:18:00Z</time>
					</trkpt>
					<trkpt lat="47.903420" lon="1.803340">
						<ele>109</ele>
						<time>2023-01-27T16:18:07Z</time>
					</trkpt>
					<trkpt lat="47.901700" lon="1.804450">
						<ele>109</ele>
						<time>2023-01-27T16:18:41Z</time>
					</trkpt>
					<trkpt lat="47.901470" lon="1.804780">
						<ele>109</ele>
						<time>2023-01-27T16:18:46Z</time>
					</trkpt>
					<trkpt lat="47.901640" lon="1.805270">
						<ele>109</ele>
						<time>2023-01-27T16:18:53Z</time>
					</trkpt>
					<trkpt lat="47.902360" lon="1.807650">
						<ele>109</ele>
						<time>2023-01-27T16:19:24Z</time>
					</trkpt>
					<trkpt lat="47.902360" lon="1.808190">
						<ele>109</ele>
						<time>2023-01-27T16:19:31Z</time>
					</trkpt>
					<trkpt lat="47.902140" lon="1.809110">
						<ele>108</ele>
						<time>2023-01-27T16:19:42Z</time>
					</trkpt>
					<trkpt lat="47.901840" lon="1.809320">
						<ele>107</ele>
						<time>2023-01-27T16:19:48Z</time>
					</trkpt>
					<trkpt lat="47.900270" lon="1.809200">
						<ele>107</ele>
						<time>2023-01-27T16:20:16Z</time>
					</trkpt>
					<trkpt lat="47.898600" lon="1.809200">
						<ele>104</ele>
						<time>2023-01-27T16:20:46Z</time>
					</trkpt>
					<trkpt lat="47.897760" lon="1.809090">
						<ele>106</ele>
						<time>2023-01-27T16:21:01Z</time>
					</trkpt>
					<trkpt lat="47.896860" lon="1.809020">
						<ele>108</ele>
						<time>2023-01-27T16:21:17Z</time>
					</trkpt>
					<trkpt lat="47.896120" lon="1.808830">
						<ele>110</ele>
						<time>2023-01-27T16:21:30Z</time>
					</trkpt>
					<trkpt lat="47.895810" lon="1.808980">
						<ele>110</ele>
						<time>2023-01-27T16:21:36Z</time>
					</trkpt>
					<trkpt lat="47.895280" lon="1.809520">
						<ele>111</ele>
						<time>2023-01-27T16:21:47Z</time>
					</trkpt>
					<trkpt lat="47.894910" lon="1.808040">
						<ele>112</ele>
						<time>2023-01-27T16:22:06Z</time>
					</trkpt>
					<trkpt lat="47.894590" lon="1.806390">
						<ele>111</ele>
						<time>2023-01-27T16:22:27Z</time>
					</trkpt>
					<trkpt lat="47.894360" lon="1.804170">
						<ele>111</ele>
						<time>2023-01-27T16:22:54Z</time>
					</trkpt>
					<trkpt lat="47.894250" lon="1.802630">
						<ele>112</ele>
						<time>2023-01-27T16:23:12Z</time>
					</trkpt>
					<trkpt lat="47.893930" lon="1.799390">
						<ele>113</ele>
						<time>2023-01-27T16:23:51Z</time>
					</trkpt>
					<trkpt lat="47.892990" lon="1.796060">
						<ele>112</ele>
						<time>2023-01-27T16:24:34Z</time>
					</trkpt>
					<trkpt lat="47.892040" lon="1.792910">
						<ele>111</ele>
						<time>2023-01-27T16:25:15Z</time>
					</trkpt>
					<trkpt lat="47.891710" lon="1.792030">
						<ele>110</ele>
						<time>2023-01-27T16:25:27Z</time>
					</trkpt>
					<trkpt lat="47.890990" lon="1.790640">
						<ele>110</ele>
						<time>2023-01-27T16:25:48Z</time>
					</trkpt>
					<trkpt lat="47.890590" lon="1.789710">
						<ele>110</ele>
						<time>2023-01-27T16:26:02Z</time>
					</trkpt>
					<trkpt lat="47.890130" lon="1.788530">
						<ele>110</ele>
						<time>2023-01-27T16:26:18Z</time>
					</trkpt>
					<trkpt lat="47.889220" lon="1.785940">
						<ele>112</ele>
						<time>2023-01-27T16:26:53Z</time>
					</trkpt>
					<trkpt lat="47.888610" lon="1.784460">
						<ele>111</ele>
						<time>2023-01-27T16:27:13Z</time>
					</trkpt>
					<trkpt lat="47.888300" lon="1.783900">
						<ele>111</ele>
						<time>2023-01-27T16:27:22Z</time>
					</trkpt>
					<trkpt lat="47.887640" lon="1.782400">
						<ele>111</ele>
						<time>2023-01-27T16:27:44Z</time>
					</trkpt>
					<trkpt lat="47.887430" lon="1.781640">
						<ele>110</ele>
						<time>2023-01-27T16:27:53Z</time>
					</trkpt>
					<trkpt lat="47.886580" lon="1.779350">
						<ele>109</ele>
						<time>2023-01-27T16:28:25Z</time>
					</trkpt>
					<trkpt lat="47.885910" lon="1.777800">
						<ele>108</ele>
						<time>2023-01-27T16:28:47Z</time>
					</trkpt>
					<trkpt lat="47.885630" lon="1.777010">
						<ele>108</ele>
						<time>2023-01-27T16:28:57Z</time>
					</trkpt>
					<trkpt lat="47.885300" lon="1.775890">
						<ele>107</ele>
						<time>2023-01-27T16:29:12Z</time>
					</trkpt>
					<trkpt lat="47.884910" lon="1.774860">
						<ele>106</ele>
						<time>2023-01-27T16:29:26Z</time>
					</trkpt>
					<trkpt lat="47.884460" lon="1.773470">
						<ele>108</ele>
						<time>2023-01-27T16:29:44Z</time>
					</trkpt>
					<trkpt lat="47.884040" lon="1.772650">
						<ele>109</ele>
						<time>2023-01-27T16:29:57Z</time>
					</trkpt>
					<trkpt lat="47.884160" lon="1.772400">
						<ele>109</ele>
						<time>2023-01-27T16:30:00Z</time>
					</trkpt>
					<trkpt lat="47.885010" lon="1.771490">
						<ele>109</ele>
						<time>2023-01-27T16:30:19Z</time>
					</trkpt>
					<trkpt lat="47.885240" lon="1.771300">
						<ele>110</ele>
						<time>2023-01-27T16:30:24Z</time>
					</trkpt>
					<trkpt lat="47.885480" lon="1.770870">
						<ele>111</ele>
						<time>2023-01-27T16:30:30Z</time>
					</trkpt>
					<trkpt lat="47.887020" lon="1.768510">
						<ele>114</ele>
						<time>2023-01-27T16:31:10Z</time>
					</trkpt>
					<trkpt lat="47.888000" lon="1.767420">
						<ele>110</ele>
						<time>2023-01-27T16:31:31Z</time>
					</trkpt>
					<trkpt lat="47.888490" lon="1.767010">
						<ele>109</ele>
						<time>2023-01-27T16:31:41Z</time>
					</trkpt>
					<trkpt lat="47.889040" lon="1.766620">
						<ele>109</ele>
						<time>2023-01-27T16:31:52Z</time>
					</trkpt>
					<trkpt lat="47.889790" lon="1.766220">
						<ele>109</ele>
						<time>2023-01-27T16:32:06Z</time>
					</trkpt>
					<trkpt lat="47.890500" lon="1.765770">
						<ele>108</ele>
						<time>2023-01-27T16:32:20Z</time>
					</trkpt>
					<trkpt lat="47.892130" lon="1.764560">
						<ele>109</ele>
						<time>2023-01-27T16:32:53Z</time>
					</trkpt>
					<trkpt lat="47.892950" lon="1.764070">
						<ele>107</ele>
						<time>2023-01-27T16:33:08Z</time>
					</trkpt>
					<trkpt lat="47.893640" lon="1.763810">
						<ele>105</ele>
						<time>2023-01-27T16:33:21Z</time>
					</trkpt>
					<trkpt lat="47.894000" lon="1.763640">
						<ele>105</ele>
						<time>2023-01-27T16:33:28Z</time>
					</trkpt>
					<trkpt lat="47.894290" lon="1.763230">
						<ele>105</ele>
						<time>2023-01-27T16:33:35Z</time>
					</trkpt>
					<trkpt lat="47.894460" lon="1.762830">
						<ele>105</ele>
						<time>2023-01-27T16:33:40Z</time>
					</trkpt>
					<trkpt lat="47.894500" lon="1.762350">
						<ele>106</ele>
						<time>2023-01-27T16:33:46Z</time>
					</trkpt>
					<trkpt lat="47.894380" lon="1.761560">
						<ele>107</ele>
						<time>2023-01-27T16:33:56Z</time>
					</trkpt>
					<trkpt lat="47.893400" lon="1.757530">
						<ele>106</ele>
						<time>2023-01-27T16:34:47Z</time>
					</trkpt>
					<trkpt lat="47.892000" lon="1.751930">
						<ele>97</ele>
						<time>2023-01-27T16:35:58Z</time>
					</trkpt>
					<trkpt lat="47.891680" lon="1.750510">
						<ele>98</ele>
						<time>2023-01-27T16:36:16Z</time>
					</trkpt>
					<trkpt lat="47.891530" lon="1.749650">
						<ele>99</ele>
						<time>2023-01-27T16:36:27Z</time>
					</trkpt>
					<trkpt lat="47.891530" lon="1.748920">
						<ele>100</ele>
						<time>2023-01-27T16:36:35Z</time>
					</trkpt>
					<trkpt lat="47.891830" lon="1.744990">
						<ele>111</ele>
						<time>2023-01-27T16:37:23Z</time>
					</trkpt>
					<trkpt lat="47.892200" lon="1.741650">
						<ele>114</ele>
						<time>2023-01-27T16:38:03Z</time>
					</trkpt>
					<trkpt lat="47.892190" lon="1.741000">
						<ele>113</ele>
						<time>2023-01-27T16:38:11Z</time>
					</trkpt>
					<trkpt lat="47.892020" lon="1.740300">
						<ele>112</ele>
						<time>2023-01-27T16:38:20Z</time>
					</trkpt>
					<trkpt lat="47.892160" lon="1.736750">
						<ele>113</ele>
						<time>2023-01-27T16:39:02Z</time>
					</trkpt>
					<trkpt lat="47.892200" lon="1.734480">
						<ele>115</ele>
						<time>2023-01-27T16:39:29Z</time>
					</trkpt>
					<trkpt lat="47.891680" lon="1.729610">
						<ele>111</ele>
						<time>2023-01-27T16:40:28Z</time>
					</trkpt>
					<trkpt lat="47.891700" lon="1.728490">
						<ele>111</ele>
						<time>2023-01-27T16:40:41Z</time>
					</trkpt>
					<trkpt lat="47.891670" lon="1.727570">
						<ele>112</ele>
						<time>2023-01-27T16:40:52Z</time>
					</trkpt>
					<trkpt lat="47.891580" lon="1.726220">
						<ele>110</ele>
						<time>2023-01-27T16:41:09Z</time>
					</trkpt>
					<trkpt lat="47.891640" lon="1.725490">
						<ele>108</ele>
						<time>2023-01-27T16:41:17Z</time>
					</trkpt>
					<trkpt lat="47.891660" lon="1.724590">
						<ele>107</ele>
						<time>2023-01-27T16:41:28Z</time>
					</trkpt>
					<trkpt lat="47.891640" lon="1.723390">
						<ele>107</ele>
						<time>2023-01-27T16:41:42Z</time>
					</trkpt>
					<trkpt lat="47.891470" lon="1.718150">
						<ele>107</ele>
						<time>2023-01-27T16:42:45Z</time>
					</trkpt>
					<trkpt lat="47.891680" lon="1.716410">
						<ele>105</ele>
						<time>2023-01-27T16:43:06Z</time>
					</trkpt>
					<trkpt lat="47.891730" lon="1.715700">
						<ele>105</ele>
						<time>2023-01-27T16:43:15Z</time>
					</trkpt>
					<trkpt lat="47.891730" lon="1.714850">
						<ele>105</ele>
						<time>2023-01-27T16:43:25Z</time>
					</trkpt>
					<trkpt lat="47.891910" lon="1.711220">
						<ele>106</ele>
						<time>2023-01-27T16:44:08Z</time>
					</trkpt>
					<trkpt lat="47.891890" lon="1.710040">
						<ele>106</ele>
						<time>2023-01-27T16:44:22Z</time>
					</trkpt>
					<trkpt lat="47.891800" lon="1.709200">
						<ele>106</ele>
						<time>2023-01-27T16:44:32Z</time>
					</trkpt>
					<trkpt lat="47.891660" lon="1.708800">
						<ele>108</ele>
						<time>2023-01-27T16:44:38Z</time>
					</trkpt>
					<trkpt lat="47.891310" lon="1.708410">
						<ele>108</ele>
						<time>2023-01-27T16:44:46Z</time>
					</trkpt>
					<trkpt lat="47.891560" lon="1.707290">
						<ele>109</ele>
						<time>2023-01-27T16:45:00Z</time>
					</trkpt>
					<trkpt lat="47.891740" lon="1.706610">
						<ele>107</ele>
						<time>2023-01-27T16:45:08Z</time>
					</trkpt>
					<trkpt lat="47.892160" lon="1.705600">
						<ele>108</ele>
						<time>2023-01-27T16:45:23Z</time>
					</trkpt>
					<trkpt lat="47.892360" lon="1.704590">
						<ele>107</ele>
						<time>2023-01-27T16:45:35Z</time>
					</trkpt>
					<trkpt lat="47.892980" lon="1.702810">
						<ele>106</ele>
						<time>2023-01-27T16:45:59Z</time>
					</trkpt>
					<trkpt lat="47.893680" lon="1.699530">
						<ele>106</ele>
						<time>2023-01-27T16:46:40Z</time>
					</trkpt>
					<trkpt lat="47.894040" lon="1.698280">
						<ele>107</ele>
						<time>2023-01-27T16:46:56Z</time>
					</trkpt>
					<trkpt lat="47.894040" lon="1.697830">
						<ele>107</ele>
						<time>2023-01-27T16:47:02Z</time>
					</trkpt>
					<trkpt lat="47.893810" lon="1.696840">
						<ele>106</ele>
						<time>2023-01-27T16:47:14Z</time>
					</trkpt>
					<trkpt lat="47.892940" lon="1.693690">
						<ele>104</ele>
						<time>2023-01-27T16:47:55Z</time>
					</trkpt>
					<trkpt lat="47.892890" lon="1.693240">
						<ele>104</ele>
						<time>2023-01-27T16:48:00Z</time>
					</trkpt>
					<trkpt lat="47.893010" lon="1.692550">
						<ele>103</ele>
						<time>2023-01-27T16:48:09Z</time>
					</trkpt>
					<trkpt lat="47.892710" lon="1.690340">
						<ele>102</ele>
						<time>2023-01-27T16:48:36Z</time>
					</trkpt>
					<trkpt lat="47.892730" lon="1.689780">
						<ele>103</ele>
						<time>2023-01-27T16:48:42Z</time>
					</trkpt>
					<trkpt lat="47.892940" lon="1.689160">
						<ele>104</ele>
						<time>2023-01-27T16:48:51Z</time>
					</trkpt>
					<trkpt lat="47.893470" lon="1.688000">
						<ele>106</ele>
						<time>2023-01-27T16:49:07Z</time>
					</trkpt>
					<trkpt lat="47.893540" lon="1.687510">
						<ele>106</ele>
						<time>2023-01-27T16:49:13Z</time>
					</trkpt>
					<trkpt lat="47.893470" lon="1.687060">
						<ele>106</ele>
						<time>2023-01-27T16:49:19Z</time>
					</trkpt>
					<trkpt lat="47.892530" lon="1.684720">
						<ele>107</ele>
						<time>2023-01-27T16:49:51Z</time>
					</trkpt>
					<trkpt lat="47.892500" lon="1.684250">
						<ele>107</ele>
						<time>2023-01-27T16:49:57Z</time>
					</trkpt>
					<trkpt lat="47.892720" lon="1.683600">
						<ele>105</ele>
						<time>2023-01-27T16:50:06Z</time>
					</trkpt>
					<trkpt lat="47.893080" lon="1.681870">
						<ele>103</ele>
						<time>2023-01-27T16:50:27Z</time>
					</trkpt>
					<trkpt lat="47.894650" lon="1.678030">
						<ele>104</ele>
						<time>2023-01-27T16:51:21Z</time>
					</trkpt>
					<trkpt lat="47.895970" lon="1.672300">
						<ele>109</ele>
						<time>2023-01-27T16:52:33Z</time>
					</trkpt>
					<trkpt lat="47.896140" lon="1.671820">
						<ele>109</ele>
						<time>2023-01-27T16:52:40Z</time>
					</trkpt>
					<trkpt lat="47.896560" lon="1.670970">
						<ele>108</ele>
						<time>2023-01-27T16:52:52Z</time>
					</trkpt>
					<trkpt lat="47.896880" lon="1.669890">
						<ele>109</ele>
						<time>2023-01-27T16:53:06Z</time>
					</trkpt>
					<trkpt lat="47.898450" lon="1.665880">
						<ele>111</ele>
						<time>2023-01-27T16:54:02Z</time>
					</trkpt>
					<trkpt lat="47.898460" lon="1.665190">
						<ele>111</ele>
						<time>2023-01-27T16:54:10Z</time>
					</trkpt>
					<trkpt lat="47.898070" lon="1.663180">
						<ele>109</ele>
						<time>2023-01-27T16:54:35Z</time>
					</trkpt>
					<trkpt lat="47.900750" lon="1.656310">
						<ele>105</ele>
						<time>2023-01-27T16:56:10Z</time>
					</trkpt>
					<trkpt lat="47.901220" lon="1.652860">
						<ele>108</ele>
						<time>2023-01-27T16:56:52Z</time>
					</trkpt>
					<trkpt lat="47.901380" lon="1.652530">
						<ele>108</ele>
						<time>2023-01-27T16:56:57Z</time>
					</trkpt>
					<trkpt lat="47.901340" lon="1.652520">
						<ele>108</ele>
						<time>2023-01-27T16:56:57Z</time>
					</trkpt>
					<trkpt lat="47.901340" lon="1.652370">
						<ele>108</ele>
						<time>2023-01-27T16:56:59Z</time>
					</trkpt>
					<trkpt lat="47.901300" lon="1.652260">
						<ele>107</ele>
						<time>2023-01-27T16:57:01Z</time>
					</trkpt>
					<trkpt lat="47.900680" lon="1.651220">
						<ele>105</ele>
						<time>2023-01-27T16:57:17Z</time>
					</trkpt>
					<trkpt lat="47.900580" lon="1.651000">
						<ele>105</ele>
						<time>2023-01-27T16:57:21Z</time>
					</trkpt>
					<trkpt lat="47.900530" lon="1.650870">
						<ele>105</ele>
						<time>2023-01-27T16:57:22Z</time>
					</trkpt>
					<trkpt lat="47.900390" lon="1.650100">
						<ele>106</ele>
						<time>2023-01-27T16:57:32Z</time>
					</trkpt>
					<trkpt lat="47.900310" lon="1.649810">
						<ele>106</ele>
						<time>2023-01-27T16:57:36Z</time>
					</trkpt>
					<trkpt lat="47.899710" lon="1.648710">
						<ele>107</ele>
						<time>2023-01-27T16:57:52Z</time>
					</trkpt>
					<trkpt lat="47.899470" lon="1.648160">
						<ele>106</ele>
						<time>2023-01-27T16:58:00Z</time>
					</trkpt>
					<trkpt lat="47.899350" lon="1.647770">
						<ele>106</ele>
						<time>2023-01-27T16:58:05Z</time>
					</trkpt>
					<trkpt lat="47.898970" lon="1.646180">
						<ele>107</ele>
						<time>2023-01-27T16:58:26Z</time>
					</trkpt>
					<trkpt lat="47.898840" lon="1.645540">
						<ele>108</ele>
						<time>2023-01-27T16:58:34Z</time>
					</trkpt>
					<trkpt lat="47.898370" lon="1.643770">
						<ele>110</ele>
						<time>2023-01-27T16:58:56Z</time>
					</trkpt>
					<trkpt lat="47.898320" lon="1.643490">
						<ele>109</ele>
						<time>2023-01-27T16:59:00Z</time>
					</trkpt>
					<trkpt lat="47.898370" lon="1.640480">
						<ele>109</ele>
						<time>2023-01-27T16:59:36Z</time>
					</trkpt>
					<trkpt lat="47.898350" lon="1.640170">
						<ele>110</ele>
						<time>2023-01-27T16:59:39Z</time>
					</trkpt>
					<trkpt lat="47.898280" lon="1.639870">
						<ele>110</ele>
						<time>2023-01-27T16:59:43Z</time>
					</trkpt>
					<trkpt lat="47.897260" lon="1.638330">
						<ele>111</ele>
						<time>2023-01-27T17:00:09Z</time>
					</trkpt>
					<trkpt lat="47.895500" lon="1.635520">
						<ele>111</ele>
						<time>2023-01-27T17:00:55Z</time>
					</trkpt>
					<trkpt lat="47.894020" lon="1.633040">
						<ele>110</ele>
						<time>2023-01-27T17:01:34Z</time>
					</trkpt>
					<trkpt lat="47.893520" lon="1.631910">
						<ele>111</ele>
						<time>2023-01-27T17:01:51Z</time>
					</trkpt>
					<trkpt lat="47.893350" lon="1.631380">
						<ele>112</ele>
						<time>2023-01-27T17:01:58Z</time>
					</trkpt>
					<trkpt lat="47.893020" lon="1.629980">
						<ele>116</ele>
						<time>2023-01-27T17:02:15Z</time>
					</trkpt>
					<trkpt lat="47.892900" lon="1.629630">
						<ele>117</ele>
						<time>2023-01-27T17:02:20Z</time>
					</trkpt>
					<trkpt lat="47.892730" lon="1.629460">
						<ele>118</ele>
						<time>2023-01-27T17:02:24Z</time>
					</trkpt>
					<trkpt lat="47.892060" lon="1.629250">
						<ele>119</ele>
						<time>2023-01-27T17:02:36Z</time>
					</trkpt>
					<trkpt lat="47.891930" lon="1.629170">
						<ele>120</ele>
						<time>2023-01-27T17:02:38Z</time>
					</trkpt>
					<trkpt lat="47.891800" lon="1.629050">
						<ele>120</ele>
						<time>2023-01-27T17:02:41Z</time>
					</trkpt>
					<trkpt lat="47.891850" lon="1.628980">
						<ele>120</ele>
						<time>2023-01-27T17:02:42Z</time>
					</trkpt>
					<trkpt lat="47.892150" lon="1.628770">
						<ele>119</ele>
						<time>2023-01-27T17:02:48Z</time>
					</trkpt>
					<trkpt lat="47.892170" lon="1.628730">
						<ele>119</ele>
						<time>2023-01-27T17:02:49Z</time>
					</trkpt>
					<trkpt lat="47.892150" lon="1.628580">
						<ele>119</ele>
						<time>2023-01-27T17:02:51Z</time>
					</trkpt>
					<trkpt lat="47.892170" lon="1.628630">
						<ele>119</ele>
						<time>2023-01-27T17:02:51Z</time>
					</trkpt>
					<trkpt lat="47.892150" lon="1.628770">
						<ele>119</ele>
						<time>2023-01-27T17:02:53Z</time>
					</trkpt>
					<trkpt lat="47.891850" lon="1.628980">
						<ele>120</ele>
						<time>2023-01-27T17:02:59Z</time>
					</trkpt>
					<trkpt lat="47.891800" lon="1.629050">
						<ele>120</ele>
						<time>2023-01-27T17:03:00Z</time>
					</trkpt>
					<trkpt lat="47.891560" lon="1.628800">
						<ele>120</ele>
						<time>2023-01-27T17:03:05Z</time>
					</trkpt>
					<trkpt lat="47.891400" lon="1.628530">
						<ele>121</ele>
						<time>2023-01-27T17:03:10Z</time>
					</trkpt>
					<trkpt lat="47.891320" lon="1.628340">
						<ele>121</ele>
						<time>2023-01-27T17:03:12Z</time>
					</trkpt>
					<trkpt lat="47.891310" lon="1.628110">
						<ele>121</ele>
						<time>2023-01-27T17:03:15Z</time>
					</trkpt>
					<trkpt lat="47.891620" lon="1.627110">
						<ele>118</ele>
						<time>2023-01-27T17:03:28Z</time>
					</trkpt>
					<trkpt lat="47.892270" lon="1.624710">
						<ele>116</ele>
						<time>2023-01-27T17:03:59Z</time>
					</trkpt>
					<trkpt lat="47.892360" lon="1.624480">
						<ele>117</ele>
						<time>2023-01-27T17:04:02Z</time>
					</trkpt>
					<trkpt lat="47.892470" lon="1.624290">
						<ele>117</ele>
						<time>2023-01-27T17:04:05Z</time>
					</trkpt>
					<trkpt lat="47.893480" lon="1.622950">
						<ele>117</ele>
						<time>2023-01-27T17:04:29Z</time>
					</trkpt>
					<trkpt lat="47.893920" lon="1.622490">
						<ele>117</ele>
						<time>2023-01-27T17:04:39Z</time>
					</trkpt>
					<trkpt lat="47.894090" lon="1.622370">
						<ele>117</ele>
						<time>2023-01-27T17:04:42Z</time>
					</trkpt>
					<trkpt lat="47.896070" lon="1.621490">
						<ele>118</ele>
						<time>2023-01-27T17:05:19Z</time>
					</trkpt>
					<trkpt lat="47.896710" lon="1.621160">
						<ele>119</ele>
						<time>2023-01-27T17:05:31Z</time>
					</trkpt>
					<trkpt lat="47.897810" lon="1.620420">
						<ele>120</ele>
						<time>2023-01-27T17:05:52Z</time>
					</trkpt>
					<trkpt lat="47.903400" lon="1.616540">
						<ele>116</ele>
						<time>2023-01-27T17:07:42Z</time>
					</trkpt>
					<trkpt lat="47.905280" lon="1.615020">
						<ele>114</ele>
						<time>2023-01-27T17:08:20Z</time>
					</trkpt>
					<trkpt lat="47.910240" lon="1.610910">
						<ele>116</ele>
						<time>2023-01-27T17:10:01Z</time>
					</trkpt>
					<trkpt lat="47.910620" lon="1.610460">
						<ele>116</ele>
						<time>2023-01-27T17:10:10Z</time>
					</trkpt>
					<trkpt lat="47.918940" lon="1.597180">
						<ele>122</ele>
						<time>2023-01-27T17:13:47Z</time>
					</trkpt>
					<trkpt lat="47.919350" lon="1.596660">
						<ele>123</ele>
						<time>2023-01-27T17:13:56Z</time>
					</trkpt>
					<trkpt lat="47.919570" lon="1.596110">
						<ele>122</ele>
						<time>2023-01-27T17:14:04Z</time>
					</trkpt>
					<trkpt lat="47.920730" lon="1.592150">
						<ele>115</ele>
						<time>2023-01-27T17:14:55Z</time>
					</trkpt>
					<trkpt lat="47.923080" lon="1.586920">
						<ele>118</ele>
						<time>2023-01-27T17:16:10Z</time>
					</trkpt>
					<trkpt lat="47.923560" lon="1.586080">
						<ele>119</ele>
						<time>2023-01-27T17:16:24Z</time>
					</trkpt>
					<trkpt lat="47.925910" lon="1.583180">
						<ele>123</ele>
						<time>2023-01-27T17:17:18Z</time>
					</trkpt>
					<trkpt lat="47.926280" lon="1.582760">
						<ele>122</ele>
						<time>2023-01-27T17:17:26Z</time>
					</trkpt>
					<trkpt lat="47.927450" lon="1.581900">
						<ele>122</ele>
						<time>2023-01-27T17:17:49Z</time>
					</trkpt>
					<trkpt lat="47.927560" lon="1.581790">
						<ele>122</ele>
						<time>2023-01-27T17:17:52Z</time>
					</trkpt>
					<trkpt lat="47.927680" lon="1.581620">
						<ele>122</ele>
						<time>2023-01-27T17:17:55Z</time>
					</trkpt>
					<trkpt lat="47.927870" lon="1.581260">
						<ele>122</ele>
						<time>2023-01-27T17:18:00Z</time>
					</trkpt>
					<trkpt lat="47.928250" lon="1.580340">
						<ele>122</ele>
						<time>2023-01-27T17:18:13Z</time>
					</trkpt>
					<trkpt lat="47.928420" lon="1.580040">
						<ele>122</ele>
						<time>2023-01-27T17:18:18Z</time>
					</trkpt>
					<trkpt lat="47.928450" lon="1.579750">
						<ele>122</ele>
						<time>2023-01-27T17:18:21Z</time>
					</trkpt>
					<trkpt lat="47.928910" lon="1.577690">
						<ele>120</ele>
						<time>2023-01-27T17:18:47Z</time>
					</trkpt>
					<trkpt lat="47.929090" lon="1.577610">
						<ele>119</ele>
						<time>2023-01-27T17:18:50Z</time>
					</trkpt>
					<trkpt lat="47.929260" lon="1.577580">
						<ele>119</ele>
						<time>2023-01-27T17:18:53Z</time>
					</trkpt>
					<trkpt lat="47.929480" lon="1.577650">
						<ele>119</ele>
						<time>2023-01-27T17:18:57Z</time>
					</trkpt>
					<trkpt lat="47.929680" lon="1.577770">
						<ele>119</ele>
						<time>2023-01-27T17:19:01Z</time>
					</trkpt>
					<trkpt lat="47.930230" lon="1.578170">
						<ele>121</ele>
						<time>2023-01-27T17:19:12Z</time>
					</trkpt>
					<trkpt lat="47.931630" lon="1.579220">
						<ele>122</ele>
						<time>2023-01-27T17:19:40Z</time>
					</trkpt>
					<trkpt lat="47.934410" lon="1.580250">
						<ele>120</ele>
						<time>2023-01-27T17:20:31Z</time>
					</trkpt>
					<trkpt lat="47.935960" lon="1.580850">
						<ele>121</ele>
						<time>2023-01-27T17:20:59Z</time>
					</trkpt>
					<trkpt lat="47.936230" lon="1.580850">
						<ele>121</ele>
						<time>2023-01-27T17:21:04Z</time>
					</trkpt>
					<trkpt lat="47.936660" lon="1.580660">
						<ele>120</ele>
						<time>2023-01-27T17:21:12Z</time>
					</trkpt>
					<trkpt lat="47.939610" lon="1.578830">
						<ele>121</ele>
						<time>2023-01-27T17:22:09Z</time>
					</trkpt>
					<trkpt lat="47.939880" lon="1.578500">
						<ele>122</ele>
						<time>2023-01-27T17:22:15Z</time>
					</trkpt>
					<trkpt lat="47.941980" lon="1.572860">
						<ele>123</ele>
						<time>2023-01-27T17:23:32Z</time>
					</trkpt>
					<trkpt lat="47.942710" lon="1.571550">
						<ele>123</ele>
						<time>2023-01-27T17:23:53Z</time>
					</trkpt>
					<trkpt lat="47.942910" lon="1.571250">
						<ele>122</ele>
						<time>2023-01-27T17:23:58Z</time>
					</trkpt>
					<trkpt lat="47.943190" lon="1.570960">
						<ele>122</ele>
						<time>2023-01-27T17:24:04Z</time>
					</trkpt>
					<trkpt lat="47.945100" lon="1.570540">
						<ele>120</ele>
						<time>2023-01-27T17:24:38Z</time>
					</trkpt>
					<trkpt lat="47.945490" lon="1.570240">
						<ele>121</ele>
						<time>2023-01-27T17:24:46Z</time>
					</trkpt>
					<trkpt lat="47.948530" lon="1.567490">
						<ele>123</ele>
						<time>2023-01-27T17:25:49Z</time>
					</trkpt>
					<trkpt lat="47.948720" lon="1.567130">
						<ele>123</ele>
						<time>2023-01-27T17:25:54Z</time>
					</trkpt>
					<trkpt lat="47.949560" lon="1.564460">
						<ele>123</ele>
						<time>2023-01-27T17:26:30Z</time>
					</trkpt>
					<trkpt lat="47.949920" lon="1.563870">
						<ele>123</ele>
						<time>2023-01-27T17:26:39Z</time>
					</trkpt>
					<trkpt lat="47.954370" lon="1.557610">
						<ele>122</ele>
						<time>2023-01-27T17:28:28Z</time>
					</trkpt>
					<trkpt lat="47.955310" lon="1.556400">
						<ele>121</ele>
						<time>2023-01-27T17:28:50Z</time>
					</trkpt>
					<trkpt lat="47.958880" lon="1.551150">
						<ele>123</ele>
						<time>2023-01-27T17:30:19Z</time>
					</trkpt>
					<trkpt lat="47.961240" lon="1.547760">
						<ele>122</ele>
						<time>2023-01-27T17:31:17Z</time>
					</trkpt>
					<trkpt lat="47.961810" lon="1.546890">
						<ele>120</ele>
						<time>2023-01-27T17:31:32Z</time>
					</trkpt>
					<trkpt lat="47.962400" lon="1.546480">
						<ele>120</ele>
						<time>2023-01-27T17:31:44Z</time>
					</trkpt>
					<trkpt lat="47.964340" lon="1.545270">
						<ele>123</ele>
						<time>2023-01-27T17:32:21Z</time>
					</trkpt>
					<trkpt lat="47.964940" lon="1.544740">
						<ele>123</ele>
						<time>2023-01-27T17:32:33Z</time>
					</trkpt>
					<trkpt lat="47.965810" lon="1.543850">
						<ele>123</ele>
						<time>2023-01-27T17:32:52Z</time>
					</trkpt>
					<trkpt lat="47.967880" lon="1.542080">
						<ele>123</ele>
						<time>2023-01-27T17:33:35Z</time>
					</trkpt>
					<trkpt lat="47.969040" lon="1.540620">
						<ele>124</ele>
						<time>2023-01-27T17:34:02Z</time>
					</trkpt>
					<trkpt lat="47.969120" lon="1.540980">
						<ele>124</ele>
						<time>2023-01-27T17:34:06Z</time>
					</trkpt>
					<trkpt lat="47.970180" lon="1.543210">
						<ele>124</ele>
						<time>2023-01-27T17:34:39Z</time>
					</trkpt>
					<trkpt lat="47.976590" lon="1.557010">
						<ele>123</ele>
						<time>2023-01-27T17:37:59Z</time>
					</trkpt>
					<trkpt lat="47.976860" lon="1.557510">
						<ele>123</ele>
						<time>2023-01-27T17:38:06Z</time>
					</trkpt>
					<trkpt lat="47.977160" lon="1.557920">
						<ele>122</ele>
						<time>2023-01-27T17:38:14Z</time>
					</trkpt>
					<trkpt lat="47.977480" lon="1.558190">
						<ele>122</ele>
						<time>2023-01-27T17:38:20Z</time>
					</trkpt>
					<trkpt lat="47.977740" lon="1.558350">
						<ele>121</ele>
						<time>2023-01-27T17:38:25Z</time>
					</trkpt>
					<trkpt lat="47.978150" lon="1.558420">
						<ele>121</ele>
						<time>2023-01-27T17:38:32Z</time>
					</trkpt>
					<trkpt lat="47.978440" lon="1.558400">
						<ele>120</ele>
						<time>2023-01-27T17:38:38Z</time>
					</trkpt>
					<trkpt lat="47.978640" lon="1.558340">
						<ele>121</ele>
						<time>2023-01-27T17:38:41Z</time>
					</trkpt>
					<trkpt lat="47.998800" lon="1.549080">
						<ele>123</ele>
						<time>2023-01-27T17:44:57Z</time>
					</trkpt>
					<trkpt lat="48.001650" lon="1.547810">
						<ele>125</ele>
						<time>2023-01-27T17:45:49Z</time>
					</trkpt>
					<trkpt lat="48.002120" lon="1.547660">
						<ele>126</ele>
						<time>2023-01-27T17:45:58Z</time>
					</trkpt>
					<trkpt lat="48.004820" lon="1.547070">
						<ele>128</ele>
						<time>2023-01-27T17:46:47Z</time>
					</trkpt>
					<trkpt lat="48.005070" lon="1.547200">
						<ele>128</ele>
						<time>2023-01-27T17:46:51Z</time>
					</trkpt>
					<trkpt lat="48.007810" lon="1.549330">
						<ele>128</ele>
						<time>2023-01-27T17:47:46Z</time>
					</trkpt>
					<trkpt lat="48.008370" lon="1.549790">
						<ele>129</ele>
						<time>2023-01-27T17:47:58Z</time>
					</trkpt>
					<trkpt lat="48.008590" lon="1.549940">
						<ele>129</ele>
						<time>2023-01-27T17:48:02Z</time>
					</trkpt>
					<trkpt lat="48.008920" lon="1.550120">
						<ele>130</ele>
						<time>2023-01-27T17:48:08Z</time>
					</trkpt>
					<trkpt lat="48.009650" lon="1.550450">
						<ele>129</ele>
						<time>2023-01-27T17:48:22Z</time>
					</trkpt>
					<trkpt lat="48.009410" lon="1.551260">
						<ele>129</ele>
						<time>2023-01-27T17:48:32Z</time>
					</trkpt>
					<trkpt lat="48.009520" lon="1.551420">
						<ele>129</ele>
						<time>2023-01-27T17:48:35Z</time>
					</trkpt>
					<trkpt lat="48.010110" lon="1.552010">
						<ele>129</ele>
						<time>2023-01-27T17:48:48Z</time>
					</trkpt>
					<trkpt lat="48.010570" lon="1.552330">
						<ele>129</ele>
						<time>2023-01-27T17:48:57Z</time>
					</trkpt>
					<trkpt lat="48.010940" lon="1.552830">
						<ele>129</ele>
						<time>2023-01-27T17:49:06Z</time>
					</trkpt>
					<trkpt lat="48.011050" lon="1.552930">
						<ele>129</ele>
						<time>2023-01-27T17:49:08Z</time>
					</trkpt>
					<trkpt lat="48.011620" lon="1.553330">
						<ele>128</ele>
						<time>2023-01-27T17:49:19Z</time>
					</trkpt>
					<trkpt lat="48.013460" lon="1.554770">
						<ele>126</ele>
						<time>2023-01-27T17:49:56Z</time>
					</trkpt>
					<trkpt lat="48.013980" lon="1.555130">
						<ele>125</ele>
						<time>2023-01-27T17:50:06Z</time>
					</trkpt>
					<trkpt lat="48.015690" lon="1.555980">
						<ele>125</ele>
						<time>2023-01-27T17:50:38Z</time>
					</trkpt>
					<trkpt lat="48.020280" lon="1.557920">
						<ele>127</ele>
						<time>2023-01-27T17:52:03Z</time>
					</trkpt>
					<trkpt lat="48.024470" lon="1.560210">
						<ele>124</ele>
						<time>2023-01-27T17:53:22Z</time>
					</trkpt>
					<trkpt lat="48.026650" lon="1.561450">
						<ele>128</ele>
						<time>2023-01-27T17:54:04Z</time>
					</trkpt>
					<trkpt lat="48.027620" lon="1.561920">
						<ele>128</ele>
						<time>2023-01-27T17:54:22Z</time>
					</trkpt>
					<trkpt lat="48.028270" lon="1.562180">
						<ele>128</ele>
						<time>2023-01-27T17:54:34Z</time>
					</trkpt>
					<trkpt lat="48.029030" lon="1.562630">
						<ele>129</ele>
						<time>2023-01-27T17:54:49Z</time>
					</trkpt>
					<trkpt lat="48.029510" lon="1.563000">
						<ele>129</ele>
						<time>2023-01-27T17:54:58Z</time>
					</trkpt>
					<trkpt lat="48.030310" lon="1.563550">
						<ele>131</ele>
						<time>2023-01-27T17:55:14Z</time>
					</trkpt>
					<trkpt lat="48.030450" lon="1.563600">
						<ele>131</ele>
						<time>2023-01-27T17:55:16Z</time>
					</trkpt>
					<trkpt lat="48.030560" lon="1.563610">
						<ele>131</ele>
						<time>2023-01-27T17:55:18Z</time>
					</trkpt>
					<trkpt lat="48.031010" lon="1.563540">
						<ele>131</ele>
						<time>2023-01-27T17:55:26Z</time>
					</trkpt>
					<trkpt lat="48.031160" lon="1.563450">
						<ele>131</ele>
						<time>2023-01-27T17:55:29Z</time>
					</trkpt>
					<trkpt lat="48.031550" lon="1.562770">
						<ele>131</ele>
						<time>2023-01-27T17:55:40Z</time>
					</trkpt>
					<trkpt lat="48.031790" lon="1.563100">
						<ele>130</ele>
						<time>2023-01-27T17:55:46Z</time>
					</trkpt>
					<trkpt lat="48.032290" lon="1.563990">
						<ele>129</ele>
						<time>2023-01-27T17:56:00Z</time>
					</trkpt>
					<trkpt lat="48.032400" lon="1.564110">
						<ele>129</ele>
						<time>2023-01-27T17:56:02Z</time>
					</trkpt>
					<trkpt lat="48.032890" lon="1.564440">
						<ele>129</ele>
						<time>2023-01-27T17:56:12Z</time>
					</trkpt>
					<trkpt lat="48.035420" lon="1.565800">
						<ele>131</ele>
						<time>2023-01-27T17:56:59Z</time>
					</trkpt>
					<trkpt lat="48.036050" lon="1.566280">
						<ele>132</ele>
						<time>2023-01-27T17:57:12Z</time>
					</trkpt>
					<trkpt lat="48.036870" lon="1.567030">
						<ele>132</ele>
						<time>2023-01-27T17:57:29Z</time>
					</trkpt>
					<trkpt lat="48.038280" lon="1.568250">
						<ele>131</ele>
						<time>2023-01-27T17:57:58Z</time>
					</trkpt>
					<trkpt lat="48.039460" lon="1.569170">
						<ele>130</ele>
						<time>2023-01-27T17:58:22Z</time>
					</trkpt>
					<trkpt lat="48.040200" lon="1.569670">
						<ele>131</ele>
						<time>2023-01-27T17:58:36Z</time>
					</trkpt>
					<trkpt lat="48.043610" lon="1.571490">
						<ele>131</ele>
						<time>2023-01-27T17:59:41Z</time>
					</trkpt>
					<trkpt lat="48.043760" lon="1.571530">
						<ele>132</ele>
						<time>2023-01-27T17:59:43Z</time>
					</trkpt>
					<trkpt lat="48.044300" lon="1.571590">
						<ele>133</ele>
						<time>2023-01-27T17:59:53Z</time>
					</trkpt>
					<trkpt lat="48.044680" lon="1.571710">
						<ele>133</ele>
						<time>2023-01-27T18:00:00Z</time>
					</trkpt>
					<trkpt lat="48.044890" lon="1.571830">
						<ele>133</ele>
						<time>2023-01-27T18:00:04Z</time>
					</trkpt>
					<trkpt lat="48.045890" lon="1.572420">
						<ele>132</ele>
						<time>2023-01-27T18:00:23Z</time>
					</trkpt>
					<trkpt lat="48.052340" lon="1.576680">
						<ele>132</ele>
						<time>2023-01-27T18:02:29Z</time>
					</trkpt>
					<trkpt lat="48.054530" lon="1.578360">
						<ele>131</ele>
						<time>2023-01-27T18:03:12Z</time>
					</trkpt>
					<trkpt lat="48.056080" lon="1.580350">
						<ele>134</ele>
						<time>2023-01-27T18:03:49Z</time>
					</trkpt>
					<trkpt lat="48.058870" lon="1.582490">
						<ele>129</ele>
						<time>2023-01-27T18:04:44Z</time>
					</trkpt>
					<trkpt lat="48.059390" lon="1.582760">
						<ele>130</ele>
						<time>2023-01-27T18:04:54Z</time>
					</trkpt>
					<trkpt lat="48.060030" lon="1.582970">
						<ele>131</ele>
						<time>2023-01-27T18:05:06Z</time>
					</trkpt>
					<trkpt lat="48.060230" lon="1.583010">
						<ele>130</ele>
						<time>2023-01-27T18:05:09Z</time>
					</trkpt>
					<trkpt lat="48.060320" lon="1.582960">
						<ele>130</ele>
						<time>2023-01-27T18:05:11Z</time>
					</trkpt>
					<trkpt lat="48.060360" lon="1.582910">
						<ele>130</ele>
						<time>2023-01-27T18:05:12Z</time>
					</trkpt>
					<trkpt lat="48.060500" lon="1.583080">
						<ele>129</ele>
						<time>2023-01-27T18:05:15Z</time>
					</trkpt>
					<trkpt lat="48.060700" lon="1.583130">
						<ele>128</ele>
						<time>2023-01-27T18:05:19Z</time>
					</trkpt>
					<trkpt lat="48.061550" lon="1.583190">
						<ele>124</ele>
						<time>2023-01-27T18:05:34Z</time>
					</trkpt>
					<trkpt lat="48.062930" lon="1.583340">
						<ele>122</ele>
						<time>2023-01-27T18:05:59Z</time>
					</trkpt>
					<trkpt lat="48.063040" lon="1.583450">
						<ele>122</ele>
						<time>2023-01-27T18:06:01Z</time>
					</trkpt>
					<trkpt lat="48.063160" lon="1.583790">
						<ele>122</ele>
						<time>2023-01-27T18:06:06Z</time>
					</trkpt>
					<trkpt lat="48.063260" lon="1.583960">
						<ele>122</ele>
						<time>2023-01-27T18:06:08Z</time>
					</trkpt>
					<trkpt lat="48.063770" lon="1.587000">
						<ele>121</ele>
						<time>2023-01-27T18:06:46Z</time>
					</trkpt>
					<trkpt lat="48.063820" lon="1.587720">
						<ele>122</ele>
						<time>2023-01-27T18:06:54Z</time>
					</trkpt>
					<trkpt lat="48.063840" lon="1.588640">
						<ele>123</ele>
						<time>2023-01-27T18:07:05Z</time>
					</trkpt>
					<trkpt lat="48.064400" lon="1.591930">
						<ele>118</ele>
						<time>2023-01-27T18:07:46Z</time>
					</trkpt>
					<trkpt lat="48.064410" lon="1.600090">
						<ele>123</ele>
						<time>2023-01-27T18:09:23Z</time>
					</trkpt>
					<trkpt lat="48.064240" lon="1.604270">
						<ele>127</ele>
						<time>2023-01-27T18:10:12Z</time>
					</trkpt>
					<trkpt lat="48.064240" lon="1.605640">
						<ele>126</ele>
						<time>2023-01-27T18:10:29Z</time>
					</trkpt>
					<trkpt lat="48.064550" lon="1.616580">
						<ele>120</ele>
						<time>2023-01-27T18:12:39Z</time>
					</trkpt>
					<trkpt lat="48.064550" lon="1.617220">
						<ele>120</ele>
						<time>2023-01-27T18:12:46Z</time>
					</trkpt>
					<trkpt lat="48.064520" lon="1.617400">
						<ele>120</ele>
						<time>2023-01-27T18:12:49Z</time>
					</trkpt>
					<trkpt lat="48.064450" lon="1.617600">
						<ele>120</ele>
						<time>2023-01-27T18:12:51Z</time>
					</trkpt>
					<trkpt lat="48.064310" lon="1.617840">
						<ele>121</ele>
						<time>2023-01-27T18:12:55Z</time>
					</trkpt>
					<trkpt lat="48.063780" lon="1.618460">
						<ele>123</ele>
						<time>2023-01-27T18:13:07Z</time>
					</trkpt>
					<trkpt lat="48.063560" lon="1.618770">
						<ele>123</ele>
						<time>2023-01-27T18:13:12Z</time>
					</trkpt>
					<trkpt lat="48.063360" lon="1.619150">
						<ele>123</ele>
						<time>2023-01-27T18:13:18Z</time>
					</trkpt>
					<trkpt lat="48.063150" lon="1.619480">
						<ele>122</ele>
						<time>2023-01-27T18:13:24Z</time>
					</trkpt>
					<trkpt lat="48.062900" lon="1.619700">
						<ele>122</ele>
						<time>2023-01-27T18:13:29Z</time>
					</trkpt>
					<trkpt lat="48.057840" lon="1.623600">
						<ele>118</ele>
						<time>2023-01-27T18:15:10Z</time>
					</trkpt>
					<trkpt lat="48.057510" lon="1.623640">
						<ele>118</ele>
						<time>2023-01-27T18:15:16Z</time>
					</trkpt>
					<trkpt lat="48.056850" lon="1.624060">
						<ele>121</ele>
						<time>2023-01-27T18:15:29Z</time>
					</trkpt>
					<trkpt lat="48.056020" lon="1.625010">
						<ele>119</ele>
						<time>2023-01-27T18:15:47Z</time>
					</trkpt>
					<trkpt lat="48.055440" lon="1.625760">
						<ele>118</ele>
						<time>2023-01-27T18:16:01Z</time>
					</trkpt>
					<trkpt lat="48.055040" lon="1.626760">
						<ele>119</ele>
						<time>2023-01-27T18:16:15Z</time>
					</trkpt>
					<trkpt lat="48.054560" lon="1.628370">
						<ele>120</ele>
						<time>2023-01-27T18:16:36Z</time>
					</trkpt>
					<trkpt lat="48.054350" lon="1.629990">
						<ele>118</ele>
						<time>2023-01-27T18:16:55Z</time>
					</trkpt>
					<trkpt lat="48.053880" lon="1.632100">
						<ele>119</ele>
						<time>2023-01-27T18:17:22Z</time>
					</trkpt>
					<trkpt lat="48.053460" lon="1.633760">
						<ele>119</ele>
						<time>2023-01-27T18:17:43Z</time>
					</trkpt>
					<trkpt lat="48.053090" lon="1.634850">
						<ele>118</ele>
						<time>2023-01-27T18:17:58Z</time>
					</trkpt>
					<trkpt lat="48.052910" lon="1.635310">
						<ele>119</ele>
						<time>2023-01-27T18:18:04Z</time>
					</trkpt>
					<trkpt lat="48.052170" lon="1.636440">
						<ele>120</ele>
						<time>2023-01-27T18:18:23Z</time>
					</trkpt>
					<trkpt lat="48.050520" lon="1.639390">
						<ele>119</ele>
						<time>2023-01-27T18:19:08Z</time>
					</trkpt>
					<trkpt lat="48.049540" lon="1.641460">
						<ele>119</ele>
						<time>2023-01-27T18:19:39Z</time>
					</trkpt>
					<trkpt lat="48.045740" lon="1.649810">
						<ele>117</ele>
						<time>2023-01-27T18:21:39Z</time>
					</trkpt>
					<trkpt lat="48.045180" lon="1.650860">
						<ele>118</ele>
						<time>2023-01-27T18:21:55Z</time>
					</trkpt>
					<trkpt lat="48.044920" lon="1.651270">
						<ele>119</ele>
						<time>2023-01-27T18:22:01Z</time>
					</trkpt>
					<trkpt lat="48.044850" lon="1.651330">
						<ele>119</ele>
						<time>2023-01-27T18:22:03Z</time>
					</trkpt>
					<trkpt lat="48.044770" lon="1.651330">
						<ele>119</ele>
						<time>2023-01-27T18:22:04Z</time>
					</trkpt>
					<trkpt lat="48.044710" lon="1.651490">
						<ele>119</ele>
						<time>2023-01-27T18:22:06Z</time>
					</trkpt>
					<trkpt lat="48.044550" lon="1.651780">
						<ele>118</ele>
						<time>2023-01-27T18:22:11Z</time>
					</trkpt>
					<trkpt lat="48.043850" lon="1.653460">
						<ele>117</ele>
						<time>2023-01-27T18:22:34Z</time>
					</trkpt>
					<trkpt lat="48.043820" lon="1.653640">
						<ele>116</ele>
						<time>2023-01-27T18:22:37Z</time>
					</trkpt>
					<trkpt lat="48.043830" lon="1.653710">
						<ele>116</ele>
						<time>2023-01-27T18:22:38Z</time>
					</trkpt>
					<trkpt lat="48.043920" lon="1.653940">
						<ele>115</ele>
						<time>2023-01-27T18:22:41Z</time>
					</trkpt>
					<trkpt lat="48.044070" lon="1.654180">
						<ele>114</ele>
						<time>2023-01-27T18:22:45Z</time>
					</trkpt>
					<trkpt lat="48.044720" lon="1.654990">
						<ele>115</ele>
						<time>2023-01-27T18:23:00Z</time>
					</trkpt>
					<trkpt lat="48.045150" lon="1.655430">
						<ele>115</ele>
						<time>2023-01-27T18:23:09Z</time>
					</trkpt>
					<trkpt lat="48.046010" lon="1.656140">
						<ele>117</ele>
						<time>2023-01-27T18:23:26Z</time>
					</trkpt>
					<trkpt lat="48.046090" lon="1.656240">
						<ele>117</ele>
						<time>2023-01-27T18:23:28Z</time>
					</trkpt>
					<trkpt lat="48.046150" lon="1.656410">
						<ele>118</ele>
						<time>2023-01-27T18:23:31Z</time>
					</trkpt>
					<trkpt lat="48.046140" lon="1.656610">
						<ele>118</ele>
						<time>2023-01-27T18:23:33Z</time>
					</trkpt>
					<trkpt lat="48.045320" lon="1.659040">
						<ele>117</ele>
						<time>2023-01-27T18:24:05Z</time>
					</trkpt>
					<trkpt lat="48.043860" lon="1.662530">
						<ele>116</ele>
						<time>2023-01-27T18:24:54Z</time>
					</trkpt>
					<trkpt lat="48.043690" lon="1.663250">
						<ele>115</ele>
						<time>2023-01-27T18:25:03Z</time>
					</trkpt>
					<trkpt lat="48.043630" lon="1.663770">
						<ele>115</ele>
						<time>2023-01-27T18:25:10Z</time>
					</trkpt>
					<trkpt lat="48.043620" lon="1.664200">
						<ele>115</ele>
						<time>2023-01-27T18:25:15Z</time>
					</trkpt>
					<trkpt lat="48.043650" lon="1.664840">
						<ele>118</ele>
						<time>2023-01-27T18:25:22Z</time>
					</trkpt>
					<trkpt lat="48.043600" lon="1.665330">
						<ele>119</ele>
						<time>2023-01-27T18:25:28Z</time>
					</trkpt>
					<trkpt lat="48.043220" lon="1.666550">
						<ele>121</ele>
						<time>2023-01-27T18:25:44Z</time>
					</trkpt>
					<trkpt lat="48.043020" lon="1.667360">
						<ele>119</ele>
						<time>2023-01-27T18:25:55Z</time>
					</trkpt>
					<trkpt lat="48.042630" lon="1.670100">
						<ele>119</ele>
						<time>2023-01-27T18:26:28Z</time>
					</trkpt>
					<trkpt lat="48.042560" lon="1.671200">
						<ele>120</ele>
						<time>2023-01-27T18:26:41Z</time>
					</trkpt>
					<trkpt lat="48.042590" lon="1.671660">
						<ele>121</ele>
						<time>2023-01-27T18:26:47Z</time>
					</trkpt>
					<trkpt lat="48.042710" lon="1.672390">
						<ele>122</ele>
						<time>2023-01-27T18:26:56Z</time>
					</trkpt>
					<trkpt lat="48.042810" lon="1.672750">
						<ele>123</ele>
						<time>2023-01-27T18:27:00Z</time>
					</trkpt>
					<trkpt lat="48.044200" lon="1.676950">
						<ele>124</ele>
						<time>2023-01-27T18:27:56Z</time>
					</trkpt>
					<trkpt lat="48.044560" lon="1.677910">
						<ele>124</ele>
						<time>2023-01-27T18:28:09Z</time>
					</trkpt>
					<trkpt lat="48.046720" lon="1.684950">
						<ele>119</ele>
						<time>2023-01-27T18:29:41Z</time>
					</trkpt>
					<trkpt lat="48.046770" lon="1.685550">
						<ele>120</ele>
						<time>2023-01-27T18:29:48Z</time>
					</trkpt>
					<trkpt lat="48.046590" lon="1.686180">
						<ele>120</ele>
						<time>2023-01-27T18:29:56Z</time>
					</trkpt>
					<trkpt lat="48.046130" lon="1.687280">
						<ele>120</ele>
						<time>2023-01-27T18:30:12Z</time>
					</trkpt>
					<trkpt lat="48.046070" lon="1.687480">
						<ele>120</ele>
						<time>2023-01-27T18:30:15Z</time>
					</trkpt>
					<trkpt lat="48.046010" lon="1.687810">
						<ele>119</ele>
						<time>2023-01-27T18:30:19Z</time>
					</trkpt>
					<trkpt lat="48.046010" lon="1.688130">
						<ele>119</ele>
						<time>2023-01-27T18:30:22Z</time>
					</trkpt>
					<trkpt lat="48.046460" lon="1.691000">
						<ele>121</ele>
						<time>2023-01-27T18:30:57Z</time>
					</trkpt>
					<trkpt lat="48.046520" lon="1.691250">
						<ele>121</ele>
						<time>2023-01-27T18:31:01Z</time>
					</trkpt>
					<trkpt lat="48.046870" lon="1.692020">
						<ele>122</ele>
						<time>2023-01-27T18:31:12Z</time>
					</trkpt>
					<trkpt lat="48.046540" lon="1.692410">
						<ele>122</ele>
						<time>2023-01-27T18:31:19Z</time>
					</trkpt>
					<trkpt lat="48.045660" lon="1.693820">
						<ele>119</ele>
						<time>2023-01-27T18:31:42Z</time>
					</trkpt>
					<trkpt lat="48.045310" lon="1.694610">
						<ele>119</ele>
						<time>2023-01-27T18:31:53Z</time>
					</trkpt>
					<trkpt lat="48.045150" lon="1.695070">
						<ele>119</ele>
						<time>2023-01-27T18:32:00Z</time>
					</trkpt>
					<trkpt lat="48.044930" lon="1.696040">
						<ele>120</ele>
						<time>2023-01-27T18:32:12Z</time>
					</trkpt>
					<trkpt lat="48.044960" lon="1.696290">
						<ele>120</ele>
						<time>2023-01-27T18:32:15Z</time>
					</trkpt>
					<trkpt lat="48.045300" lon="1.697030">
						<ele>120</ele>
						<time>2023-01-27T18:32:25Z</time>
					</trkpt>
					<trkpt lat="48.044580" lon="1.697920">
						<ele>121</ele>
						<time>2023-01-27T18:32:42Z</time>
					</trkpt>
					<trkpt lat="48.044490" lon="1.698000">
						<ele>121</ele>
						<time>2023-01-27T18:32:44Z</time>
					</trkpt>
					<trkpt lat="48.044130" lon="1.698170">
						<ele>122</ele>
						<time>2023-01-27T18:32:51Z</time>
					</trkpt>
					<trkpt lat="48.043280" lon="1.698330">
						<ele>122</ele>
						<time>2023-01-27T18:33:06Z</time>
					</trkpt>
					<trkpt lat="48.042920" lon="1.698510">
						<ele>122</ele>
						<time>2023-01-27T18:33:13Z</time>
					</trkpt>
					<trkpt lat="48.042190" lon="1.699030">
						<ele>122</ele>
						<time>2023-01-27T18:33:27Z</time>
					</trkpt>
					<trkpt lat="48.037300" lon="1.702710">
						<ele>125</ele>
						<time>2023-01-27T18:35:04Z</time>
					</trkpt>
					<trkpt lat="48.033580" lon="1.705570">
						<ele>124</ele>
						<time>2023-01-27T18:36:19Z</time>
					</trkpt>
					<trkpt lat="48.033040" lon="1.705890">
						<ele>124</ele>
						<time>2023-01-27T18:36:29Z</time>
					</trkpt>
					<trkpt lat="48.032540" lon="1.706120">
						<ele>124</ele>
						<time>2023-01-27T18:36:38Z</time>
					</trkpt>
					<trkpt lat="48.031870" lon="1.706320">
						<ele>123</ele>
						<time>2023-01-27T18:36:51Z</time>
					</trkpt>
					<trkpt lat="48.031460" lon="1.706400">
						<ele>123</ele>
						<time>2023-01-27T18:36:58Z</time>
					</trkpt>
					<trkpt lat="48.030920" lon="1.706460">
						<ele>121</ele>
						<time>2023-01-27T18:37:08Z</time>
					</trkpt>
					<trkpt lat="48.030310" lon="1.706400">
						<ele>120</ele>
						<time>2023-01-27T18:37:19Z</time>
					</trkpt>
					<trkpt lat="48.030240" lon="1.706800">
						<ele>120</ele>
						<time>2023-01-27T18:37:23Z</time>
					</trkpt>
					<trkpt lat="48.029460" lon="1.707400">
						<ele>121</ele>
						<time>2023-01-27T18:37:39Z</time>
					</trkpt>
					<trkpt lat="48.028690" lon="1.708130">
						<ele>120</ele>
						<time>2023-01-27T18:37:55Z</time>
					</trkpt>
					<trkpt lat="48.027810" lon="1.708910">
						<ele>120</ele>
						<time>2023-01-27T18:38:13Z</time>
					</trkpt>
					<trkpt lat="48.027200" lon="1.709390">
						<ele>119</ele>
						<time>2023-01-27T18:38:26Z</time>
					</trkpt>
					<trkpt lat="48.025220" lon="1.711550">
						<ele>118</ele>
						<time>2023-01-27T18:39:09Z</time>
					</trkpt>
					<trkpt lat="48.024900" lon="1.712090">
						<ele>118</ele>
						<time>2023-01-27T18:39:18Z</time>
					</trkpt>
					<trkpt lat="48.024800" lon="1.712330">
						<ele>118</ele>
						<time>2023-01-27T18:39:21Z</time>
					</trkpt>
					<trkpt lat="48.024660" lon="1.712820">
						<ele>117</ele>
						<time>2023-01-27T18:39:28Z</time>
					</trkpt>
					<trkpt lat="48.024590" lon="1.713260">
						<ele>117</ele>
						<time>2023-01-27T18:39:33Z</time>
					</trkpt>
					<trkpt lat="48.024500" lon="1.714940">
						<ele>119</ele>
						<time>2023-01-27T18:39:53Z</time>
					</trkpt>
					<trkpt lat="48.024350" lon="1.715660">
						<ele>118</ele>
						<time>2023-01-27T18:40:02Z</time>
					</trkpt>
					<trkpt lat="48.024170" lon="1.716100">
						<ele>118</ele>
						<time>2023-01-27T18:40:08Z</time>
					</trkpt>
					<trkpt lat="48.022810" lon="1.718520">
						<ele>116</ele>
						<time>2023-01-27T18:40:46Z</time>
					</trkpt>
					<trkpt lat="48.022670" lon="1.718960">
						<ele>116</ele>
						<time>2023-01-27T18:40:52Z</time>
					</trkpt>
					<trkpt lat="48.021510" lon="1.724140">
						<ele>120</ele>
						<time>2023-01-27T18:41:57Z</time>
					</trkpt>
					<trkpt lat="48.021230" lon="1.724830">
						<ele>119</ele>
						<time>2023-01-27T18:42:06Z</time>
					</trkpt>
					<trkpt lat="48.020160" lon="1.726940">
						<ele>117</ele>
						<time>2023-01-27T18:42:38Z</time>
					</trkpt>
					<trkpt lat="48.019360" lon="1.728200">
						<ele>118</ele>
						<time>2023-01-27T18:42:58Z</time>
					</trkpt>
					<trkpt lat="48.019030" lon="1.728580">
						<ele>117</ele>
						<time>2023-01-27T18:43:06Z</time>
					</trkpt>
					<trkpt lat="48.017730" lon="1.729650">
						<ele>116</ele>
						<time>2023-01-27T18:43:32Z</time>
					</trkpt>
					<trkpt lat="48.016400" lon="1.730920">
						<ele>117</ele>
						<time>2023-01-27T18:44:00Z</time>
					</trkpt>
					<trkpt lat="48.015190" lon="1.731880">
						<ele>116</ele>
						<time>2023-01-27T18:44:25Z</time>
					</trkpt>
					<trkpt lat="48.014790" lon="1.732310">
						<ele>116</ele>
						<time>2023-01-27T18:44:33Z</time>
					</trkpt>
					<trkpt lat="48.013660" lon="1.733650">
						<ele>116</ele>
						<time>2023-01-27T18:44:59Z</time>
					</trkpt>
					<trkpt lat="48.012330" lon="1.735690">
						<ele>116</ele>
						<time>2023-01-27T18:45:33Z</time>
					</trkpt>
					<trkpt lat="48.012210" lon="1.735840">
						<ele>116</ele>
						<time>2023-01-27T18:45:36Z</time>
					</trkpt>
					<trkpt lat="48.011990" lon="1.736220">
						<ele>116</ele>
						<time>2023-01-27T18:45:42Z</time>
					</trkpt>
					<trkpt lat="48.011520" lon="1.737440">
						<ele>116</ele>
						<time>2023-01-27T18:45:59Z</time>
					</trkpt>
					<trkpt lat="48.011190" lon="1.738060">
						<ele>117</ele>
						<time>2023-01-27T18:46:08Z</time>
					</trkpt>
					<trkpt lat="48.010880" lon="1.738570">
						<ele>117</ele>
						<time>2023-01-27T18:46:16Z</time>
					</trkpt>
					<trkpt lat="48.010600" lon="1.738950">
						<ele>117</ele>
						<time>2023-01-27T18:46:23Z</time>
					</trkpt>
					<trkpt lat="48.010050" lon="1.739300">
						<ele>118</ele>
						<time>2023-01-27T18:46:34Z</time>
					</trkpt>
					<trkpt lat="48.009990" lon="1.739230">
						<ele>118</ele>
						<time>2023-01-27T18:46:35Z</time>
					</trkpt>
					<trkpt lat="48.009920" lon="1.739290">
						<ele>118</ele>
						<time>2023-01-27T18:46:36Z</time>
					</trkpt>
					<trkpt lat="48.009920" lon="1.739370">
						<ele>118</ele>
						<time>2023-01-27T18:46:37Z</time>
					</trkpt>
					<trkpt lat="48.009970" lon="1.739430">
						<ele>118</ele>
						<time>2023-01-27T18:46:38Z</time>
					</trkpt>
					<trkpt lat="48.010120" lon="1.739950">
						<ele>117</ele>
						<time>2023-01-27T18:46:45Z</time>
					</trkpt>
					<trkpt lat="48.010310" lon="1.740430">
						<ele>117</ele>
						<time>2023-01-27T18:46:52Z</time>
					</trkpt>
					<trkpt lat="48.010630" lon="1.741110">
						<ele>117</ele>
						<time>2023-01-27T18:47:02Z</time>
					</trkpt>
					<trkpt lat="48.010660" lon="1.741220">
						<ele>117</ele>
						<time>2023-01-27T18:47:03Z</time>
					</trkpt>
					<trkpt lat="48.010650" lon="1.741300">
						<ele>117</ele>
						<time>2023-01-27T18:47:04Z</time>
					</trkpt>
					<trkpt lat="48.008980" lon="1.743920">
						<ele>116</ele>
						<time>2023-01-27T18:47:47Z</time>
					</trkpt>
					<trkpt lat="48.008620" lon="1.744590">
						<ele>116</ele>
						<time>2023-01-27T18:47:57Z</time>
					</trkpt>
					<trkpt lat="48.007200" lon="1.748300">
						<ele>118</ele>
						<time>2023-01-27T18:48:48Z</time>
					</trkpt>
					<trkpt lat="48.007010" lon="1.748920">
						<ele>118</ele>
						<time>2023-01-27T18:48:56Z</time>
					</trkpt>
					<trkpt lat="48.006950" lon="1.749220">
						<ele>117</ele>
						<time>2023-01-27T18:49:00Z</time>
					</trkpt>
					<trkpt lat="48.006300" lon="1.755550">
						<ele>117</ele>
						<time>2023-01-27T18:50:16Z</time>
					</trkpt>
					<trkpt lat="48.006010" lon="1.757700">
						<ele>117</ele>
						<time>2023-01-27T18:50:42Z</time>
					</trkpt>
					<trkpt lat="48.005820" lon="1.759650">
						<ele>117</ele>
						<time>2023-01-27T18:51:06Z</time>
					</trkpt>
					<trkpt lat="48.005790" lon="1.760370">
						<ele>117</ele>
						<time>2023-01-27T18:51:14Z</time>
					</trkpt>
					<trkpt lat="48.005910" lon="1.761790">
						<ele>116</ele>
						<time>2023-01-27T18:51:32Z</time>
					</trkpt>
					<trkpt lat="48.005920" lon="1.762580">
						<ele>117</ele>
						<time>2023-01-27T18:51:41Z</time>
					</trkpt>
					<trkpt lat="48.005530" lon="1.764960">
						<ele>117</ele>
						<time>2023-01-27T18:52:10Z</time>
					</trkpt>
					<trkpt lat="48.005250" lon="1.766480">
						<ele>117</ele>
						<time>2023-01-27T18:52:29Z</time>
					</trkpt>
					<trkpt lat="48.005340" lon="1.766580">
						<ele>117</ele>
						<time>2023-01-27T18:52:31Z</time>
					</trkpt>
					<trkpt lat="48.005330" lon="1.766880">
						<ele>117</ele>
						<time>2023-01-27T18:52:34Z</time>
					</trkpt>
					<trkpt lat="48.005270" lon="1.767100">
						<ele>117</ele>
						<time>2023-01-27T18:52:37Z</time>
					</trkpt>
					<trkpt lat="48.004750" lon="1.768190">
						<ele>116</ele>
						<time>2023-01-27T18:52:53Z</time>
					</trkpt>
					<trkpt lat="48.003530" lon="1.771530">
						<ele>117</ele>
						<time>2023-01-27T18:53:39Z</time>
					</trkpt>
					<trkpt lat="48.002840" lon="1.773510">
						<ele>119</ele>
						<time>2023-01-27T18:54:05Z</time>
					</trkpt>
					<trkpt lat="48.002740" lon="1.773840">
						<ele>120</ele>
						<time>2023-01-27T18:54:09Z</time>
					</trkpt>
					<trkpt lat="48.002690" lon="1.774240">
						<ele>121</ele>
						<time>2023-01-27T18:54:14Z</time>
					</trkpt>
					<trkpt lat="48.002660" lon="1.775570">
						<ele>124</ele>
						<time>2023-01-27T18:54:30Z</time>
					</trkpt>
					<trkpt lat="48.002650" lon="1.775680">
						<ele>124</ele>
						<time>2023-01-27T18:54:31Z</time>
					</trkpt>
					<trkpt lat="48.002590" lon="1.775830">
						<ele>124</ele>
						<time>2023-01-27T18:54:33Z</time>
					</trkpt>
					<trkpt lat="48.001890" lon="1.776720">
						<ele>123</ele>
						<time>2023-01-27T18:54:50Z</time>
					</trkpt>
					<trkpt lat="48.001730" lon="1.776970">
						<ele>123</ele>
						<time>2023-01-27T18:54:54Z</time>
					</trkpt>
					<trkpt lat="48.001260" lon="1.777510">
						<ele>124</ele>
						<time>2023-01-27T18:55:05Z</time>
					</trkpt>
					<trkpt lat="48.001080" lon="1.777810">
						<ele>124</ele>
						<time>2023-01-27T18:55:09Z</time>
					</trkpt>
					<trkpt lat="48.000770" lon="1.778440">
						<ele>124</ele>
						<time>2023-01-27T18:55:19Z</time>
					</trkpt>
					<trkpt lat="48.000560" lon="1.778780">
						<ele>124</ele>
						<time>2023-01-27T18:55:24Z</time>
					</trkpt>
					<trkpt lat="48.000390" lon="1.778920">
						<ele>124</ele>
						<time>2023-01-27T18:55:28Z</time>
					</trkpt>
					<trkpt lat="47.999270" lon="1.779620">
						<ele>123</ele>
						<time>2023-01-27T18:55:49Z</time>
					</trkpt>
					<trkpt lat="47.999030" lon="1.779830">
						<ele>122</ele>
						<time>2023-01-27T18:55:54Z</time>
					</trkpt>
					<trkpt lat="47.998520" lon="1.780520">
						<ele>123</ele>
						<time>2023-01-27T18:56:06Z</time>
					</trkpt>
					<trkpt lat="47.998180" lon="1.780840">
						<ele>123</ele>
						<time>2023-01-27T18:56:14Z</time>
					</trkpt>
					<trkpt lat="47.997550" lon="1.781290">
						<ele>123</ele>
						<time>2023-01-27T18:56:26Z</time>
					</trkpt>
					<trkpt lat="47.997180" lon="1.781470">
						<ele>124</ele>
						<time>2023-01-27T18:56:33Z</time>
					</trkpt>
					<trkpt lat="47.996980" lon="1.781530">
						<ele>125</ele>
						<time>2023-01-27T18:56:36Z</time>
					</trkpt>
					<trkpt lat="47.996790" lon="1.781570">
						<ele>126</ele>
						<time>2023-01-27T18:56:40Z</time>
					</trkpt>
					<trkpt lat="47.996570" lon="1.781580">
						<ele>126</ele>
						<time>2023-01-27T18:56:44Z</time>
					</trkpt>
					<trkpt lat="47.996340" lon="1.781530">
						<ele>126</ele>
						<time>2023-01-27T18:56:48Z</time>
					</trkpt>
					<trkpt lat="47.995790" lon="1.781150">
						<ele>126</ele>
						<time>2023-01-27T18:56:59Z</time>
					</trkpt>
					<trkpt lat="47.995220" lon="1.780800">
						<ele>125</ele>
						<time>2023-01-27T18:57:10Z</time>
					</trkpt>
					<trkpt lat="47.995010" lon="1.780710">
						<ele>124</ele>
						<time>2023-01-27T18:57:14Z</time>
					</trkpt>
					<trkpt lat="47.994860" lon="1.780680">
						<ele>124</ele>
						<time>2023-01-27T18:57:16Z</time>
					</trkpt>
					<trkpt lat="47.994690" lon="1.780700">
						<ele>124</ele>
						<time>2023-01-27T18:57:19Z</time>
					</trkpt>
					<trkpt lat="47.992630" lon="1.781330">
						<ele>124</ele>
						<time>2023-01-27T18:57:57Z</time>
					</trkpt>
					<trkpt lat="47.992320" lon="1.781480">
						<ele>123</ele>
						<time>2023-01-27T18:58:03Z</time>
					</trkpt>
					<trkpt lat="47.991040" lon="1.782290">
						<ele>121</ele>
						<time>2023-01-27T18:58:27Z</time>
					</trkpt>
					<trkpt lat="47.989500" lon="1.782900">
						<ele>123</ele>
						<time>2023-01-27T18:58:56Z</time>
					</trkpt>
					<trkpt lat="47.989360" lon="1.782990">
						<ele>123</ele>
						<time>2023-01-27T18:58:58Z</time>
					</trkpt>
					<trkpt lat="47.988950" lon="1.783380">
						<ele>124</ele>
						<time>2023-01-27T18:59:07Z</time>
					</trkpt>
					<trkpt lat="47.988750" lon="1.783540">
						<ele>124</ele>
						<time>2023-01-27T18:59:11Z</time>
					</trkpt>
					<trkpt lat="47.988590" lon="1.783640">
						<ele>124</ele>
						<time>2023-01-27T18:59:14Z</time>
					</trkpt>
					<trkpt lat="47.988390" lon="1.783710">
						<ele>124</ele>
						<time>2023-01-27T18:59:18Z</time>
					</trkpt>
					<trkpt lat="47.988050" lon="1.783730">
						<ele>123</ele>
						<time>2023-01-27T18:59:24Z</time>
					</trkpt>
					<trkpt lat="47.987390" lon="1.783670">
						<ele>123</ele>
						<time>2023-01-27T18:59:36Z</time>
					</trkpt>
					<trkpt lat="47.985600" lon="1.783960">
						<ele>124</ele>
						<time>2023-01-27T19:00:08Z</time>
					</trkpt>
					<trkpt lat="47.981850" lon="1.784210">
						<ele>125</ele>
						<time>2023-01-27T19:01:14Z</time>
					</trkpt>
					<trkpt lat="47.981890" lon="1.784350">
						<ele>125</ele>
						<time>2023-01-27T19:01:16Z</time>
					</trkpt>
					<trkpt lat="47.982230" lon="1.784800">
						<ele>126</ele>
						<time>2023-01-27T19:01:24Z</time>
					</trkpt>
					<trkpt lat="47.982660" lon="1.785740">
						<ele>126</ele>
						<time>2023-01-27T19:01:38Z</time>
					</trkpt>
					<trkpt lat="47.983070" lon="1.786800">
						<ele>126</ele>
						<time>2023-01-27T19:01:52Z</time>
					</trkpt>
					<trkpt lat="47.983390" lon="1.787800">
						<ele>126</ele>
						<time>2023-01-27T19:02:06Z</time>
					</trkpt>
					<trkpt lat="47.984230" lon="1.790700">
						<ele>123</ele>
						<time>2023-01-27T19:02:43Z</time>
					</trkpt>
					<trkpt lat="47.984460" lon="1.791270">
						<ele>123</ele>
						<time>2023-01-27T19:02:51Z</time>
					</trkpt>
					<trkpt lat="47.984690" lon="1.791650">
						<ele>123</ele>
						<time>2023-01-27T19:02:57Z</time>
					</trkpt>
					<trkpt lat="47.987460" lon="1.795790">
						<ele>123</ele>
						<time>2023-01-27T19:04:07Z</time>
					</trkpt>
					<trkpt lat="47.988890" lon="1.798010">
						<ele>124</ele>
						<time>2023-01-27T19:04:44Z</time>
					</trkpt>
					<trkpt lat="47.989090" lon="1.798570">
						<ele>124</ele>
						<time>2023-01-27T19:04:51Z</time>
					</trkpt>
					<trkpt lat="47.989150" lon="1.798870">
						<ele>123</ele>
						<time>2023-01-27T19:04:55Z</time>
					</trkpt>
					<trkpt lat="47.989520" lon="1.802660">
						<ele>121</ele>
						<time>2023-01-27T19:05:41Z</time>
					</trkpt>
					<trkpt lat="47.989600" lon="1.803190">
						<ele>121</ele>
						<time>2023-01-27T19:05:47Z</time>
					</trkpt>
					<trkpt lat="47.989770" lon="1.803860">
						<ele>120</ele>
						<time>2023-01-27T19:05:56Z</time>
					</trkpt>
					<trkpt lat="47.989830" lon="1.804190">
						<ele>120</ele>
						<time>2023-01-27T19:06:00Z</time>
					</trkpt>
					<trkpt lat="47.989830" lon="1.804540">
						<ele>120</ele>
						<time>2023-01-27T19:06:04Z</time>
					</trkpt>
					<trkpt lat="47.989810" lon="1.804690">
						<ele>120</ele>
						<time>2023-01-27T19:06:06Z</time>
					</trkpt>
					<trkpt lat="47.989710" lon="1.804990">
						<ele>120</ele>
						<time>2023-01-27T19:06:10Z</time>
					</trkpt>
					<trkpt lat="47.989190" lon="1.805760">
						<ele>120</ele>
						<time>2023-01-27T19:06:23Z</time>
					</trkpt>
					<trkpt lat="47.988890" lon="1.806350">
						<ele>120</ele>
						<time>2023-01-27T19:06:31Z</time>
					</trkpt>
					<trkpt lat="47.988540" lon="1.807270">
						<ele>119</ele>
						<time>2023-01-27T19:06:44Z</time>
					</trkpt>
					<trkpt lat="47.988290" lon="1.808100">
						<ele>118</ele>
						<time>2023-01-27T19:06:55Z</time>
					</trkpt>
					<trkpt lat="47.988260" lon="1.808340">
						<ele>118</ele>
						<time>2023-01-27T19:06:58Z</time>
					</trkpt>
					<trkpt lat="47.988470" lon="1.813450">
						<ele>119</ele>
						<time>2023-01-27T19:07:59Z</time>
					</trkpt>
					<trkpt lat="47.988490" lon="1.814400">
						<ele>119</ele>
						<time>2023-01-27T19:08:10Z</time>
					</trkpt>
					<trkpt lat="47.988430" lon="1.817460">
						<ele>118</ele>
						<time>2023-01-27T19:08:47Z</time>
					</trkpt>
					<trkpt lat="47.988450" lon="1.817950">
						<ele>119</ele>
						<time>2023-01-27T19:08:52Z</time>
					</trkpt>
					<trkpt lat="47.988890" lon="1.821890">
						<ele>119</ele>
						<time>2023-01-27T19:09:40Z</time>
					</trkpt>
					<trkpt lat="47.989150" lon="1.823570">
						<ele>119</ele>
						<time>2023-01-27T19:10:01Z</time>
					</trkpt>
					<trkpt lat="47.989440" lon="1.825090">
						<ele>119</ele>
						<time>2023-01-27T19:10:19Z</time>
					</trkpt>
					<trkpt lat="47.989790" lon="1.827340">
						<ele>123</ele>
						<time>2023-01-27T19:10:47Z</time>
					</trkpt>
					<trkpt lat="47.990270" lon="1.829710">
						<ele>122</ele>
						<time>2023-01-27T19:11:16Z</time>
					</trkpt>
					<trkpt lat="47.990330" lon="1.830710">
						<ele>122</ele>
						<time>2023-01-27T19:11:28Z</time>
					</trkpt>
					<trkpt lat="47.990360" lon="1.831880">
						<ele>122</ele>
						<time>2023-01-27T19:11:42Z</time>
					</trkpt>
					<trkpt lat="47.990210" lon="1.835080">
						<ele>124</ele>
						<time>2023-01-27T19:12:20Z</time>
					</trkpt>
					<trkpt lat="47.990230" lon="1.835330">
						<ele>124</ele>
						<time>2023-01-27T19:12:23Z</time>
					</trkpt>
					<trkpt lat="47.990350" lon="1.835700">
						<ele>124</ele>
						<time>2023-01-27T19:12:28Z</time>
					</trkpt>
					<trkpt lat="47.990380" lon="1.835890">
						<ele>124</ele>
						<time>2023-01-27T19:12:31Z</time>
					</trkpt>
					<trkpt lat="47.990400" lon="1.836170">
						<ele>124</ele>
						<time>2023-01-27T19:12:34Z</time>
					</trkpt>
					<trkpt lat="47.990340" lon="1.836360">
						<ele>124</ele>
						<time>2023-01-27T19:12:37Z</time>
					</trkpt>
					<trkpt lat="47.990310" lon="1.836340">
						<ele>124</ele>
						<time>2023-01-27T19:12:37Z</time>
					</trkpt>
					<trkpt lat="47.989970" lon="1.836460">
						<ele>124</ele>
						<time>2023-01-27T19:12:43Z</time>
					</trkpt>
					<trkpt lat="47.989800" lon="1.836580">
						<ele>124</ele>
						<time>2023-01-27T19:12:47Z</time>
					</trkpt>
					<trkpt lat="47.989700" lon="1.836690">
						<ele>123</ele>
						<time>2023-01-27T19:12:49Z</time>
					</trkpt>
					<trkpt lat="47.989640" lon="1.836840">
						<ele>123</ele>
						<time>2023-01-27T19:12:51Z</time>
					</trkpt>
					<trkpt lat="47.989490" lon="1.836920">
						<ele>122</ele>
						<time>2023-01-27T19:12:54Z</time>
					</trkpt>
					<trkpt lat="47.988280" lon="1.837050">
						<ele>120</ele>
						<time>2023-01-27T19:13:15Z</time>
					</trkpt>
					<trkpt lat="47.987980" lon="1.837120">
						<ele>120</ele>
						<time>2023-01-27T19:13:21Z</time>
					</trkpt>
					<trkpt lat="47.987600" lon="1.837340">
						<ele>119</ele>
						<time>2023-01-27T19:13:28Z</time>
					</trkpt>
					<trkpt lat="47.986950" lon="1.837650">
						<ele>120</ele>
						<time>2023-01-27T19:13:40Z</time>
					</trkpt>
					<trkpt lat="47.984830" lon="1.838640">
						<ele>122</ele>
						<time>2023-01-27T19:14:20Z</time>
					</trkpt>
					<trkpt lat="47.984050" lon="1.838980">
						<ele>124</ele>
						<time>2023-01-27T19:14:34Z</time>
					</trkpt>
					<trkpt lat="47.983770" lon="1.839130">
						<ele>123</ele>
						<time>2023-01-27T19:14:39Z</time>
					</trkpt>
					<trkpt lat="47.982980" lon="1.839710">
						<ele>121</ele>
						<time>2023-01-27T19:14:55Z</time>
					</trkpt>
					<trkpt lat="47.982890" lon="1.839790">
						<ele>122</ele>
						<time>2023-01-27T19:14:57Z</time>
					</trkpt>
					<trkpt lat="47.982850" lon="1.839920">
						<ele>122</ele>
						<time>2023-01-27T19:14:59Z</time>
					</trkpt>
					<trkpt lat="47.982710" lon="1.839950">
						<ele>122</ele>
						<time>2023-01-27T19:15:01Z</time>
					</trkpt>
					<trkpt lat="47.982410" lon="1.840210">
						<ele>122</ele>
						<time>2023-01-27T19:15:07Z</time>
					</trkpt>
					<trkpt lat="47.982230" lon="1.840270">
						<ele>122</ele>
						<time>2023-01-27T19:15:11Z</time>
					</trkpt>
					<trkpt lat="47.982050" lon="1.840290">
						<ele>122</ele>
						<time>2023-01-27T19:15:14Z</time>
					</trkpt>
					<trkpt lat="47.980850" lon="1.840260">
						<ele>123</ele>
						<time>2023-01-27T19:15:35Z</time>
					</trkpt>
					<trkpt lat="47.980620" lon="1.840320">
						<ele>122</ele>
						<time>2023-01-27T19:15:39Z</time>
					</trkpt>
					<trkpt lat="47.978930" lon="1.841140">
						<ele>121</ele>
						<time>2023-01-27T19:16:11Z</time>
					</trkpt>
					<trkpt lat="47.976930" lon="1.841980">
						<ele>120</ele>
						<time>2023-01-27T19:16:48Z</time>
					</trkpt>
					<trkpt lat="47.976770" lon="1.842020">
						<ele>120</ele>
						<time>2023-01-27T19:16:51Z</time>
					</trkpt>
					<trkpt lat="47.976620" lon="1.842000">
						<ele>120</ele>
						<time>2023-01-27T19:16:54Z</time>
					</trkpt>
					<trkpt lat="47.976300" lon="1.841800">
						<ele>121</ele>
						<time>2023-01-27T19:17:00Z</time>
					</trkpt>
					<trkpt lat="47.972650" lon="1.839220">
						<ele>122</ele>
						<time>2023-01-27T19:18:12Z</time>
					</trkpt>
					<trkpt lat="47.972520" lon="1.839160">
						<ele>122</ele>
						<time>2023-01-27T19:18:14Z</time>
					</trkpt>
					<trkpt lat="47.972330" lon="1.839120">
						<ele>122</ele>
						<time>2023-01-27T19:18:17Z</time>
					</trkpt>
					<trkpt lat="47.970050" lon="1.839120">
						<ele>121</ele>
						<time>2023-01-27T19:18:58Z</time>
					</trkpt>
					<trkpt lat="47.969840" lon="1.839020">
						<ele>121</ele>
						<time>2023-01-27T19:19:02Z</time>
					</trkpt>
					<trkpt lat="47.969610" lon="1.838830">
						<ele>121</ele>
						<time>2023-01-27T19:19:07Z</time>
					</trkpt>
					<trkpt lat="47.969500" lon="1.838710">
						<ele>121</ele>
						<time>2023-01-27T19:19:09Z</time>
					</trkpt>
					<trkpt lat="47.969320" lon="1.838430">
						<ele>121</ele>
						<time>2023-01-27T19:19:14Z</time>
					</trkpt>
					<trkpt lat="47.969200" lon="1.838150">
						<ele>121</ele>
						<time>2023-01-27T19:19:18Z</time>
					</trkpt>
					<trkpt lat="47.969120" lon="1.837810">
						<ele>122</ele>
						<time>2023-01-27T19:19:22Z</time>
					</trkpt>
					<trkpt lat="47.968780" lon="1.834070">
						<ele>123</ele>
						<time>2023-01-27T19:20:07Z</time>
					</trkpt>
					<trkpt lat="47.968680" lon="1.833720">
						<ele>123</ele>
						<time>2023-01-27T19:20:11Z</time>
					</trkpt>
					<trkpt lat="47.968550" lon="1.833500">
						<ele>123</ele>
						<time>2023-01-27T19:20:15Z</time>
					</trkpt>
					<trkpt lat="47.968370" lon="1.833270">
						<ele>124</ele>
						<time>2023-01-27T19:20:19Z</time>
					</trkpt>
					<trkpt lat="47.961860" lon="1.827660">
						<ele>125</ele>
						<time>2023-01-27T19:22:33Z</time>
					</trkpt>
					<trkpt lat="47.961530" lon="1.827390">
						<ele>125</ele>
						<time>2023-01-27T19:22:39Z</time>
					</trkpt>
					<trkpt lat="47.961120" lon="1.827180">
						<ele>124</ele>
						<time>2023-01-27T19:22:47Z</time>
					</trkpt>
					<trkpt lat="47.956790" lon="1.826780">
						<ele>122</ele>
						<time>2023-01-27T19:24:04Z</time>
					</trkpt>
					<trkpt lat="47.956560" lon="1.826720">
						<ele>122</ele>
						<time>2023-01-27T19:24:09Z</time>
					</trkpt>
					<trkpt lat="47.956410" lon="1.826650">
						<ele>122</ele>
						<time>2023-01-27T19:24:11Z</time>
					</trkpt>
					<trkpt lat="47.956120" lon="1.826390">
						<ele>124</ele>
						<time>2023-01-27T19:24:17Z</time>
					</trkpt>
					<trkpt lat="47.956010" lon="1.826410">
						<ele>124</ele>
						<time>2023-01-27T19:24:19Z</time>
					</trkpt>
					<trkpt lat="47.954910" lon="1.826940">
						<ele>120</ele>
						<time>2023-01-27T19:24:40Z</time>
					</trkpt>
					<trkpt lat="47.954370" lon="1.827240">
						<ele>120</ele>
						<time>2023-01-27T19:24:50Z</time>
					</trkpt>
					<trkpt lat="47.954230" lon="1.827370">
						<ele>121</ele>
						<time>2023-01-27T19:24:53Z</time>
					</trkpt>
					<trkpt lat="47.953710" lon="1.828000">
						<ele>120</ele>
						<time>2023-01-27T19:25:05Z</time>
					</trkpt>
					<trkpt lat="47.953320" lon="1.828400">
						<ele>118</ele>
						<time>2023-01-27T19:25:13Z</time>
					</trkpt>
					<trkpt lat="47.952950" lon="1.828740">
						<ele>117</ele>
						<time>2023-01-27T19:25:21Z</time>
					</trkpt>
					<trkpt lat="47.952630" lon="1.828960">
						<ele>116</ele>
						<time>2023-01-27T19:25:27Z</time>
					</trkpt>
					<trkpt lat="47.952370" lon="1.829100">
						<ele>116</ele>
						<time>2023-01-27T19:25:32Z</time>
					</trkpt>
					<trkpt lat="47.951310" lon="1.829460">
						<ele>118</ele>
						<time>2023-01-27T19:25:52Z</time>
					</trkpt>
					<trkpt lat="47.949380" lon="1.830360">
						<ele>117</ele>
						<time>2023-01-27T19:26:28Z</time>
					</trkpt>
					<trkpt lat="47.949080" lon="1.830470">
						<ele>117</ele>
						<time>2023-01-27T19:26:33Z</time>
					</trkpt>
					<trkpt lat="47.949070" lon="1.830430">
						<ele>117</ele>
						<time>2023-01-27T19:26:34Z</time>
					</trkpt>
					<trkpt lat="47.949010" lon="1.830390">
						<ele>117</ele>
						<time>2023-01-27T19:26:35Z</time>
					</trkpt>
					<trkpt lat="47.948980" lon="1.830400">
						<ele>117</ele>
						<time>2023-01-27T19:26:35Z</time>
					</trkpt>
					<trkpt lat="47.948940" lon="1.830470">
						<ele>117</ele>
						<time>2023-01-27T19:26:36Z</time>
					</trkpt>
					<trkpt lat="47.948950" lon="1.830570">
						<ele>117</ele>
						<time>2023-01-27T19:26:38Z</time>
					</trkpt>
					<trkpt lat="47.948790" lon="1.829620">
						<ele>117</ele>
						<time>2023-01-27T19:26:49Z</time>
					</trkpt>
					<trkpt lat="47.948750" lon="1.829140">
						<ele>118</ele>
						<time>2023-01-27T19:26:55Z</time>
					</trkpt>
					<trkpt lat="47.947860" lon="1.822990">
						<ele>115</ele>
						<time>2023-01-27T19:28:10Z</time>
					</trkpt>
					<trkpt lat="47.948120" lon="1.821450">
						<ele>113</ele>
						<time>2023-01-27T19:28:29Z</time>
					</trkpt>
					<trkpt lat="47.948110" lon="1.820630">
						<ele>114</ele>
						<time>2023-01-27T19:28:39Z</time>
					</trkpt>
					<trkpt lat="47.946970" lon="1.818320">
						<ele>118</ele>
						<time>2023-01-27T19:29:13Z</time>
					</trkpt>
					<trkpt lat="47.945490" lon="1.819450">
						<ele>117</ele>
						<time>2023-01-27T19:29:43Z</time>
					</trkpt>
					<trkpt lat="47.943840" lon="1.816160">
						<ele>116</ele>
						<time>2023-01-27T19:30:32Z</time>
					</trkpt>
					<trkpt lat="47.943690" lon="1.816020">
						<ele>117</ele>
						<time>2023-01-27T19:30:35Z</time>
					</trkpt>
					<trkpt lat="47.943660" lon="1.815950">
						<ele>117</ele>
						<time>2023-01-27T19:30:36Z</time>
					</trkpt>
					<trkpt lat="47.943580" lon="1.815870">
						<ele>117</ele>
						<time>2023-01-27T19:30:37Z</time>
					</trkpt>
					<trkpt lat="47.943490" lon="1.815860">
						<ele>117</ele>
						<time>2023-01-27T19:30:39Z</time>
					</trkpt>
					<trkpt lat="47.943410" lon="1.815810">
						<ele>117</ele>
						<time>2023-01-27T19:30:41Z</time>
					</trkpt>
					<trkpt lat="47.943180" lon="1.815360">
						<ele>116</ele>
						<time>2023-01-27T19:30:47Z</time>
					</trkpt>
					<trkpt lat="47.942790" lon="1.814450">
						<ele>116</ele>
						<time>2023-01-27T19:31:00Z</time>
					</trkpt>
					<trkpt lat="47.942620" lon="1.813930">
						<ele>115</ele>
						<time>2023-01-27T19:31:07Z</time>
					</trkpt>
					<trkpt lat="47.942570" lon="1.813860">
						<ele>115</ele>
						<time>2023-01-27T19:31:08Z</time>
					</trkpt>
					<trkpt lat="47.942530" lon="1.813850">
						<ele>115</ele>
						<time>2023-01-27T19:31:09Z</time>
					</trkpt>
					<trkpt lat="47.942450" lon="1.813950">
						<ele>115</ele>
						<time>2023-01-27T19:31:11Z</time>
					</trkpt>
					<trkpt lat="47.942290" lon="1.814060">
						<ele>115</ele>
						<time>2023-01-27T19:31:14Z</time>
					</trkpt>
					<trkpt lat="47.942060" lon="1.813570">
						<ele>115</ele>
						<time>2023-01-27T19:31:21Z</time>
					</trkpt>
					</trkseg>
				</trk>
			</gpx>
