<?xml version="1.0" encoding="UTF-8" ?>
<gpx version="1.1" xmlns:xsi="http://www.w3.org/2001/XMLSchema-instance"
    xmlns="http://www.topografix.com/GPX/1/1"
    xsi:schemaLocation="http://www.topografix.com/GPX/1/1 http://www.topografix.com/GPX/1/1/gpx.xsd"
    creator="Openrunner - https://www.openrunner.com" >	<trk>
						<name>A55 - 96km - Verdes</name>
						<trkseg>
					<trkpt lat="47.942050" lon="1.813520">
						<ele>116</ele>
						<time>2021-05-24T13:14:22Z</time>
					</trkpt>
					<trkpt lat="47.942250" lon="1.814060">
						<ele>115</ele>
						<time>2021-05-24T13:14:29Z</time>
					</trkpt>
					<trkpt lat="47.942590" lon="1.813870">
						<ele>115</ele>
						<time>2021-05-24T13:14:36Z</time>
					</trkpt>
					<trkpt lat="47.942780" lon="1.814560">
						<ele>116</ele>
						<time>2021-05-24T13:14:45Z</time>
					</trkpt>
					<trkpt lat="47.943230" lon="1.815800">
						<ele>117</ele>
						<time>2021-05-24T13:15:02Z</time>
					</trkpt>
					<trkpt lat="47.943360" lon="1.816230">
						<ele>117</ele>
						<time>2021-05-24T13:15:07Z</time>
					</trkpt>
					<trkpt lat="47.943760" lon="1.816260">
						<ele>117</ele>
						<time>2021-05-24T13:15:14Z</time>
					</trkpt>
					<trkpt lat="47.943640" lon="1.815870">
						<ele>117</ele>
						<time>2021-05-24T13:15:19Z</time>
					</trkpt>
					<trkpt lat="47.943700" lon="1.815570">
						<ele>117</ele>
						<time>2021-05-24T13:15:23Z</time>
					</trkpt>
					<trkpt lat="47.947930" lon="1.809200">
						<ele>117</ele>
						<time>2021-05-24T13:17:10Z</time>
					</trkpt>
					<trkpt lat="47.949890" lon="1.806110">
						<ele>116</ele>
						<time>2021-05-24T13:18:01Z</time>
					</trkpt>
					<trkpt lat="47.953230" lon="1.800510">
						<ele>117</ele>
						<time>2021-05-24T13:19:30Z</time>
					</trkpt>
					<trkpt lat="47.957500" lon="1.791790">
						<ele>121</ele>
						<time>2021-05-24T13:21:39Z</time>
					</trkpt>
					<trkpt lat="47.958270" lon="1.790810">
						<ele>120</ele>
						<time>2021-05-24T13:21:57Z</time>
					</trkpt>
					<trkpt lat="47.960510" lon="1.789260">
						<ele>120</ele>
						<time>2021-05-24T13:22:41Z</time>
					</trkpt>
					<trkpt lat="47.961680" lon="1.788380">
						<ele>121</ele>
						<time>2021-05-24T13:23:04Z</time>
					</trkpt>
					<trkpt lat="47.963170" lon="1.786210">
						<ele>122</ele>
						<time>2021-05-24T13:23:41Z</time>
					</trkpt>
					<trkpt lat="47.966280" lon="1.781840">
						<ele>121</ele>
						<time>2021-05-24T13:24:57Z</time>
					</trkpt>
					<trkpt lat="47.967010" lon="1.780550">
						<ele>121</ele>
						<time>2021-05-24T13:25:17Z</time>
					</trkpt>
					<trkpt lat="47.967530" lon="1.781890">
						<ele>120</ele>
						<time>2021-05-24T13:25:36Z</time>
					</trkpt>
					<trkpt lat="47.970410" lon="1.788800">
						<ele>120</ele>
						<time>2021-05-24T13:27:13Z</time>
					</trkpt>
					<trkpt lat="47.970940" lon="1.790920">
						<ele>120</ele>
						<time>2021-05-24T13:27:40Z</time>
					</trkpt>
					<trkpt lat="47.971400" lon="1.793370">
						<ele>123</ele>
						<time>2021-05-24T13:28:10Z</time>
					</trkpt>
					<trkpt lat="47.974580" lon="1.791910">
						<ele>120</ele>
						<time>2021-05-24T13:29:09Z</time>
					</trkpt>
					<trkpt lat="47.977840" lon="1.786500">
						<ele>124</ele>
						<time>2021-05-24T13:30:36Z</time>
					</trkpt>
					<trkpt lat="47.979070" lon="1.784990">
						<ele>125</ele>
						<time>2021-05-24T13:31:04Z</time>
					</trkpt>
					<trkpt lat="47.980840" lon="1.783940">
						<ele>126</ele>
						<time>2021-05-24T13:31:38Z</time>
					</trkpt>
					<trkpt lat="47.980990" lon="1.783770">
						<ele>126</ele>
						<time>2021-05-24T13:31:41Z</time>
					</trkpt>
					<trkpt lat="47.981780" lon="1.784200">
						<ele>125</ele>
						<time>2021-05-24T13:31:56Z</time>
					</trkpt>
					<trkpt lat="47.985670" lon="1.784000">
						<ele>124</ele>
						<time>2021-05-24T13:33:06Z</time>
					</trkpt>
					<trkpt lat="47.987080" lon="1.783770">
						<ele>123</ele>
						<time>2021-05-24T13:33:31Z</time>
					</trkpt>
					<trkpt lat="47.987950" lon="1.783750">
						<ele>123</ele>
						<time>2021-05-24T13:33:46Z</time>
					</trkpt>
					<trkpt lat="47.988580" lon="1.783700">
						<ele>124</ele>
						<time>2021-05-24T13:33:57Z</time>
					</trkpt>
					<trkpt lat="47.989260" lon="1.783080">
						<ele>124</ele>
						<time>2021-05-24T13:34:12Z</time>
					</trkpt>
					<trkpt lat="47.990140" lon="1.782720">
						<ele>122</ele>
						<time>2021-05-24T13:34:28Z</time>
					</trkpt>
					<trkpt lat="47.991050" lon="1.782290">
						<ele>121</ele>
						<time>2021-05-24T13:34:45Z</time>
					</trkpt>
					<trkpt lat="47.992430" lon="1.781470">
						<ele>124</ele>
						<time>2021-05-24T13:35:11Z</time>
					</trkpt>
					<trkpt lat="47.994670" lon="1.780720">
						<ele>124</ele>
						<time>2021-05-24T13:35:52Z</time>
					</trkpt>
					<trkpt lat="47.995530" lon="1.781000">
						<ele>125</ele>
						<time>2021-05-24T13:36:08Z</time>
					</trkpt>
					<trkpt lat="47.996400" lon="1.781620">
						<ele>126</ele>
						<time>2021-05-24T13:36:25Z</time>
					</trkpt>
					<trkpt lat="47.997260" lon="1.781540">
						<ele>124</ele>
						<time>2021-05-24T13:36:40Z</time>
					</trkpt>
					<trkpt lat="47.998030" lon="1.780960">
						<ele>123</ele>
						<time>2021-05-24T13:36:56Z</time>
					</trkpt>
					<trkpt lat="47.998660" lon="1.780310">
						<ele>123</ele>
						<time>2021-05-24T13:37:09Z</time>
					</trkpt>
					<trkpt lat="47.999040" lon="1.779780">
						<ele>122</ele>
						<time>2021-05-24T13:37:18Z</time>
					</trkpt>
					<trkpt lat="48.000440" lon="1.778940">
						<ele>124</ele>
						<time>2021-05-24T13:37:45Z</time>
					</trkpt>
					<trkpt lat="48.000890" lon="1.778230">
						<ele>124</ele>
						<time>2021-05-24T13:37:57Z</time>
					</trkpt>
					<trkpt lat="48.001220" lon="1.777520">
						<ele>125</ele>
						<time>2021-05-24T13:38:07Z</time>
					</trkpt>
					<trkpt lat="48.002580" lon="1.775850">
						<ele>124</ele>
						<time>2021-05-24T13:38:39Z</time>
					</trkpt>
					<trkpt lat="48.002710" lon="1.773920">
						<ele>120</ele>
						<time>2021-05-24T13:39:02Z</time>
					</trkpt>
					<trkpt lat="48.004360" lon="1.769180">
						<ele>116</ele>
						<time>2021-05-24T13:40:05Z</time>
					</trkpt>
					<trkpt lat="48.004690" lon="1.768340">
						<ele>116</ele>
						<time>2021-05-24T13:40:17Z</time>
					</trkpt>
					<trkpt lat="48.005230" lon="1.767100">
						<ele>117</ele>
						<time>2021-05-24T13:40:35Z</time>
					</trkpt>
					<trkpt lat="48.005280" lon="1.766300">
						<ele>117</ele>
						<time>2021-05-24T13:40:44Z</time>
					</trkpt>
					<trkpt lat="48.005900" lon="1.762700">
						<ele>117</ele>
						<time>2021-05-24T13:41:28Z</time>
					</trkpt>
					<trkpt lat="48.005790" lon="1.760040">
						<ele>117</ele>
						<time>2021-05-24T13:42:00Z</time>
					</trkpt>
					<trkpt lat="48.006450" lon="1.754260">
						<ele>117</ele>
						<time>2021-05-24T13:43:10Z</time>
					</trkpt>
					<trkpt lat="48.006910" lon="1.749370">
						<ele>117</ele>
						<time>2021-05-24T13:44:09Z</time>
					</trkpt>
					<trkpt lat="48.007140" lon="1.748600">
						<ele>118</ele>
						<time>2021-05-24T13:44:19Z</time>
					</trkpt>
					<trkpt lat="48.008230" lon="1.745530">
						<ele>116</ele>
						<time>2021-05-24T13:45:00Z</time>
					</trkpt>
					<trkpt lat="48.008930" lon="1.744020">
						<ele>116</ele>
						<time>2021-05-24T13:45:22Z</time>
					</trkpt>
					<trkpt lat="48.010620" lon="1.741440">
						<ele>117</ele>
						<time>2021-05-24T13:46:05Z</time>
					</trkpt>
					<trkpt lat="48.010020" lon="1.739300">
						<ele>118</ele>
						<time>2021-05-24T13:46:33Z</time>
					</trkpt>
					<trkpt lat="48.010850" lon="1.738530">
						<ele>117</ele>
						<time>2021-05-24T13:46:50Z</time>
					</trkpt>
					<trkpt lat="48.011490" lon="1.737410">
						<ele>116</ele>
						<time>2021-05-24T13:47:07Z</time>
					</trkpt>
					<trkpt lat="48.011920" lon="1.736340">
						<ele>116</ele>
						<time>2021-05-24T13:47:22Z</time>
					</trkpt>
					<trkpt lat="48.012600" lon="1.735180">
						<ele>116</ele>
						<time>2021-05-24T13:47:41Z</time>
					</trkpt>
					<trkpt lat="48.015020" lon="1.732000">
						<ele>115</ele>
						<time>2021-05-24T13:48:38Z</time>
					</trkpt>
					<trkpt lat="48.016160" lon="1.731320">
						<ele>117</ele>
						<time>2021-05-24T13:49:00Z</time>
					</trkpt>
					<trkpt lat="48.017000" lon="1.730460">
						<ele>117</ele>
						<time>2021-05-24T13:49:18Z</time>
					</trkpt>
					<trkpt lat="48.018860" lon="1.728740">
						<ele>118</ele>
						<time>2021-05-24T13:49:57Z</time>
					</trkpt>
					<trkpt lat="48.019780" lon="1.727670">
						<ele>118</ele>
						<time>2021-05-24T13:50:18Z</time>
					</trkpt>
					<trkpt lat="48.021040" lon="1.725480">
						<ele>118</ele>
						<time>2021-05-24T13:50:52Z</time>
					</trkpt>
					<trkpt lat="48.021450" lon="1.724320">
						<ele>120</ele>
						<time>2021-05-24T13:51:08Z</time>
					</trkpt>
					<trkpt lat="48.022710" lon="1.718830">
						<ele>116</ele>
						<time>2021-05-24T13:52:17Z</time>
					</trkpt>
					<trkpt lat="48.023110" lon="1.717970">
						<ele>116</ele>
						<time>2021-05-24T13:52:29Z</time>
					</trkpt>
					<trkpt lat="48.024230" lon="1.715990">
						<ele>118</ele>
						<time>2021-05-24T13:53:00Z</time>
					</trkpt>
					<trkpt lat="48.024490" lon="1.715180">
						<ele>119</ele>
						<time>2021-05-24T13:53:11Z</time>
					</trkpt>
					<trkpt lat="48.024600" lon="1.713210">
						<ele>117</ele>
						<time>2021-05-24T13:53:34Z</time>
					</trkpt>
					<trkpt lat="48.024860" lon="1.712180">
						<ele>118</ele>
						<time>2021-05-24T13:53:47Z</time>
					</trkpt>
					<trkpt lat="48.025460" lon="1.711400">
						<ele>118</ele>
						<time>2021-05-24T13:54:01Z</time>
					</trkpt>
					<trkpt lat="48.027850" lon="1.708780">
						<ele>120</ele>
						<time>2021-05-24T13:54:54Z</time>
					</trkpt>
					<trkpt lat="48.029220" lon="1.707710">
						<ele>121</ele>
						<time>2021-05-24T13:55:22Z</time>
					</trkpt>
					<trkpt lat="48.030170" lon="1.706850">
						<ele>120</ele>
						<time>2021-05-24T13:55:41Z</time>
					</trkpt>
					<trkpt lat="48.030360" lon="1.706410">
						<ele>120</ele>
						<time>2021-05-24T13:55:48Z</time>
					</trkpt>
					<trkpt lat="48.031100" lon="1.706540">
						<ele>122</ele>
						<time>2021-05-24T13:56:01Z</time>
					</trkpt>
					<trkpt lat="48.032980" lon="1.706020">
						<ele>124</ele>
						<time>2021-05-24T13:56:35Z</time>
					</trkpt>
					<trkpt lat="48.035340" lon="1.704210">
						<ele>124</ele>
						<time>2021-05-24T13:57:22Z</time>
					</trkpt>
					<trkpt lat="48.038550" lon="1.701900">
						<ele>122</ele>
						<time>2021-05-24T13:58:26Z</time>
					</trkpt>
					<trkpt lat="48.041710" lon="1.699320">
						<ele>121</ele>
						<time>2021-05-24T13:59:30Z</time>
					</trkpt>
					<trkpt lat="48.043310" lon="1.698380">
						<ele>122</ele>
						<time>2021-05-24T14:00:00Z</time>
					</trkpt>
					<trkpt lat="48.044380" lon="1.698060">
						<ele>121</ele>
						<time>2021-05-24T14:00:20Z</time>
					</trkpt>
					<trkpt lat="48.045320" lon="1.696980">
						<ele>120</ele>
						<time>2021-05-24T14:00:41Z</time>
					</trkpt>
					<trkpt lat="48.044990" lon="1.696260">
						<ele>120</ele>
						<time>2021-05-24T14:00:51Z</time>
					</trkpt>
					<trkpt lat="48.044980" lon="1.695850">
						<ele>120</ele>
						<time>2021-05-24T14:00:56Z</time>
					</trkpt>
					<trkpt lat="48.045500" lon="1.694150">
						<ele>119</ele>
						<time>2021-05-24T14:01:18Z</time>
					</trkpt>
					<trkpt lat="48.046000" lon="1.693230">
						<ele>120</ele>
						<time>2021-05-24T14:01:32Z</time>
					</trkpt>
					<trkpt lat="48.046840" lon="1.692040">
						<ele>122</ele>
						<time>2021-05-24T14:01:53Z</time>
					</trkpt>
					<trkpt lat="48.046570" lon="1.691290">
						<ele>121</ele>
						<time>2021-05-24T14:02:03Z</time>
					</trkpt>
					<trkpt lat="48.046380" lon="1.690580">
						<ele>121</ele>
						<time>2021-05-24T14:02:12Z</time>
					</trkpt>
					<trkpt lat="48.046010" lon="1.687900">
						<ele>119</ele>
						<time>2021-05-24T14:02:45Z</time>
					</trkpt>
					<trkpt lat="48.046210" lon="1.687060">
						<ele>120</ele>
						<time>2021-05-24T14:02:55Z</time>
					</trkpt>
					<trkpt lat="48.046690" lon="1.685990">
						<ele>120</ele>
						<time>2021-05-24T14:03:11Z</time>
					</trkpt>
					<trkpt lat="48.046770" lon="1.685600">
						<ele>120</ele>
						<time>2021-05-24T14:03:15Z</time>
					</trkpt>
					<trkpt lat="48.046740" lon="1.685230">
						<ele>119</ele>
						<time>2021-05-24T14:03:20Z</time>
					</trkpt>
					<trkpt lat="48.044760" lon="1.678710">
						<ele>124</ele>
						<time>2021-05-24T14:04:45Z</time>
					</trkpt>
					<trkpt lat="48.042750" lon="1.672620">
						<ele>123</ele>
						<time>2021-05-24T14:06:06Z</time>
					</trkpt>
					<trkpt lat="48.042580" lon="1.671500">
						<ele>121</ele>
						<time>2021-05-24T14:06:19Z</time>
					</trkpt>
					<trkpt lat="48.042640" lon="1.670040">
						<ele>119</ele>
						<time>2021-05-24T14:06:37Z</time>
					</trkpt>
					<trkpt lat="48.043040" lon="1.667040">
						<ele>120</ele>
						<time>2021-05-24T14:07:13Z</time>
					</trkpt>
					<trkpt lat="48.043540" lon="1.665560">
						<ele>119</ele>
						<time>2021-05-24T14:07:33Z</time>
					</trkpt>
					<trkpt lat="48.043630" lon="1.664550">
						<ele>117</ele>
						<time>2021-05-24T14:07:45Z</time>
					</trkpt>
					<trkpt lat="48.043570" lon="1.663800">
						<ele>115</ele>
						<time>2021-05-24T14:07:54Z</time>
					</trkpt>
					<trkpt lat="48.043830" lon="1.662530">
						<ele>116</ele>
						<time>2021-05-24T14:08:10Z</time>
					</trkpt>
					<trkpt lat="48.045150" lon="1.659640">
						<ele>117</ele>
						<time>2021-05-24T14:08:52Z</time>
					</trkpt>
					<trkpt lat="48.046150" lon="1.656500">
						<ele>118</ele>
						<time>2021-05-24T14:09:33Z</time>
					</trkpt>
					<trkpt lat="48.046040" lon="1.656160">
						<ele>117</ele>
						<time>2021-05-24T14:09:37Z</time>
					</trkpt>
					<trkpt lat="48.045340" lon="1.655520">
						<ele>115</ele>
						<time>2021-05-24T14:09:52Z</time>
					</trkpt>
					<trkpt lat="48.043990" lon="1.653990">
						<ele>115</ele>
						<time>2021-05-24T14:10:22Z</time>
					</trkpt>
					<trkpt lat="48.043860" lon="1.653520">
						<ele>116</ele>
						<time>2021-05-24T14:10:28Z</time>
					</trkpt>
					<trkpt lat="48.044720" lon="1.651310">
						<ele>119</ele>
						<time>2021-05-24T14:10:59Z</time>
					</trkpt>
					<trkpt lat="48.044330" lon="1.650500">
						<ele>119</ele>
						<time>2021-05-24T14:11:10Z</time>
					</trkpt>
					<trkpt lat="48.043970" lon="1.649850">
						<ele>119</ele>
						<time>2021-05-24T14:11:21Z</time>
					</trkpt>
					<trkpt lat="48.043500" lon="1.647280">
						<ele>119</ele>
						<time>2021-05-24T14:11:52Z</time>
					</trkpt>
					<trkpt lat="48.043240" lon="1.645670">
						<ele>120</ele>
						<time>2021-05-24T14:12:12Z</time>
					</trkpt>
					<trkpt lat="48.043110" lon="1.644270">
						<ele>122</ele>
						<time>2021-05-24T14:12:29Z</time>
					</trkpt>
					<trkpt lat="48.042570" lon="1.640880">
						<ele>122</ele>
						<time>2021-05-24T14:13:10Z</time>
					</trkpt>
					<trkpt lat="48.042420" lon="1.639120">
						<ele>124</ele>
						<time>2021-05-24T14:13:31Z</time>
					</trkpt>
					<trkpt lat="48.041990" lon="1.636870">
						<ele>124</ele>
						<time>2021-05-24T14:13:59Z</time>
					</trkpt>
					<trkpt lat="48.041790" lon="1.635470">
						<ele>125</ele>
						<time>2021-05-24T14:14:16Z</time>
					</trkpt>
					<trkpt lat="48.040930" lon="1.632360">
						<ele>129</ele>
						<time>2021-05-24T14:14:56Z</time>
					</trkpt>
					<trkpt lat="48.039200" lon="1.627960">
						<ele>127</ele>
						<time>2021-05-24T14:15:57Z</time>
					</trkpt>
					<trkpt lat="48.038680" lon="1.627130">
						<ele>128</ele>
						<time>2021-05-24T14:16:10Z</time>
					</trkpt>
					<trkpt lat="48.036930" lon="1.625150">
						<ele>125</ele>
						<time>2021-05-24T14:16:50Z</time>
					</trkpt>
					<trkpt lat="48.036410" lon="1.623200">
						<ele>126</ele>
						<time>2021-05-24T14:17:14Z</time>
					</trkpt>
					<trkpt lat="48.035970" lon="1.621660">
						<ele>126</ele>
						<time>2021-05-24T14:17:34Z</time>
					</trkpt>
					<trkpt lat="48.035490" lon="1.620350">
						<ele>125</ele>
						<time>2021-05-24T14:17:52Z</time>
					</trkpt>
					<trkpt lat="48.035020" lon="1.619640">
						<ele>124</ele>
						<time>2021-05-24T14:18:04Z</time>
					</trkpt>
					<trkpt lat="48.034390" lon="1.618970">
						<ele>123</ele>
						<time>2021-05-24T14:18:18Z</time>
					</trkpt>
					<trkpt lat="48.033500" lon="1.616530">
						<ele>124</ele>
						<time>2021-05-24T14:18:51Z</time>
					</trkpt>
					<trkpt lat="48.033400" lon="1.614040">
						<ele>128</ele>
						<time>2021-05-24T14:19:21Z</time>
					</trkpt>
					<trkpt lat="48.033400" lon="1.612920">
						<ele>129</ele>
						<time>2021-05-24T14:19:34Z</time>
					</trkpt>
					<trkpt lat="48.033460" lon="1.612260">
						<ele>129</ele>
						<time>2021-05-24T14:19:42Z</time>
					</trkpt>
					<trkpt lat="48.033430" lon="1.611570">
						<ele>129</ele>
						<time>2021-05-24T14:19:50Z</time>
					</trkpt>
					<trkpt lat="48.033260" lon="1.610990">
						<ele>129</ele>
						<time>2021-05-24T14:19:58Z</time>
					</trkpt>
					<trkpt lat="48.032830" lon="1.610500">
						<ele>128</ele>
						<time>2021-05-24T14:20:07Z</time>
					</trkpt>
					<trkpt lat="48.031840" lon="1.610070">
						<ele>127</ele>
						<time>2021-05-24T14:20:26Z</time>
					</trkpt>
					<trkpt lat="48.031690" lon="1.609900">
						<ele>127</ele>
						<time>2021-05-24T14:20:29Z</time>
					</trkpt>
					<trkpt lat="48.031020" lon="1.605730">
						<ele>125</ele>
						<time>2021-05-24T14:21:20Z</time>
					</trkpt>
					<trkpt lat="48.029150" lon="1.602150">
						<ele>126</ele>
						<time>2021-05-24T14:22:14Z</time>
					</trkpt>
					<trkpt lat="48.027960" lon="1.598520">
						<ele>127</ele>
						<time>2021-05-24T14:23:02Z</time>
					</trkpt>
					<trkpt lat="48.026640" lon="1.595540">
						<ele>127</ele>
						<time>2021-05-24T14:23:45Z</time>
					</trkpt>
					<trkpt lat="48.026310" lon="1.593800">
						<ele>128</ele>
						<time>2021-05-24T14:24:06Z</time>
					</trkpt>
					<trkpt lat="48.025790" lon="1.593120">
						<ele>127</ele>
						<time>2021-05-24T14:24:18Z</time>
					</trkpt>
					<trkpt lat="48.022380" lon="1.589340">
						<ele>128</ele>
						<time>2021-05-24T14:25:34Z</time>
					</trkpt>
					<trkpt lat="48.021850" lon="1.588830">
						<ele>128</ele>
						<time>2021-05-24T14:25:45Z</time>
					</trkpt>
					<trkpt lat="48.021460" lon="1.588310">
						<ele>128</ele>
						<time>2021-05-24T14:25:54Z</time>
					</trkpt>
					<trkpt lat="48.021390" lon="1.587770">
						<ele>128</ele>
						<time>2021-05-24T14:26:01Z</time>
					</trkpt>
					<trkpt lat="48.021560" lon="1.586940">
						<ele>129</ele>
						<time>2021-05-24T14:26:11Z</time>
					</trkpt>
					<trkpt lat="48.020700" lon="1.581470">
						<ele>131</ele>
						<time>2021-05-24T14:27:18Z</time>
					</trkpt>
					<trkpt lat="48.017590" lon="1.567350">
						<ele>128</ele>
						<time>2021-05-24T14:30:15Z</time>
					</trkpt>
					<trkpt lat="48.015130" lon="1.564060">
						<ele>126</ele>
						<time>2021-05-24T14:31:14Z</time>
					</trkpt>
					<trkpt lat="48.013160" lon="1.558480">
						<ele>125</ele>
						<time>2021-05-24T14:32:29Z</time>
					</trkpt>
					<trkpt lat="48.011660" lon="1.553400">
						<ele>128</ele>
						<time>2021-05-24T14:33:35Z</time>
					</trkpt>
					<trkpt lat="48.011010" lon="1.552950">
						<ele>129</ele>
						<time>2021-05-24T14:33:48Z</time>
					</trkpt>
					<trkpt lat="48.010550" lon="1.552350">
						<ele>129</ele>
						<time>2021-05-24T14:33:59Z</time>
					</trkpt>
					<trkpt lat="48.010150" lon="1.552180">
						<ele>129</ele>
						<time>2021-05-24T14:34:06Z</time>
					</trkpt>
					<trkpt lat="48.009720" lon="1.551640">
						<ele>129</ele>
						<time>2021-05-24T14:34:16Z</time>
					</trkpt>
					<trkpt lat="48.009390" lon="1.551270">
						<ele>129</ele>
						<time>2021-05-24T14:34:23Z</time>
					</trkpt>
					<trkpt lat="48.009590" lon="1.550460">
						<ele>129</ele>
						<time>2021-05-24T14:34:34Z</time>
					</trkpt>
					<trkpt lat="48.009820" lon="1.550030">
						<ele>129</ele>
						<time>2021-05-24T14:34:40Z</time>
					</trkpt>
					<trkpt lat="48.010440" lon="1.549410">
						<ele>127</ele>
						<time>2021-05-24T14:34:54Z</time>
					</trkpt>
					<trkpt lat="48.011530" lon="1.546620">
						<ele>124</ele>
						<time>2021-05-24T14:35:32Z</time>
					</trkpt>
					<trkpt lat="48.011990" lon="1.545370">
						<ele>123</ele>
						<time>2021-05-24T14:35:49Z</time>
					</trkpt>
					<trkpt lat="48.013800" lon="1.542690">
						<ele>125</ele>
						<time>2021-05-24T14:36:34Z</time>
					</trkpt>
					<trkpt lat="48.014690" lon="1.541580">
						<ele>125</ele>
						<time>2021-05-24T14:36:55Z</time>
					</trkpt>
					<trkpt lat="48.016710" lon="1.538120">
						<ele>122</ele>
						<time>2021-05-24T14:37:50Z</time>
					</trkpt>
					<trkpt lat="48.017770" lon="1.536550">
						<ele>123</ele>
						<time>2021-05-24T14:38:16Z</time>
					</trkpt>
					<trkpt lat="48.018060" lon="1.535930">
						<ele>124</ele>
						<time>2021-05-24T14:38:25Z</time>
					</trkpt>
					<trkpt lat="48.018490" lon="1.534000">
						<ele>125</ele>
						<time>2021-05-24T14:38:49Z</time>
					</trkpt>
					<trkpt lat="48.018880" lon="1.531060">
						<ele>128</ele>
						<time>2021-05-24T14:39:25Z</time>
					</trkpt>
					<trkpt lat="48.019140" lon="1.529450">
						<ele>128</ele>
						<time>2021-05-24T14:39:45Z</time>
					</trkpt>
					<trkpt lat="48.018880" lon="1.527370">
						<ele>128</ele>
						<time>2021-05-24T14:40:10Z</time>
					</trkpt>
					<trkpt lat="48.018290" lon="1.525550">
						<ele>129</ele>
						<time>2021-05-24T14:40:34Z</time>
					</trkpt>
					<trkpt lat="48.018030" lon="1.524540">
						<ele>129</ele>
						<time>2021-05-24T14:40:47Z</time>
					</trkpt>
					<trkpt lat="48.016980" lon="1.516000">
						<ele>125</ele>
						<time>2021-05-24T14:42:30Z</time>
					</trkpt>
					<trkpt lat="48.016410" lon="1.511130">
						<ele>126</ele>
						<time>2021-05-24T14:43:29Z</time>
					</trkpt>
					<trkpt lat="48.016220" lon="1.507670">
						<ele>126</ele>
						<time>2021-05-24T14:44:10Z</time>
					</trkpt>
					<trkpt lat="48.015960" lon="1.506580">
						<ele>127</ele>
						<time>2021-05-24T14:44:24Z</time>
					</trkpt>
					<trkpt lat="48.015850" lon="1.504950">
						<ele>128</ele>
						<time>2021-05-24T14:44:44Z</time>
					</trkpt>
					<trkpt lat="48.015520" lon="1.504450">
						<ele>129</ele>
						<time>2021-05-24T14:44:52Z</time>
					</trkpt>
					<trkpt lat="48.014900" lon="1.501260">
						<ele>127</ele>
						<time>2021-05-24T14:45:32Z</time>
					</trkpt>
					<trkpt lat="48.014400" lon="1.497760">
						<ele>126</ele>
						<time>2021-05-24T14:46:14Z</time>
					</trkpt>
					<trkpt lat="48.013950" lon="1.492850">
						<ele>128</ele>
						<time>2021-05-24T14:47:13Z</time>
					</trkpt>
					<trkpt lat="48.013800" lon="1.488940">
						<ele>129</ele>
						<time>2021-05-24T14:48:00Z</time>
					</trkpt>
					<trkpt lat="48.013810" lon="1.481240">
						<ele>132</ele>
						<time>2021-05-24T14:49:31Z</time>
					</trkpt>
					<trkpt lat="48.013410" lon="1.480530">
						<ele>131</ele>
						<time>2021-05-24T14:49:42Z</time>
					</trkpt>
					<trkpt lat="48.013600" lon="1.480010">
						<ele>131</ele>
						<time>2021-05-24T14:49:49Z</time>
					</trkpt>
					<trkpt lat="48.014530" lon="1.477980">
						<ele>132</ele>
						<time>2021-05-24T14:50:19Z</time>
					</trkpt>
					<trkpt lat="48.014530" lon="1.477250">
						<ele>131</ele>
						<time>2021-05-24T14:50:27Z</time>
					</trkpt>
					<trkpt lat="48.013650" lon="1.473150">
						<ele>130</ele>
						<time>2021-05-24T14:51:19Z</time>
					</trkpt>
					<trkpt lat="48.013580" lon="1.471820">
						<ele>131</ele>
						<time>2021-05-24T14:51:35Z</time>
					</trkpt>
					<trkpt lat="48.013840" lon="1.470210">
						<ele>131</ele>
						<time>2021-05-24T14:51:54Z</time>
					</trkpt>
					<trkpt lat="48.014500" lon="1.466770">
						<ele>128</ele>
						<time>2021-05-24T14:52:37Z</time>
					</trkpt>
					<trkpt lat="48.015620" lon="1.457550">
						<ele>129</ele>
						<time>2021-05-24T14:54:28Z</time>
					</trkpt>
					<trkpt lat="48.016440" lon="1.454160">
						<ele>129</ele>
						<time>2021-05-24T14:55:11Z</time>
					</trkpt>
					<trkpt lat="48.016480" lon="1.452810">
						<ele>129</ele>
						<time>2021-05-24T14:55:27Z</time>
					</trkpt>
					<trkpt lat="48.016210" lon="1.451300">
						<ele>128</ele>
						<time>2021-05-24T14:55:46Z</time>
					</trkpt>
					<trkpt lat="48.015250" lon="1.447960">
						<ele>130</ele>
						<time>2021-05-24T14:56:29Z</time>
					</trkpt>
					<trkpt lat="48.015160" lon="1.447460">
						<ele>130</ele>
						<time>2021-05-24T14:56:35Z</time>
					</trkpt>
					<trkpt lat="48.014970" lon="1.442140">
						<ele>131</ele>
						<time>2021-05-24T14:57:39Z</time>
					</trkpt>
					<trkpt lat="48.015000" lon="1.438090">
						<ele>132</ele>
						<time>2021-05-24T14:58:27Z</time>
					</trkpt>
					<trkpt lat="48.013910" lon="1.435850">
						<ele>132</ele>
						<time>2021-05-24T14:59:00Z</time>
					</trkpt>
					<trkpt lat="48.012630" lon="1.431540">
						<ele>131</ele>
						<time>2021-05-24T14:59:56Z</time>
					</trkpt>
					<trkpt lat="48.012370" lon="1.426520">
						<ele>132</ele>
						<time>2021-05-24T15:00:56Z</time>
					</trkpt>
					<trkpt lat="48.012040" lon="1.425190">
						<ele>131</ele>
						<time>2021-05-24T15:01:13Z</time>
					</trkpt>
					<trkpt lat="48.011230" lon="1.423580">
						<ele>130</ele>
						<time>2021-05-24T15:01:37Z</time>
					</trkpt>
					<trkpt lat="48.011080" lon="1.422810">
						<ele>130</ele>
						<time>2021-05-24T15:01:46Z</time>
					</trkpt>
					<trkpt lat="48.011050" lon="1.422120">
						<ele>131</ele>
						<time>2021-05-24T15:01:55Z</time>
					</trkpt>
					<trkpt lat="48.010780" lon="1.420830">
						<ele>132</ele>
						<time>2021-05-24T15:02:11Z</time>
					</trkpt>
					<trkpt lat="48.010020" lon="1.420980">
						<ele>130</ele>
						<time>2021-05-24T15:02:24Z</time>
					</trkpt>
					<trkpt lat="48.009490" lon="1.421160">
						<ele>130</ele>
						<time>2021-05-24T15:02:34Z</time>
					</trkpt>
					<trkpt lat="48.008640" lon="1.421860">
						<ele>130</ele>
						<time>2021-05-24T15:02:51Z</time>
					</trkpt>
					<trkpt lat="48.007570" lon="1.422440">
						<ele>130</ele>
						<time>2021-05-24T15:03:12Z</time>
					</trkpt>
					<trkpt lat="48.006070" lon="1.422960">
						<ele>130</ele>
						<time>2021-05-24T15:03:39Z</time>
					</trkpt>
					<trkpt lat="48.003240" lon="1.423540">
						<ele>129</ele>
						<time>2021-05-24T15:04:30Z</time>
					</trkpt>
					<trkpt lat="48.002700" lon="1.423750">
						<ele>129</ele>
						<time>2021-05-24T15:04:40Z</time>
					</trkpt>
					<trkpt lat="48.002180" lon="1.423450">
						<ele>130</ele>
						<time>2021-05-24T15:04:50Z</time>
					</trkpt>
					<trkpt lat="48.001510" lon="1.423520">
						<ele>131</ele>
						<time>2021-05-24T15:05:02Z</time>
					</trkpt>
					<trkpt lat="48.000670" lon="1.423520">
						<ele>130</ele>
						<time>2021-05-24T15:05:17Z</time>
					</trkpt>
					<trkpt lat="47.999710" lon="1.422980">
						<ele>130</ele>
						<time>2021-05-24T15:05:35Z</time>
					</trkpt>
					<trkpt lat="47.997130" lon="1.420960">
						<ele>131</ele>
						<time>2021-05-24T15:06:27Z</time>
					</trkpt>
					<trkpt lat="47.995230" lon="1.418990">
						<ele>130</ele>
						<time>2021-05-24T15:07:08Z</time>
					</trkpt>
					<trkpt lat="47.994730" lon="1.418970">
						<ele>130</ele>
						<time>2021-05-24T15:07:17Z</time>
					</trkpt>
					<trkpt lat="47.994030" lon="1.419140">
						<ele>131</ele>
						<time>2021-05-24T15:07:29Z</time>
					</trkpt>
					<trkpt lat="47.990980" lon="1.418520">
						<ele>129</ele>
						<time>2021-05-24T15:08:24Z</time>
					</trkpt>
					<trkpt lat="47.990060" lon="1.418070">
						<ele>129</ele>
						<time>2021-05-24T15:08:41Z</time>
					</trkpt>
					<trkpt lat="47.988990" lon="1.417290">
						<ele>128</ele>
						<time>2021-05-24T15:09:03Z</time>
					</trkpt>
					<trkpt lat="47.987840" lon="1.416540">
						<ele>128</ele>
						<time>2021-05-24T15:09:25Z</time>
					</trkpt>
					<trkpt lat="47.986990" lon="1.416130">
						<ele>128</ele>
						<time>2021-05-24T15:09:41Z</time>
					</trkpt>
					<trkpt lat="47.986310" lon="1.416070">
						<ele>127</ele>
						<time>2021-05-24T15:09:53Z</time>
					</trkpt>
					<trkpt lat="47.985800" lon="1.416280">
						<ele>125</ele>
						<time>2021-05-24T15:10:02Z</time>
					</trkpt>
					<trkpt lat="47.985110" lon="1.416290">
						<ele>123</ele>
						<time>2021-05-24T15:10:15Z</time>
					</trkpt>
					<trkpt lat="47.984770" lon="1.416010">
						<ele>121</ele>
						<time>2021-05-24T15:10:21Z</time>
					</trkpt>
					<trkpt lat="47.984560" lon="1.416160">
						<ele>120</ele>
						<time>2021-05-24T15:10:26Z</time>
					</trkpt>
					<trkpt lat="47.983920" lon="1.416800">
						<ele>119</ele>
						<time>2021-05-24T15:10:39Z</time>
					</trkpt>
					<trkpt lat="47.983400" lon="1.416780">
						<ele>121</ele>
						<time>2021-05-24T15:10:49Z</time>
					</trkpt>
					<trkpt lat="47.982340" lon="1.416820">
						<ele>123</ele>
						<time>2021-05-24T15:11:07Z</time>
					</trkpt>
					<trkpt lat="47.980110" lon="1.416710">
						<ele>127</ele>
						<time>2021-05-24T15:11:47Z</time>
					</trkpt>
					<trkpt lat="47.977980" lon="1.416740">
						<ele>129</ele>
						<time>2021-05-24T15:12:25Z</time>
					</trkpt>
					<trkpt lat="47.976860" lon="1.416890">
						<ele>128</ele>
						<time>2021-05-24T15:12:45Z</time>
					</trkpt>
					<trkpt lat="47.975110" lon="1.417680">
						<ele>126</ele>
						<time>2021-05-24T15:13:18Z</time>
					</trkpt>
					<trkpt lat="47.974380" lon="1.418110">
						<ele>126</ele>
						<time>2021-05-24T15:13:32Z</time>
					</trkpt>
					<trkpt lat="47.973270" lon="1.418340">
						<ele>124</ele>
						<time>2021-05-24T15:13:51Z</time>
					</trkpt>
					<trkpt lat="47.972300" lon="1.418820">
						<ele>120</ele>
						<time>2021-05-24T15:14:10Z</time>
					</trkpt>
					<trkpt lat="47.971640" lon="1.418970">
						<ele>118</ele>
						<time>2021-05-24T15:14:22Z</time>
					</trkpt>
					<trkpt lat="47.970670" lon="1.419780">
						<ele>115</ele>
						<time>2021-05-24T15:14:41Z</time>
					</trkpt>
					<trkpt lat="47.969950" lon="1.420020">
						<ele>118</ele>
						<time>2021-05-24T15:14:54Z</time>
					</trkpt>
					<trkpt lat="47.966390" lon="1.420810">
						<ele>127</ele>
						<time>2021-05-24T15:15:58Z</time>
					</trkpt>
					<trkpt lat="47.964610" lon="1.421730">
						<ele>125</ele>
						<time>2021-05-24T15:16:32Z</time>
					</trkpt>
					<trkpt lat="47.964180" lon="1.422610">
						<ele>126</ele>
						<time>2021-05-24T15:16:45Z</time>
					</trkpt>
					<trkpt lat="47.963460" lon="1.423430">
						<ele>123</ele>
						<time>2021-05-24T15:17:01Z</time>
					</trkpt>
					<trkpt lat="47.962220" lon="1.424220">
						<ele>121</ele>
						<time>2021-05-24T15:17:25Z</time>
					</trkpt>
					<trkpt lat="47.961810" lon="1.424630">
						<ele>120</ele>
						<time>2021-05-24T15:17:34Z</time>
					</trkpt>
					<trkpt lat="47.960410" lon="1.426540">
						<ele>121</ele>
						<time>2021-05-24T15:18:08Z</time>
					</trkpt>
					<trkpt lat="47.959700" lon="1.427210">
						<ele>123</ele>
						<time>2021-05-24T15:18:23Z</time>
					</trkpt>
					<trkpt lat="47.959160" lon="1.427460">
						<ele>122</ele>
						<time>2021-05-24T15:18:33Z</time>
					</trkpt>
					<trkpt lat="47.956680" lon="1.426910">
						<ele>113</ele>
						<time>2021-05-24T15:19:17Z</time>
					</trkpt>
					<trkpt lat="47.956050" lon="1.426610">
						<ele>116</ele>
						<time>2021-05-24T15:19:29Z</time>
					</trkpt>
					<trkpt lat="47.955560" lon="1.426760">
						<ele>118</ele>
						<time>2021-05-24T15:19:38Z</time>
					</trkpt>
					<trkpt lat="47.954820" lon="1.427400">
						<ele>120</ele>
						<time>2021-05-24T15:19:53Z</time>
					</trkpt>
					<trkpt lat="47.953980" lon="1.428020">
						<ele>120</ele>
						<time>2021-05-24T15:20:10Z</time>
					</trkpt>
					<trkpt lat="47.953270" lon="1.428320">
						<ele>120</ele>
						<time>2021-05-24T15:20:23Z</time>
					</trkpt>
					<trkpt lat="47.950380" lon="1.429420">
						<ele>117</ele>
						<time>2021-05-24T15:21:16Z</time>
					</trkpt>
					<trkpt lat="47.949950" lon="1.429650">
						<ele>117</ele>
						<time>2021-05-24T15:21:24Z</time>
					</trkpt>
					<trkpt lat="47.946990" lon="1.432510">
						<ele>113</ele>
						<time>2021-05-24T15:22:27Z</time>
					</trkpt>
					<trkpt lat="47.945120" lon="1.434220">
						<ele>118</ele>
						<time>2021-05-24T15:23:06Z</time>
					</trkpt>
					<trkpt lat="47.944430" lon="1.434700">
						<ele>118</ele>
						<time>2021-05-24T15:23:19Z</time>
					</trkpt>
					<trkpt lat="47.942030" lon="1.436280">
						<ele>120</ele>
						<time>2021-05-24T15:24:06Z</time>
					</trkpt>
					<trkpt lat="47.938300" lon="1.438510">
						<ele>127</ele>
						<time>2021-05-24T15:25:18Z</time>
					</trkpt>
					<trkpt lat="47.936610" lon="1.439610">
						<ele>125</ele>
						<time>2021-05-24T15:25:50Z</time>
					</trkpt>
					<trkpt lat="47.933260" lon="1.441730">
						<ele>123</ele>
						<time>2021-05-24T15:26:55Z</time>
					</trkpt>
					<trkpt lat="47.928100" lon="1.444910">
						<ele>128</ele>
						<time>2021-05-24T15:28:34Z</time>
					</trkpt>
					<trkpt lat="47.922340" lon="1.448540">
						<ele>126</ele>
						<time>2021-05-24T15:30:26Z</time>
					</trkpt>
					<trkpt lat="47.919400" lon="1.450290">
						<ele>127</ele>
						<time>2021-05-24T15:31:22Z</time>
					</trkpt>
					<trkpt lat="47.918080" lon="1.451110">
						<ele>127</ele>
						<time>2021-05-24T15:31:47Z</time>
					</trkpt>
					<trkpt lat="47.917060" lon="1.451480">
						<ele>127</ele>
						<time>2021-05-24T15:32:06Z</time>
					</trkpt>
					<trkpt lat="47.916530" lon="1.451580">
						<ele>127</ele>
						<time>2021-05-24T15:32:16Z</time>
					</trkpt>
					<trkpt lat="47.913520" lon="1.453810">
						<ele>124</ele>
						<time>2021-05-24T15:33:15Z</time>
					</trkpt>
					<trkpt lat="47.906620" lon="1.458990">
						<ele>124</ele>
						<time>2021-05-24T15:35:33Z</time>
					</trkpt>
					<trkpt lat="47.904290" lon="1.460850">
						<ele>126</ele>
						<time>2021-05-24T15:36:20Z</time>
					</trkpt>
					<trkpt lat="47.903870" lon="1.461370">
						<ele>127</ele>
						<time>2021-05-24T15:36:30Z</time>
					</trkpt>
					<trkpt lat="47.903400" lon="1.462330">
						<ele>128</ele>
						<time>2021-05-24T15:36:44Z</time>
					</trkpt>
					<trkpt lat="47.903170" lon="1.463150">
						<ele>129</ele>
						<time>2021-05-24T15:36:54Z</time>
					</trkpt>
					<trkpt lat="47.902930" lon="1.463730">
						<ele>129</ele>
						<time>2021-05-24T15:37:02Z</time>
					</trkpt>
					<trkpt lat="47.902530" lon="1.464050">
						<ele>129</ele>
						<time>2021-05-24T15:37:11Z</time>
					</trkpt>
					<trkpt lat="47.902060" lon="1.464240">
						<ele>128</ele>
						<time>2021-05-24T15:37:19Z</time>
					</trkpt>
					<trkpt lat="47.901600" lon="1.464710">
						<ele>128</ele>
						<time>2021-05-24T15:37:29Z</time>
					</trkpt>
					<trkpt lat="47.901190" lon="1.465250">
						<ele>128</ele>
						<time>2021-05-24T15:37:39Z</time>
					</trkpt>
					<trkpt lat="47.895970" lon="1.474130">
						<ele>124</ele>
						<time>2021-05-24T15:40:00Z</time>
					</trkpt>
					<trkpt lat="47.892070" lon="1.480870">
						<ele>126</ele>
						<time>2021-05-24T15:41:46Z</time>
					</trkpt>
					<trkpt lat="47.891440" lon="1.481730">
						<ele>127</ele>
						<time>2021-05-24T15:42:01Z</time>
					</trkpt>
					<trkpt lat="47.888250" lon="1.485720">
						<ele>126</ele>
						<time>2021-05-24T15:43:15Z</time>
					</trkpt>
					<trkpt lat="47.887570" lon="1.486240">
						<ele>128</ele>
						<time>2021-05-24T15:43:29Z</time>
					</trkpt>
					<trkpt lat="47.885150" lon="1.487650">
						<ele>125</ele>
						<time>2021-05-24T15:44:15Z</time>
					</trkpt>
					<trkpt lat="47.884130" lon="1.488640">
						<ele>126</ele>
						<time>2021-05-24T15:44:37Z</time>
					</trkpt>
					<trkpt lat="47.883450" lon="1.489460">
						<ele>124</ele>
						<time>2021-05-24T15:44:52Z</time>
					</trkpt>
					<trkpt lat="47.882250" lon="1.490400">
						<ele>125</ele>
						<time>2021-05-24T15:45:16Z</time>
					</trkpt>
					<trkpt lat="47.881610" lon="1.490870">
						<ele>126</ele>
						<time>2021-05-24T15:45:29Z</time>
					</trkpt>
					<trkpt lat="47.877640" lon="1.494880">
						<ele>124</ele>
						<time>2021-05-24T15:46:54Z</time>
					</trkpt>
					<trkpt lat="47.875110" lon="1.497310">
						<ele>127</ele>
						<time>2021-05-24T15:47:48Z</time>
					</trkpt>
					<trkpt lat="47.875030" lon="1.497870">
						<ele>127</ele>
						<time>2021-05-24T15:47:55Z</time>
					</trkpt>
					<trkpt lat="47.875440" lon="1.498620">
						<ele>126</ele>
						<time>2021-05-24T15:48:06Z</time>
					</trkpt>
					<trkpt lat="47.875860" lon="1.499500">
						<ele>126</ele>
						<time>2021-05-24T15:48:19Z</time>
					</trkpt>
					<trkpt lat="47.877010" lon="1.502420">
						<ele>124</ele>
						<time>2021-05-24T15:49:00Z</time>
					</trkpt>
					<trkpt lat="47.877830" lon="1.504630">
						<ele>125</ele>
						<time>2021-05-24T15:49:30Z</time>
					</trkpt>
					<trkpt lat="47.879310" lon="1.507830">
						<ele>125</ele>
						<time>2021-05-24T15:50:16Z</time>
					</trkpt>
					<trkpt lat="47.881380" lon="1.511740">
						<ele>125</ele>
						<time>2021-05-24T15:51:16Z</time>
					</trkpt>
					<trkpt lat="47.884350" lon="1.517620">
						<ele>125</ele>
						<time>2021-05-24T15:52:43Z</time>
					</trkpt>
					<trkpt lat="47.885090" lon="1.520970">
						<ele>127</ele>
						<time>2021-05-24T15:53:26Z</time>
					</trkpt>
					<trkpt lat="47.885670" lon="1.522880">
						<ele>126</ele>
						<time>2021-05-24T15:53:51Z</time>
					</trkpt>
					<trkpt lat="47.885640" lon="1.525920">
						<ele>124</ele>
						<time>2021-05-24T15:54:27Z</time>
					</trkpt>
					<trkpt lat="47.885730" lon="1.527380">
						<ele>125</ele>
						<time>2021-05-24T15:54:44Z</time>
					</trkpt>
					<trkpt lat="47.885900" lon="1.528880">
						<ele>123</ele>
						<time>2021-05-24T15:55:02Z</time>
					</trkpt>
					<trkpt lat="47.886070" lon="1.531330">
						<ele>123</ele>
						<time>2021-05-24T15:55:32Z</time>
					</trkpt>
					<trkpt lat="47.885930" lon="1.533480">
						<ele>126</ele>
						<time>2021-05-24T15:55:58Z</time>
					</trkpt>
					<trkpt lat="47.886020" lon="1.535920">
						<ele>126</ele>
						<time>2021-05-24T15:56:27Z</time>
					</trkpt>
					<trkpt lat="47.885960" lon="1.537680">
						<ele>124</ele>
						<time>2021-05-24T15:56:48Z</time>
					</trkpt>
					<trkpt lat="47.885810" lon="1.539100">
						<ele>124</ele>
						<time>2021-05-24T15:57:05Z</time>
					</trkpt>
					<trkpt lat="47.885790" lon="1.540510">
						<ele>123</ele>
						<time>2021-05-24T15:57:22Z</time>
					</trkpt>
					<trkpt lat="47.886070" lon="1.542140">
						<ele>121</ele>
						<time>2021-05-24T15:57:42Z</time>
					</trkpt>
					<trkpt lat="47.886300" lon="1.543220">
						<ele>120</ele>
						<time>2021-05-24T15:57:55Z</time>
					</trkpt>
					<trkpt lat="47.887220" lon="1.545790">
						<ele>125</ele>
						<time>2021-05-24T15:58:30Z</time>
					</trkpt>
					<trkpt lat="47.887200" lon="1.546610">
						<ele>125</ele>
						<time>2021-05-24T15:58:40Z</time>
					</trkpt>
					<trkpt lat="47.886880" lon="1.547420">
						<ele>125</ele>
						<time>2021-05-24T15:58:51Z</time>
					</trkpt>
					<trkpt lat="47.886990" lon="1.548070">
						<ele>125</ele>
						<time>2021-05-24T15:58:59Z</time>
					</trkpt>
					<trkpt lat="47.887540" lon="1.548930">
						<ele>127</ele>
						<time>2021-05-24T15:59:13Z</time>
					</trkpt>
					<trkpt lat="47.886990" lon="1.548970">
						<ele>126</ele>
						<time>2021-05-24T15:59:23Z</time>
					</trkpt>
					<trkpt lat="47.886450" lon="1.549570">
						<ele>125</ele>
						<time>2021-05-24T15:59:35Z</time>
					</trkpt>
					<trkpt lat="47.885960" lon="1.549480">
						<ele>124</ele>
						<time>2021-05-24T15:59:44Z</time>
					</trkpt>
					<trkpt lat="47.885440" lon="1.549350">
						<ele>123</ele>
						<time>2021-05-24T15:59:53Z</time>
					</trkpt>
					<trkpt lat="47.883400" lon="1.549960">
						<ele>122</ele>
						<time>2021-05-24T16:00:30Z</time>
					</trkpt>
					<trkpt lat="47.882940" lon="1.550380">
						<ele>120</ele>
						<time>2021-05-24T16:00:40Z</time>
					</trkpt>
					<trkpt lat="47.879080" lon="1.557120">
						<ele>125</ele>
						<time>2021-05-24T16:02:26Z</time>
					</trkpt>
					<trkpt lat="47.878450" lon="1.558110">
						<ele>126</ele>
						<time>2021-05-24T16:02:42Z</time>
					</trkpt>
					<trkpt lat="47.876370" lon="1.563390">
						<ele>117</ele>
						<time>2021-05-24T16:03:55Z</time>
					</trkpt>
					<trkpt lat="47.867360" lon="1.586690">
						<ele>120</ele>
						<time>2021-05-24T16:09:16Z</time>
					</trkpt>
					<trkpt lat="47.864770" lon="1.592530">
						<ele>119</ele>
						<time>2021-05-24T16:10:40Z</time>
					</trkpt>
					<trkpt lat="47.860680" lon="1.600980">
						<ele>113</ele>
						<time>2021-05-24T16:12:44Z</time>
					</trkpt>
					<trkpt lat="47.858900" lon="1.604930">
						<ele>113</ele>
						<time>2021-05-24T16:13:41Z</time>
					</trkpt>
					<trkpt lat="47.858090" lon="1.606560">
						<ele>112</ele>
						<time>2021-05-24T16:14:05Z</time>
					</trkpt>
					<trkpt lat="47.857520" lon="1.607500">
						<ele>112</ele>
						<time>2021-05-24T16:14:20Z</time>
					</trkpt>
					<trkpt lat="47.855730" lon="1.611150">
						<ele>111</ele>
						<time>2021-05-24T16:15:14Z</time>
					</trkpt>
					<trkpt lat="47.854670" lon="1.613430">
						<ele>114</ele>
						<time>2021-05-24T16:15:47Z</time>
					</trkpt>
					<trkpt lat="47.854290" lon="1.614460">
						<ele>114</ele>
						<time>2021-05-24T16:16:01Z</time>
					</trkpt>
					<trkpt lat="47.852850" lon="1.620040">
						<ele>114</ele>
						<time>2021-05-24T16:17:13Z</time>
					</trkpt>
					<trkpt lat="47.852330" lon="1.621840">
						<ele>114</ele>
						<time>2021-05-24T16:17:36Z</time>
					</trkpt>
					<trkpt lat="47.851990" lon="1.623340">
						<ele>116</ele>
						<time>2021-05-24T16:17:55Z</time>
					</trkpt>
					<trkpt lat="47.851530" lon="1.625140">
						<ele>113</ele>
						<time>2021-05-24T16:18:18Z</time>
					</trkpt>
					<trkpt lat="47.850780" lon="1.627630">
						<ele>113</ele>
						<time>2021-05-24T16:18:51Z</time>
					</trkpt>
					<trkpt lat="47.849250" lon="1.633900">
						<ele>111</ele>
						<time>2021-05-24T16:20:10Z</time>
					</trkpt>
					<trkpt lat="47.847870" lon="1.639300">
						<ele>110</ele>
						<time>2021-05-24T16:21:19Z</time>
					</trkpt>
					<trkpt lat="47.845940" lon="1.646090">
						<ele>106</ele>
						<time>2021-05-24T16:22:47Z</time>
					</trkpt>
					<trkpt lat="47.845770" lon="1.647630">
						<ele>106</ele>
						<time>2021-05-24T16:23:06Z</time>
					</trkpt>
					<trkpt lat="47.846030" lon="1.648870">
						<ele>108</ele>
						<time>2021-05-24T16:23:21Z</time>
					</trkpt>
					<trkpt lat="47.847090" lon="1.650120">
						<ele>105</ele>
						<time>2021-05-24T16:23:45Z</time>
					</trkpt>
					<trkpt lat="47.848500" lon="1.651410">
						<ele>103</ele>
						<time>2021-05-24T16:24:15Z</time>
					</trkpt>
					<trkpt lat="47.849400" lon="1.652950">
						<ele>106</ele>
						<time>2021-05-24T16:24:39Z</time>
					</trkpt>
					<trkpt lat="47.849570" lon="1.653850">
						<ele>106</ele>
						<time>2021-05-24T16:24:50Z</time>
					</trkpt>
					<trkpt lat="47.849450" lon="1.654330">
						<ele>107</ele>
						<time>2021-05-24T16:24:57Z</time>
					</trkpt>
					<trkpt lat="47.849510" lon="1.655100">
						<ele>107</ele>
						<time>2021-05-24T16:25:06Z</time>
					</trkpt>
					<trkpt lat="47.849280" lon="1.655830">
						<ele>108</ele>
						<time>2021-05-24T16:25:15Z</time>
					</trkpt>
					<trkpt lat="47.851180" lon="1.658320">
						<ele>110</ele>
						<time>2021-05-24T16:26:00Z</time>
					</trkpt>
					<trkpt lat="47.852480" lon="1.660420">
						<ele>105</ele>
						<time>2021-05-24T16:26:35Z</time>
					</trkpt>
					<trkpt lat="47.852970" lon="1.661110">
						<ele>104</ele>
						<time>2021-05-24T16:26:47Z</time>
					</trkpt>
					<trkpt lat="47.854900" lon="1.663250">
						<ele>103</ele>
						<time>2021-05-24T16:27:29Z</time>
					</trkpt>
					<trkpt lat="47.856080" lon="1.664370">
						<ele>102</ele>
						<time>2021-05-24T16:27:54Z</time>
					</trkpt>
					<trkpt lat="47.857950" lon="1.665180">
						<ele>101</ele>
						<time>2021-05-24T16:28:29Z</time>
					</trkpt>
					<trkpt lat="47.859160" lon="1.665910">
						<ele>103</ele>
						<time>2021-05-24T16:28:52Z</time>
					</trkpt>
					<trkpt lat="47.859880" lon="1.666940">
						<ele>104</ele>
						<time>2021-05-24T16:29:10Z</time>
					</trkpt>
					<trkpt lat="47.860940" lon="1.668660">
						<ele>102</ele>
						<time>2021-05-24T16:29:38Z</time>
					</trkpt>
					<trkpt lat="47.861660" lon="1.670330">
						<ele>102</ele>
						<time>2021-05-24T16:30:01Z</time>
					</trkpt>
					<trkpt lat="47.862070" lon="1.671190">
						<ele>101</ele>
						<time>2021-05-24T16:30:14Z</time>
					</trkpt>
					<trkpt lat="47.862990" lon="1.671580">
						<ele>101</ele>
						<time>2021-05-24T16:30:31Z</time>
					</trkpt>
					<trkpt lat="47.863820" lon="1.671750">
						<ele>103</ele>
						<time>2021-05-24T16:30:46Z</time>
					</trkpt>
					<trkpt lat="47.864920" lon="1.671020">
						<ele>104</ele>
						<time>2021-05-24T16:31:07Z</time>
					</trkpt>
					<trkpt lat="47.865410" lon="1.671580">
						<ele>103</ele>
						<time>2021-05-24T16:31:18Z</time>
					</trkpt>
					<trkpt lat="47.865030" lon="1.674110">
						<ele>98</ele>
						<time>2021-05-24T16:31:49Z</time>
					</trkpt>
					<trkpt lat="47.864800" lon="1.675050">
						<ele>98</ele>
						<time>2021-05-24T16:32:01Z</time>
					</trkpt>
					<trkpt lat="47.864280" lon="1.676080">
						<ele>101</ele>
						<time>2021-05-24T16:32:17Z</time>
					</trkpt>
					<trkpt lat="47.863910" lon="1.677410">
						<ele>101</ele>
						<time>2021-05-24T16:32:34Z</time>
					</trkpt>
					<trkpt lat="47.863450" lon="1.678660">
						<ele>100</ele>
						<time>2021-05-24T16:32:51Z</time>
					</trkpt>
					<trkpt lat="47.862270" lon="1.680070">
						<ele>102</ele>
						<time>2021-05-24T16:33:18Z</time>
					</trkpt>
					<trkpt lat="47.860570" lon="1.681920">
						<ele>101</ele>
						<time>2021-05-24T16:33:55Z</time>
					</trkpt>
					<trkpt lat="47.860020" lon="1.683340">
						<ele>100</ele>
						<time>2021-05-24T16:34:15Z</time>
					</trkpt>
					<trkpt lat="47.860540" lon="1.683750">
						<ele>99</ele>
						<time>2021-05-24T16:34:25Z</time>
					</trkpt>
					<trkpt lat="47.860840" lon="1.684680">
						<ele>98</ele>
						<time>2021-05-24T16:34:38Z</time>
					</trkpt>
					<trkpt lat="47.861160" lon="1.685450">
						<ele>98</ele>
						<time>2021-05-24T16:34:48Z</time>
					</trkpt>
					<trkpt lat="47.861650" lon="1.686350">
						<ele>97</ele>
						<time>2021-05-24T16:35:02Z</time>
					</trkpt>
					<trkpt lat="47.862090" lon="1.686950">
						<ele>99</ele>
						<time>2021-05-24T16:35:13Z</time>
					</trkpt>
					<trkpt lat="47.864570" lon="1.687020">
						<ele>101</ele>
						<time>2021-05-24T16:35:57Z</time>
					</trkpt>
					<trkpt lat="47.865650" lon="1.688150">
						<ele>103</ele>
						<time>2021-05-24T16:36:20Z</time>
					</trkpt>
					<trkpt lat="47.865640" lon="1.688390">
						<ele>104</ele>
						<time>2021-05-24T16:36:23Z</time>
					</trkpt>
					<trkpt lat="47.864660" lon="1.689380">
						<ele>105</ele>
						<time>2021-05-24T16:36:44Z</time>
					</trkpt>
					<trkpt lat="47.864970" lon="1.694980">
						<ele>100</ele>
						<time>2021-05-24T16:37:51Z</time>
					</trkpt>
					<trkpt lat="47.866400" lon="1.693840">
						<ele>100</ele>
						<time>2021-05-24T16:38:20Z</time>
					</trkpt>
					<trkpt lat="47.867320" lon="1.693020">
						<ele>99</ele>
						<time>2021-05-24T16:38:39Z</time>
					</trkpt>
					<trkpt lat="47.867540" lon="1.692620">
						<ele>99</ele>
						<time>2021-05-24T16:38:46Z</time>
					</trkpt>
					<trkpt lat="47.868080" lon="1.692020">
						<ele>99</ele>
						<time>2021-05-24T16:38:58Z</time>
					</trkpt>
					<trkpt lat="47.868730" lon="1.690490">
						<ele>101</ele>
						<time>2021-05-24T16:39:19Z</time>
					</trkpt>
					<trkpt lat="47.868960" lon="1.690130">
						<ele>101</ele>
						<time>2021-05-24T16:39:25Z</time>
					</trkpt>
					<trkpt lat="47.869190" lon="1.690060">
						<ele>101</ele>
						<time>2021-05-24T16:39:29Z</time>
					</trkpt>
					<trkpt lat="47.869380" lon="1.690380">
						<ele>100</ele>
						<time>2021-05-24T16:39:34Z</time>
					</trkpt>
					<trkpt lat="47.869590" lon="1.690870">
						<ele>100</ele>
						<time>2021-05-24T16:39:41Z</time>
					</trkpt>
					<trkpt lat="47.870560" lon="1.692510">
						<ele>100</ele>
						<time>2021-05-24T16:40:07Z</time>
					</trkpt>
					<trkpt lat="47.870950" lon="1.693320">
						<ele>100</ele>
						<time>2021-05-24T16:40:19Z</time>
					</trkpt>
					<trkpt lat="47.871390" lon="1.694120">
						<ele>99</ele>
						<time>2021-05-24T16:40:32Z</time>
					</trkpt>
					<trkpt lat="47.871870" lon="1.694910">
						<ele>99</ele>
						<time>2021-05-24T16:40:44Z</time>
					</trkpt>
					<trkpt lat="47.871910" lon="1.695680">
						<ele>100</ele>
						<time>2021-05-24T16:40:54Z</time>
					</trkpt>
					<trkpt lat="47.873740" lon="1.695880">
						<ele>100</ele>
						<time>2021-05-24T16:41:26Z</time>
					</trkpt>
					<trkpt lat="47.874660" lon="1.696180">
						<ele>100</ele>
						<time>2021-05-24T16:41:43Z</time>
					</trkpt>
					<trkpt lat="47.875740" lon="1.696760">
						<ele>99</ele>
						<time>2021-05-24T16:42:03Z</time>
					</trkpt>
					<trkpt lat="47.878980" lon="1.699160">
						<ele>101</ele>
						<time>2021-05-24T16:43:08Z</time>
					</trkpt>
					<trkpt lat="47.879860" lon="1.699500">
						<ele>102</ele>
						<time>2021-05-24T16:43:24Z</time>
					</trkpt>
					<trkpt lat="47.882600" lon="1.700410">
						<ele>101</ele>
						<time>2021-05-24T16:44:14Z</time>
					</trkpt>
					<trkpt lat="47.883740" lon="1.700830">
						<ele>101</ele>
						<time>2021-05-24T16:44:35Z</time>
					</trkpt>
					<trkpt lat="47.884680" lon="1.701500">
						<ele>102</ele>
						<time>2021-05-24T16:44:53Z</time>
					</trkpt>
					<trkpt lat="47.885440" lon="1.702270">
						<ele>103</ele>
						<time>2021-05-24T16:45:10Z</time>
					</trkpt>
					<trkpt lat="47.886560" lon="1.703280">
						<ele>105</ele>
						<time>2021-05-24T16:45:33Z</time>
					</trkpt>
					<trkpt lat="47.887640" lon="1.704200">
						<ele>103</ele>
						<time>2021-05-24T16:45:55Z</time>
					</trkpt>
					<trkpt lat="47.888450" lon="1.705040">
						<ele>104</ele>
						<time>2021-05-24T16:46:13Z</time>
					</trkpt>
					<trkpt lat="47.888920" lon="1.705230">
						<ele>105</ele>
						<time>2021-05-24T16:46:21Z</time>
					</trkpt>
					<trkpt lat="47.889400" lon="1.705360">
						<ele>105</ele>
						<time>2021-05-24T16:46:30Z</time>
					</trkpt>
					<trkpt lat="47.890430" lon="1.706070">
						<ele>105</ele>
						<time>2021-05-24T16:46:50Z</time>
					</trkpt>
					<trkpt lat="47.891020" lon="1.706330">
						<ele>106</ele>
						<time>2021-05-24T16:47:01Z</time>
					</trkpt>
					<trkpt lat="47.891450" lon="1.706460">
						<ele>106</ele>
						<time>2021-05-24T16:47:09Z</time>
					</trkpt>
					<trkpt lat="47.891740" lon="1.706600">
						<ele>107</ele>
						<time>2021-05-24T16:47:14Z</time>
					</trkpt>
					<trkpt lat="47.891280" lon="1.708380">
						<ele>108</ele>
						<time>2021-05-24T16:47:37Z</time>
					</trkpt>
					<trkpt lat="47.891610" lon="1.708730">
						<ele>108</ele>
						<time>2021-05-24T16:47:44Z</time>
					</trkpt>
					<trkpt lat="47.891760" lon="1.709030">
						<ele>107</ele>
						<time>2021-05-24T16:47:49Z</time>
					</trkpt>
					<trkpt lat="47.891820" lon="1.709360">
						<ele>106</ele>
						<time>2021-05-24T16:47:53Z</time>
					</trkpt>
					<trkpt lat="47.891910" lon="1.710900">
						<ele>107</ele>
						<time>2021-05-24T16:48:11Z</time>
					</trkpt>
					<trkpt lat="47.891880" lon="1.712230">
						<ele>105</ele>
						<time>2021-05-24T16:48:27Z</time>
					</trkpt>
					<trkpt lat="47.891730" lon="1.714420">
						<ele>106</ele>
						<time>2021-05-24T16:48:53Z</time>
					</trkpt>
					<trkpt lat="47.891730" lon="1.715750">
						<ele>105</ele>
						<time>2021-05-24T16:49:09Z</time>
					</trkpt>
					<trkpt lat="47.891470" lon="1.718320">
						<ele>107</ele>
						<time>2021-05-24T16:49:40Z</time>
					</trkpt>
					<trkpt lat="47.891580" lon="1.722080">
						<ele>106</ele>
						<time>2021-05-24T16:50:25Z</time>
					</trkpt>
					<trkpt lat="47.891650" lon="1.723390">
						<ele>107</ele>
						<time>2021-05-24T16:50:41Z</time>
					</trkpt>
					<trkpt lat="47.891660" lon="1.724220">
						<ele>107</ele>
						<time>2021-05-24T16:50:51Z</time>
					</trkpt>
					<trkpt lat="47.891630" lon="1.724870">
						<ele>107</ele>
						<time>2021-05-24T16:50:59Z</time>
					</trkpt>
					<trkpt lat="47.891660" lon="1.725310">
						<ele>108</ele>
						<time>2021-05-24T16:51:04Z</time>
					</trkpt>
					<trkpt lat="47.891610" lon="1.725870">
						<ele>109</ele>
						<time>2021-05-24T16:51:11Z</time>
					</trkpt>
					<trkpt lat="47.891600" lon="1.726470">
						<ele>110</ele>
						<time>2021-05-24T16:51:18Z</time>
					</trkpt>
					<trkpt lat="47.891680" lon="1.728310">
						<ele>111</ele>
						<time>2021-05-24T16:51:40Z</time>
					</trkpt>
					<trkpt lat="47.891660" lon="1.729710">
						<ele>111</ele>
						<time>2021-05-24T16:51:57Z</time>
					</trkpt>
					<trkpt lat="47.891690" lon="1.730190">
						<ele>110</ele>
						<time>2021-05-24T16:52:02Z</time>
					</trkpt>
					<trkpt lat="47.891980" lon="1.732390">
						<ele>111</ele>
						<time>2021-05-24T16:52:29Z</time>
					</trkpt>
					<trkpt lat="47.892150" lon="1.733880">
						<ele>115</ele>
						<time>2021-05-24T16:52:47Z</time>
					</trkpt>
					<trkpt lat="47.892210" lon="1.734980">
						<ele>115</ele>
						<time>2021-05-24T16:53:00Z</time>
					</trkpt>
					<trkpt lat="47.892020" lon="1.740270">
						<ele>112</ele>
						<time>2021-05-24T16:54:03Z</time>
					</trkpt>
					<trkpt lat="47.892140" lon="1.740910">
						<ele>113</ele>
						<time>2021-05-24T16:54:11Z</time>
					</trkpt>
					<trkpt lat="47.892210" lon="1.741550">
						<ele>114</ele>
						<time>2021-05-24T16:54:19Z</time>
					</trkpt>
					<trkpt lat="47.892170" lon="1.742080">
						<ele>114</ele>
						<time>2021-05-24T16:54:25Z</time>
					</trkpt>
					<trkpt lat="47.891750" lon="1.745770">
						<ele>109</ele>
						<time>2021-05-24T16:55:10Z</time>
					</trkpt>
					<trkpt lat="47.891540" lon="1.748920">
						<ele>100</ele>
						<time>2021-05-24T16:55:48Z</time>
					</trkpt>
					<trkpt lat="47.891530" lon="1.749420">
						<ele>100</ele>
						<time>2021-05-24T16:55:54Z</time>
					</trkpt>
					<trkpt lat="47.891670" lon="1.750480">
						<ele>98</ele>
						<time>2021-05-24T16:56:07Z</time>
					</trkpt>
					<trkpt lat="47.894490" lon="1.762140">
						<ele>106</ele>
						<time>2021-05-24T16:58:35Z</time>
					</trkpt>
					<trkpt lat="47.894510" lon="1.762520">
						<ele>105</ele>
						<time>2021-05-24T16:58:39Z</time>
					</trkpt>
					<trkpt lat="47.894440" lon="1.762950">
						<ele>105</ele>
						<time>2021-05-24T16:58:44Z</time>
					</trkpt>
					<trkpt lat="47.894120" lon="1.763500">
						<ele>105</ele>
						<time>2021-05-24T16:58:53Z</time>
					</trkpt>
					<trkpt lat="47.893890" lon="1.763670">
						<ele>105</ele>
						<time>2021-05-24T16:58:58Z</time>
					</trkpt>
					<trkpt lat="47.893620" lon="1.763800">
						<ele>105</ele>
						<time>2021-05-24T16:59:03Z</time>
					</trkpt>
					<trkpt lat="47.892910" lon="1.764040">
						<ele>108</ele>
						<time>2021-05-24T16:59:16Z</time>
					</trkpt>
					<trkpt lat="47.890340" lon="1.765870">
						<ele>109</ele>
						<time>2021-05-24T17:00:06Z</time>
					</trkpt>
					<trkpt lat="47.889550" lon="1.766320">
						<ele>109</ele>
						<time>2021-05-24T17:00:21Z</time>
					</trkpt>
					<trkpt lat="47.888910" lon="1.766720">
						<ele>109</ele>
						<time>2021-05-24T17:00:34Z</time>
					</trkpt>
					<trkpt lat="47.888640" lon="1.766850">
						<ele>109</ele>
						<time>2021-05-24T17:00:39Z</time>
					</trkpt>
					<trkpt lat="47.888020" lon="1.767390">
						<ele>110</ele>
						<time>2021-05-24T17:00:52Z</time>
					</trkpt>
					<trkpt lat="47.887430" lon="1.768000">
						<ele>114</ele>
						<time>2021-05-24T17:01:04Z</time>
					</trkpt>
					<trkpt lat="47.886750" lon="1.768910">
						<ele>114</ele>
						<time>2021-05-24T17:01:21Z</time>
					</trkpt>
					<trkpt lat="47.885830" lon="1.770320">
						<ele>112</ele>
						<time>2021-05-24T17:01:44Z</time>
					</trkpt>
					<trkpt lat="47.885490" lon="1.770990">
						<ele>111</ele>
						<time>2021-05-24T17:01:54Z</time>
					</trkpt>
					<trkpt lat="47.885180" lon="1.771390">
						<ele>110</ele>
						<time>2021-05-24T17:02:01Z</time>
					</trkpt>
					<trkpt lat="47.884970" lon="1.771540">
						<ele>109</ele>
						<time>2021-05-24T17:02:06Z</time>
					</trkpt>
					<trkpt lat="47.883990" lon="1.772560">
						<ele>109</ele>
						<time>2021-05-24T17:02:27Z</time>
					</trkpt>
					<trkpt lat="47.884240" lon="1.773130">
						<ele>109</ele>
						<time>2021-05-24T17:02:35Z</time>
					</trkpt>
					<trkpt lat="47.884510" lon="1.773670">
						<ele>108</ele>
						<time>2021-05-24T17:02:43Z</time>
					</trkpt>
					<trkpt lat="47.885680" lon="1.777170">
						<ele>108</ele>
						<time>2021-05-24T17:03:30Z</time>
					</trkpt>
					<trkpt lat="47.885970" lon="1.777940">
						<ele>108</ele>
						<time>2021-05-24T17:03:40Z</time>
					</trkpt>
					<trkpt lat="47.886380" lon="1.778830">
						<ele>109</ele>
						<time>2021-05-24T17:03:53Z</time>
					</trkpt>
					<trkpt lat="47.886560" lon="1.779380">
						<ele>109</ele>
						<time>2021-05-24T17:04:00Z</time>
					</trkpt>
					<trkpt lat="47.887070" lon="1.780630">
						<ele>110</ele>
						<time>2021-05-24T17:04:18Z</time>
					</trkpt>
					<trkpt lat="47.887340" lon="1.781490">
						<ele>110</ele>
						<time>2021-05-24T17:04:29Z</time>
					</trkpt>
					<trkpt lat="47.887810" lon="1.782840">
						<ele>111</ele>
						<time>2021-05-24T17:04:47Z</time>
					</trkpt>
					<trkpt lat="47.888780" lon="1.784870">
						<ele>111</ele>
						<time>2021-05-24T17:05:17Z</time>
					</trkpt>
					<trkpt lat="47.889470" lon="1.786660">
						<ele>112</ele>
						<time>2021-05-24T17:05:42Z</time>
					</trkpt>
					<trkpt lat="47.889760" lon="1.787570">
						<ele>111</ele>
						<time>2021-05-24T17:05:54Z</time>
					</trkpt>
					<trkpt lat="47.890360" lon="1.789180">
						<ele>110</ele>
						<time>2021-05-24T17:06:16Z</time>
					</trkpt>
					<trkpt lat="47.890610" lon="1.789700">
						<ele>110</ele>
						<time>2021-05-24T17:06:23Z</time>
					</trkpt>
					<trkpt lat="47.890860" lon="1.790340">
						<ele>110</ele>
						<time>2021-05-24T17:06:32Z</time>
					</trkpt>
					<trkpt lat="47.891710" lon="1.791970">
						<ele>110</ele>
						<time>2021-05-24T17:06:57Z</time>
					</trkpt>
					<trkpt lat="47.892260" lon="1.793580">
						<ele>112</ele>
						<time>2021-05-24T17:07:18Z</time>
					</trkpt>
					<trkpt lat="47.893140" lon="1.796460">
						<ele>113</ele>
						<time>2021-05-24T17:07:56Z</time>
					</trkpt>
					<trkpt lat="47.893790" lon="1.798860">
						<ele>113</ele>
						<time>2021-05-24T17:08:27Z</time>
					</trkpt>
					<trkpt lat="47.894020" lon="1.800120">
						<ele>114</ele>
						<time>2021-05-24T17:08:43Z</time>
					</trkpt>
					<trkpt lat="47.894200" lon="1.801910">
						<ele>113</ele>
						<time>2021-05-24T17:09:04Z</time>
					</trkpt>
					<trkpt lat="47.894570" lon="1.806280">
						<ele>111</ele>
						<time>2021-05-24T17:09:57Z</time>
					</trkpt>
					<trkpt lat="47.894680" lon="1.806960">
						<ele>111</ele>
						<time>2021-05-24T17:10:05Z</time>
					</trkpt>
					<trkpt lat="47.894910" lon="1.808040">
						<ele>112</ele>
						<time>2021-05-24T17:10:19Z</time>
					</trkpt>
					<trkpt lat="47.895300" lon="1.809410">
						<ele>111</ele>
						<time>2021-05-24T17:10:36Z</time>
					</trkpt>
					<trkpt lat="47.895450" lon="1.809310">
						<ele>110</ele>
						<time>2021-05-24T17:10:39Z</time>
					</trkpt>
					<trkpt lat="47.895830" lon="1.808980">
						<ele>110</ele>
						<time>2021-05-24T17:10:47Z</time>
					</trkpt>
					<trkpt lat="47.896180" lon="1.808850">
						<ele>110</ele>
						<time>2021-05-24T17:10:53Z</time>
					</trkpt>
					<trkpt lat="47.896750" lon="1.808970">
						<ele>109</ele>
						<time>2021-05-24T17:11:04Z</time>
					</trkpt>
					<trkpt lat="47.898510" lon="1.809210">
						<ele>104</ele>
						<time>2021-05-24T17:11:35Z</time>
					</trkpt>
					<trkpt lat="47.900430" lon="1.809210">
						<ele>106</ele>
						<time>2021-05-24T17:12:09Z</time>
					</trkpt>
					<trkpt lat="47.901830" lon="1.809320">
						<ele>107</ele>
						<time>2021-05-24T17:12:34Z</time>
					</trkpt>
					<trkpt lat="47.902140" lon="1.809080">
						<ele>108</ele>
						<time>2021-05-24T17:12:40Z</time>
					</trkpt>
					<trkpt lat="47.902330" lon="1.808340">
						<ele>109</ele>
						<time>2021-05-24T17:12:50Z</time>
					</trkpt>
					<trkpt lat="47.902390" lon="1.807760">
						<ele>109</ele>
						<time>2021-05-24T17:12:57Z</time>
					</trkpt>
					<trkpt lat="47.901470" lon="1.804790">
						<ele>109</ele>
						<time>2021-05-24T17:13:36Z</time>
					</trkpt>
					<trkpt lat="47.901510" lon="1.804560">
						<ele>109</ele>
						<time>2021-05-24T17:13:39Z</time>
					</trkpt>
					<trkpt lat="47.901760" lon="1.804350">
						<ele>109</ele>
						<time>2021-05-24T17:13:44Z</time>
					</trkpt>
					<trkpt lat="47.903350" lon="1.803340">
						<ele>109</ele>
						<time>2021-05-24T17:14:15Z</time>
					</trkpt>
					<trkpt lat="47.903690" lon="1.803280">
						<ele>109</ele>
						<time>2021-05-24T17:14:21Z</time>
					</trkpt>
					<trkpt lat="47.904050" lon="1.803350">
						<ele>108</ele>
						<time>2021-05-24T17:14:27Z</time>
					</trkpt>
					<trkpt lat="47.904630" lon="1.803530">
						<ele>108</ele>
						<time>2021-05-24T17:14:38Z</time>
					</trkpt>
					<trkpt lat="47.905880" lon="1.803610">
						<ele>109</ele>
						<time>2021-05-24T17:15:00Z</time>
					</trkpt>
					<trkpt lat="47.906580" lon="1.803800">
						<ele>110</ele>
						<time>2021-05-24T17:15:13Z</time>
					</trkpt>
					<trkpt lat="47.907160" lon="1.803880">
						<ele>109</ele>
						<time>2021-05-24T17:15:23Z</time>
					</trkpt>
					<trkpt lat="47.907730" lon="1.803850">
						<ele>108</ele>
						<time>2021-05-24T17:15:33Z</time>
					</trkpt>
					<trkpt lat="47.909180" lon="1.803710">
						<ele>108</ele>
						<time>2021-05-24T17:15:59Z</time>
					</trkpt>
					<trkpt lat="47.909540" lon="1.803700">
						<ele>108</ele>
						<time>2021-05-24T17:16:05Z</time>
					</trkpt>
					<trkpt lat="47.910590" lon="1.803450">
						<ele>109</ele>
						<time>2021-05-24T17:16:24Z</time>
					</trkpt>
					<trkpt lat="47.911890" lon="1.803330">
						<ele>112</ele>
						<time>2021-05-24T17:16:48Z</time>
					</trkpt>
					<trkpt lat="47.911980" lon="1.803620">
						<ele>112</ele>
						<time>2021-05-24T17:16:51Z</time>
					</trkpt>
					<trkpt lat="47.912470" lon="1.803480">
						<ele>113</ele>
						<time>2021-05-24T17:17:00Z</time>
					</trkpt>
					<trkpt lat="47.913650" lon="1.803000">
						<ele>114</ele>
						<time>2021-05-24T17:17:22Z</time>
					</trkpt>
					<trkpt lat="47.914360" lon="1.802680">
						<ele>116</ele>
						<time>2021-05-24T17:17:35Z</time>
					</trkpt>
					<trkpt lat="47.914830" lon="1.802690">
						<ele>117</ele>
						<time>2021-05-24T17:17:44Z</time>
					</trkpt>
					<trkpt lat="47.915330" lon="1.802840">
						<ele>117</ele>
						<time>2021-05-24T17:17:53Z</time>
					</trkpt>
					<trkpt lat="47.916250" lon="1.803170">
						<ele>116</ele>
						<time>2021-05-24T17:18:09Z</time>
					</trkpt>
					<trkpt lat="47.917430" lon="1.803410">
						<ele>116</ele>
						<time>2021-05-24T17:18:31Z</time>
					</trkpt>
					<trkpt lat="47.918270" lon="1.803160">
						<ele>115</ele>
						<time>2021-05-24T17:18:46Z</time>
					</trkpt>
					<trkpt lat="47.918690" lon="1.802870">
						<ele>117</ele>
						<time>2021-05-24T17:18:54Z</time>
					</trkpt>
					<trkpt lat="47.919650" lon="1.802370">
						<ele>120</ele>
						<time>2021-05-24T17:19:12Z</time>
					</trkpt>
					<trkpt lat="47.919810" lon="1.802990">
						<ele>119</ele>
						<time>2021-05-24T17:19:20Z</time>
					</trkpt>
					<trkpt lat="47.919940" lon="1.804620">
						<ele>118</ele>
						<time>2021-05-24T17:19:40Z</time>
					</trkpt>
					<trkpt lat="47.919940" lon="1.805370">
						<ele>117</ele>
						<time>2021-05-24T17:19:49Z</time>
					</trkpt>
					<trkpt lat="47.920010" lon="1.805710">
						<ele>117</ele>
						<time>2021-05-24T17:19:53Z</time>
					</trkpt>
					<trkpt lat="47.919990" lon="1.806860">
						<ele>119</ele>
						<time>2021-05-24T17:20:07Z</time>
					</trkpt>
					<trkpt lat="47.920020" lon="1.808390">
						<ele>121</ele>
						<time>2021-05-24T17:20:25Z</time>
					</trkpt>
					<trkpt lat="47.920020" lon="1.810110">
						<ele>123</ele>
						<time>2021-05-24T17:20:45Z</time>
					</trkpt>
					<trkpt lat="47.919990" lon="1.811400">
						<ele>121</ele>
						<time>2021-05-24T17:21:01Z</time>
					</trkpt>
					<trkpt lat="47.919650" lon="1.813500">
						<ele>118</ele>
						<time>2021-05-24T17:21:27Z</time>
					</trkpt>
					<trkpt lat="47.919760" lon="1.814490">
						<ele>118</ele>
						<time>2021-05-24T17:21:38Z</time>
					</trkpt>
					<trkpt lat="47.919850" lon="1.816200">
						<ele>119</ele>
						<time>2021-05-24T17:21:59Z</time>
					</trkpt>
					<trkpt lat="47.920940" lon="1.815900">
						<ele>122</ele>
						<time>2021-05-24T17:22:19Z</time>
					</trkpt>
					<trkpt lat="47.922620" lon="1.815900">
						<ele>122</ele>
						<time>2021-05-24T17:22:49Z</time>
					</trkpt>
					<trkpt lat="47.923340" lon="1.816460">
						<ele>124</ele>
						<time>2021-05-24T17:23:03Z</time>
					</trkpt>
					<trkpt lat="47.924620" lon="1.816140">
						<ele>125</ele>
						<time>2021-05-24T17:23:26Z</time>
					</trkpt>
					<trkpt lat="47.924910" lon="1.817350">
						<ele>128</ele>
						<time>2021-05-24T17:23:41Z</time>
					</trkpt>
					<trkpt lat="47.924920" lon="1.818040">
						<ele>128</ele>
						<time>2021-05-24T17:23:50Z</time>
					</trkpt>
					<trkpt lat="47.924590" lon="1.818940">
						<ele>128</ele>
						<time>2021-05-24T17:24:02Z</time>
					</trkpt>
					<trkpt lat="47.924390" lon="1.819350">
						<ele>128</ele>
						<time>2021-05-24T17:24:08Z</time>
					</trkpt>
					<trkpt lat="47.924980" lon="1.819950">
						<ele>130</ele>
						<time>2021-05-24T17:24:21Z</time>
					</trkpt>
					<trkpt lat="47.925860" lon="1.819770">
						<ele>130</ele>
						<time>2021-05-24T17:24:36Z</time>
					</trkpt>
					<trkpt lat="47.926430" lon="1.819600">
						<ele>128</ele>
						<time>2021-05-24T17:24:47Z</time>
					</trkpt>
					<trkpt lat="47.928790" lon="1.817780">
						<ele>122</ele>
						<time>2021-05-24T17:25:34Z</time>
					</trkpt>
					<trkpt lat="47.930140" lon="1.817050">
						<ele>119</ele>
						<time>2021-05-24T17:26:00Z</time>
					</trkpt>
					<trkpt lat="47.930790" lon="1.817050">
						<ele>118</ele>
						<time>2021-05-24T17:26:11Z</time>
					</trkpt>
					<trkpt lat="47.931440" lon="1.817140">
						<ele>118</ele>
						<time>2021-05-24T17:26:23Z</time>
					</trkpt>
					<trkpt lat="47.932030" lon="1.816880">
						<ele>117</ele>
						<time>2021-05-24T17:26:34Z</time>
					</trkpt>
					<trkpt lat="47.933900" lon="1.815380">
						<ele>116</ele>
						<time>2021-05-24T17:27:11Z</time>
					</trkpt>
					<trkpt lat="47.934500" lon="1.815050">
						<ele>116</ele>
						<time>2021-05-24T17:27:23Z</time>
					</trkpt>
					<trkpt lat="47.935080" lon="1.814650">
						<ele>115</ele>
						<time>2021-05-24T17:27:34Z</time>
					</trkpt>
					<trkpt lat="47.935740" lon="1.814070">
						<ele>115</ele>
						<time>2021-05-24T17:27:48Z</time>
					</trkpt>
					<trkpt lat="47.936440" lon="1.813230">
						<ele>116</ele>
						<time>2021-05-24T17:28:04Z</time>
					</trkpt>
					<trkpt lat="47.936540" lon="1.813740">
						<ele>117</ele>
						<time>2021-05-24T17:28:10Z</time>
					</trkpt>
					<trkpt lat="47.936940" lon="1.814240">
						<ele>117</ele>
						<time>2021-05-24T17:28:19Z</time>
					</trkpt>
					<trkpt lat="47.937420" lon="1.813960">
						<ele>116</ele>
						<time>2021-05-24T17:28:29Z</time>
					</trkpt>
					<trkpt lat="47.938340" lon="1.813080">
						<ele>117</ele>
						<time>2021-05-24T17:28:48Z</time>
					</trkpt>
					<trkpt lat="47.938730" lon="1.812990">
						<ele>117</ele>
						<time>2021-05-24T17:28:55Z</time>
					</trkpt>
					<trkpt lat="47.938940" lon="1.813470">
						<ele>116</ele>
						<time>2021-05-24T17:29:02Z</time>
					</trkpt>
					<trkpt lat="47.939370" lon="1.813790">
						<ele>116</ele>
						<time>2021-05-24T17:29:10Z</time>
					</trkpt>
					<trkpt lat="47.939890" lon="1.813490">
						<ele>116</ele>
						<time>2021-05-24T17:29:20Z</time>
					</trkpt>
					<trkpt lat="47.940340" lon="1.813320">
						<ele>115</ele>
						<time>2021-05-24T17:29:29Z</time>
					</trkpt>
					<trkpt lat="47.940520" lon="1.813960">
						<ele>114</ele>
						<time>2021-05-24T17:29:37Z</time>
					</trkpt>
					<trkpt lat="47.941490" lon="1.812480">
						<ele>116</ele>
						<time>2021-05-24T17:30:02Z</time>
					</trkpt>
					<trkpt lat="47.942060" lon="1.813530">
						<ele>116</ele>
						<time>2021-05-24T17:30:18Z</time>
					</trkpt>
					</trkseg>
				</trk>
			</gpx>
