<?xml version="1.0" encoding="UTF-8"?>
<gpx version="1.0" creator="Calcul itineraires - www.calculitineraires.fr" xmlns:xsi="http://www.w3.org/2001/XMLSchema-instance" xmlns="http://www.topografix.com/GPX/1/0" xsi:schemaLocation="http://www.topografix.com/GPX/1/0 http://www.topografix.com/GPX/1/0/gpx.xsd">
<trk>
<name>A72 - 110km - Départ Châteaudun au pied du château</name>
<trkseg>
<trkpt lat="48.07124010185088" lon="1.323830828244517">
</trkpt>
<trkpt lat="48.07106804379902" lon="1.322629620515632">
</trkpt>
<trkpt lat="48.071727596540455" lon="1.32252220233664">
</trkpt>
<trkpt lat="48.072831611559124" lon="1.3220072311875966">
</trkpt>
<trkpt lat="48.07472415362793" lon="1.3207199266425553">
</trkpt>
<trkpt lat="48.07372054150283" lon="1.3191323704698732">
</trkpt>
<trkpt lat="48.073261740868794" lon="1.3180596686096946">
</trkpt>
<trkpt lat="48.073118364831736" lon="1.3155711238811298">
</trkpt>
<trkpt lat="48.07280293614395" lon="1.3138979577112766">
</trkpt>
<trkpt lat="48.07243015429286" lon="1.3123941421508791">
</trkpt>
<trkpt lat="48.07222942448522" lon="1.3108500335779152">
</trkpt>
<trkpt lat="48.072000018032" lon="1.3090903227183672">
</trkpt>
<trkpt lat="48.072000018032" lon="1.306987289104913">
</trkpt>
<trkpt lat="48.07248750552265" lon="1.3043694011790354">
</trkpt>
<trkpt lat="48.07303233901773" lon="1.3029963308546757">
</trkpt>
<trkpt lat="48.072774260712826" lon="1.3016659941288158">
</trkpt>
<trkpt lat="48.07300366371444" lon="1.2992631762340425">
</trkpt>
<trkpt lat="48.07303233901773" lon="1.2974181669414577">
</trkpt>
<trkpt lat="48.07254485668853" lon="1.2960018956723964">
</trkpt>
<trkpt lat="48.07099635277428" lon="1.292784556020381">
</trkpt>
<trkpt lat="48.070164729588605" lon="1.2914528691831386">
</trkpt>
<trkpt lat="48.06898896353292" lon="1.2904660369569632">
</trkpt>
<trkpt lat="48.06749770940805" lon="1.2896506324345804">
</trkpt>
<trkpt lat="48.06747" lon="1.28787">
</trkpt>
<trkpt lat="48.06724" lon="1.28676">
</trkpt>
<trkpt lat="48.06712" lon="1.28547">
</trkpt>
<trkpt lat="48.06712" lon="1.28405">
</trkpt>
<trkpt lat="48.06701" lon="1.28246">
</trkpt>
<trkpt lat="48.06626" lon="1.27783">
</trkpt>
<trkpt lat="48.06606" lon="1.27616">
</trkpt>
<trkpt lat="48.06638" lon="1.27161">
</trkpt>
<trkpt lat="48.06666" lon="1.27109">
</trkpt>
<trkpt lat="48.06652" lon="1.27002">
</trkpt>
<trkpt lat="48.06652" lon="1.26912">
</trkpt>
<trkpt lat="48.06864" lon="1.2341">
</trkpt>
<trkpt lat="48.0691" lon="1.22672">
</trkpt>
<trkpt lat="48.06922" lon="1.22491">
</trkpt>
<trkpt lat="48.07168" lon="1.19981">
</trkpt>
<trkpt lat="48.07257" lon="1.19535">
</trkpt>
<trkpt lat="48.08014" lon="1.15565">
</trkpt>
<trkpt lat="48.08034" lon="1.15436">
</trkpt>
<trkpt lat="48.08149" lon="1.1411">
</trkpt>
<trkpt lat="48.08126" lon="1.1399">
</trkpt>
<trkpt lat="48.07934" lon="1.13698">
</trkpt>
<trkpt lat="48.07942" lon="1.13612">
</trkpt>
<trkpt lat="48.07988" lon="1.13375">
</trkpt>
<trkpt lat="48.07968" lon="1.13349">
</trkpt>
<trkpt lat="48.07984" lon="1.13302">
</trkpt>
<trkpt lat="48.07993" lon="1.13244">
</trkpt>
<trkpt lat="48.07984" lon="1.13188">
</trkpt>
<trkpt lat="48.07964" lon="1.13201">
</trkpt>
<trkpt lat="48.07958" lon="1.13285">
</trkpt>
<trkpt lat="48.07941" lon="1.13328">
</trkpt>
<trkpt lat="48.07894" lon="1.13313">
</trkpt>
<trkpt lat="48.07813" lon="1.13229">
</trkpt>
<trkpt lat="48.07679" lon="1.13066">
</trkpt>
<trkpt lat="48.07633" lon="1.12896">
</trkpt>
<trkpt lat="48.07596" lon="1.1278">
</trkpt>
<trkpt lat="48.0757" lon="1.12711">
</trkpt>
<trkpt lat="48.07596" lon="1.12557">
</trkpt>
<trkpt lat="48.07587" lon="1.12471">
</trkpt>
<trkpt lat="48.0755" lon="1.12402">
</trkpt>
<trkpt lat="48.07478" lon="1.12411">
</trkpt>
<trkpt lat="48.07423" lon="1.12389">
</trkpt>
<trkpt lat="48.07102" lon="1.1184">
</trkpt>
<trkpt lat="48.06844" lon="1.11145">
</trkpt>
<trkpt lat="48.065" lon="1.10788">
</trkpt>
<trkpt lat="48.06253" lon="1.1072">
</trkpt>
<trkpt lat="48.0617" lon="1.10715">
</trkpt>
<trkpt lat="48.06035" lon="1.10638">
</trkpt>
<trkpt lat="48.05961" lon="1.10612">
</trkpt>
<trkpt lat="48.05883" lon="1.10604">
</trkpt>
<trkpt lat="48.05777" lon="1.10488">
</trkpt>
<trkpt lat="48.05708" lon="1.10376">
</trkpt>
<trkpt lat="48.05576" lon="1.10256">
</trkpt>
<trkpt lat="48.05427" lon="1.10222">
</trkpt>
<trkpt lat="48.05381" lon="1.10162">
</trkpt>
<trkpt lat="48.05327" lon="1.10097">
</trkpt>
<trkpt lat="48.05063" lon="1.09982">
</trkpt>
<trkpt lat="48.04882" lon="1.0969">
</trkpt>
<trkpt lat="48.04822" lon="1.09643">
</trkpt>
<trkpt lat="48.04753" lon="1.09531">
</trkpt>
<trkpt lat="48.04733" lon="1.09441">
</trkpt>
<trkpt lat="48.04618" lon="1.09291">
</trkpt>
<trkpt lat="48.04432" lon="1.09201">
</trkpt>
<trkpt lat="48.03958" lon="1.07797">
</trkpt>
<trkpt lat="48.03937" lon="1.07692">
</trkpt>
<trkpt lat="48.03951" lon="1.07667">
</trkpt>
<trkpt lat="48.03935" lon="1.0764">
</trkpt>
<trkpt lat="48.039" lon="1.07582">
</trkpt>
<trkpt lat="48.03895" lon="1.07528">
</trkpt>
<trkpt lat="48.03905" lon="1.07412">
</trkpt>
<trkpt lat="48.03887" lon="1.07303">
</trkpt>
<trkpt lat="48.03871" lon="1.07172">
</trkpt>
<trkpt lat="48.03875" lon="1.07">
</trkpt>
<trkpt lat="48.03864" lon="1.06841">
</trkpt>
<trkpt lat="48.03862" lon="1.06715">
</trkpt>
<trkpt lat="48.03938" lon="1.06268">
</trkpt>
<trkpt lat="48.03935" lon="1.06185">
</trkpt>
<trkpt lat="48.03921" lon="1.06095">
</trkpt>
<trkpt lat="48.03884" lon="1.05936">
</trkpt>
<trkpt lat="48.03865" lon="1.05571">
</trkpt>
<trkpt lat="48.03872" lon="1.05423">
</trkpt>
<trkpt lat="48.03805" lon="1.05028">
</trkpt>
<trkpt lat="48.03726" lon="1.04815">
</trkpt>
<trkpt lat="48.037" lon="1.04677">
</trkpt>
<trkpt lat="48.03582" lon="1.04291">
</trkpt>
<trkpt lat="48.03462" lon="1.04059">
</trkpt>
<trkpt lat="48.03393" lon="1.03892">
</trkpt>
<trkpt lat="48.03324" lon="1.03798">
</trkpt>
<trkpt lat="48.03278" lon="1.03566">
</trkpt>
<trkpt lat="48.03258" lon="1.03446">
</trkpt>
<trkpt lat="48.03169" lon="1.03094">
</trkpt>
<trkpt lat="48.03149" lon="1.02879">
</trkpt>
<trkpt lat="48.03149" lon="1.02647">
</trkpt>
<trkpt lat="48.03141" lon="1.0257">
</trkpt>
<trkpt lat="48.0308" lon="1.02429">
</trkpt>
<trkpt lat="48.03026" lon="1.02287">
</trkpt>
<trkpt lat="48.02991" lon="1.02154">
</trkpt>
<trkpt lat="48.02943" lon="1.0172">
</trkpt>
<trkpt lat="48.02902" lon="1.01493">
</trkpt>
<trkpt lat="48.02894" lon="1.01407">
</trkpt>
<trkpt lat="48.02868" lon="1.01304">
</trkpt>
<trkpt lat="48.02831" lon="1.01184">
</trkpt>
<trkpt lat="48.02788" lon="1.01068">
</trkpt>
<trkpt lat="48.0271" lon="1.00686">
</trkpt>
<trkpt lat="48.02719" lon="1.00519">
</trkpt>
<trkpt lat="48.02693" lon="1.0033">
</trkpt>
<trkpt lat="48.02644" lon="1.00021">
</trkpt>
<trkpt lat="48.02575" lon="0.99725">
</trkpt>
<trkpt lat="48.02463" lon="0.99515">
</trkpt>
<trkpt lat="48.02446" lon="0.9942">
</trkpt>
<trkpt lat="48.02314" lon="0.99012">
</trkpt>
<trkpt lat="48.02274" lon="0.98802">
</trkpt>
<trkpt lat="48.02219" lon="0.98463">
</trkpt>
<trkpt lat="48.02216" lon="0.98309">
</trkpt>
<trkpt lat="48.02202" lon="0.98103">
</trkpt>
<trkpt lat="48.02225" lon="0.98004">
</trkpt>
<trkpt lat="48.02242" lon="0.97828">
</trkpt>
<trkpt lat="48.02222" lon="0.97725">
</trkpt>
<trkpt lat="48.02179" lon="0.97549">
</trkpt>
<trkpt lat="48.02142" lon="0.97442">
</trkpt>
<trkpt lat="48.02096" lon="0.97313">
</trkpt>
<trkpt lat="48.02053" lon="0.97171">
</trkpt>
<trkpt lat="48.02013" lon="0.9709">
</trkpt>
<trkpt lat="48.01895" lon="0.96995">
</trkpt>
<trkpt lat="48.01883" lon="0.96918">
</trkpt>
<trkpt lat="48.01717" lon="0.9645">
</trkpt>
<trkpt lat="48.01677" lon="0.96369">
</trkpt>
<trkpt lat="48.01608" lon="0.9627">
</trkpt>
<trkpt lat="48.01525" lon="0.95974">
</trkpt>
<trkpt lat="48.01476" lon="0.95871">
</trkpt>
<trkpt lat="48.01358" lon="0.95618">
</trkpt>
<trkpt lat="48.01289" lon="0.95515">
</trkpt>
<trkpt lat="48.01252" lon="0.95425">
</trkpt>
<trkpt lat="48.012" lon="0.95322">
</trkpt>
<trkpt lat="48.01151" lon="0.95253">
</trkpt>
<trkpt lat="48.01088" lon="0.95189">
</trkpt>
<trkpt lat="48.00999" lon="0.95047">
</trkpt>
<trkpt lat="48.00873" lon="0.94781">
</trkpt>
<trkpt lat="48.00543" lon="0.93429">
</trkpt>
<trkpt lat="48.00474" lon="0.93348">
</trkpt>
<trkpt lat="48.00422" lon="0.93245">
</trkpt>
<trkpt lat="48.00393" lon="0.9303">
</trkpt>
<trkpt lat="48.00356" lon="0.92854">
</trkpt>
<trkpt lat="48.00247" lon="0.92923">
</trkpt>
<trkpt lat="48.00181" lon="0.92966">
</trkpt>
<trkpt lat="48.00063" lon="0.92918">
</trkpt>
<trkpt lat="47.9992" lon="0.92927">
</trkpt>
<trkpt lat="47.99879" lon="0.92903">
</trkpt>
<trkpt lat="47.99848" lon="0.92781">
</trkpt>
<trkpt lat="47.99845" lon="0.92685">
</trkpt>
<trkpt lat="47.99831" lon="0.92628">
</trkpt>
<trkpt lat="47.99805" lon="0.92565">
</trkpt>
<trkpt lat="47.99762" lon="0.92514">
</trkpt>
<trkpt lat="47.99724" lon="0.9246">
</trkpt>
<trkpt lat="47.99675" lon="0.9242">
</trkpt>
<trkpt lat="47.99638" lon="0.92379">
</trkpt>
<trkpt lat="47.99604" lon="0.92299">
</trkpt>
<trkpt lat="47.99553" lon="0.92059">
</trkpt>
<trkpt lat="47.99516" lon="0.91922">
</trkpt>
<trkpt lat="47.99433" lon="0.91671">
</trkpt>
<trkpt lat="47.99339" lon="0.91486">
</trkpt>
<trkpt lat="47.99295" lon="0.91392">
</trkpt>
<trkpt lat="47.99108" lon="0.91132">
</trkpt>
<trkpt lat="47.98957" lon="0.91025">
</trkpt>
<trkpt lat="47.98924" lon="0.90969">
</trkpt>
<trkpt lat="47.98812" lon="0.90647">
</trkpt>
<trkpt lat="47.98695" lon="0.9037">
</trkpt>
<trkpt lat="47.98652" lon="0.90338">
</trkpt>
<trkpt lat="47.98518" lon="0.90227">
</trkpt>
<trkpt lat="47.98489" lon="0.90194">
</trkpt>
<trkpt lat="47.9844" lon="0.90083">
</trkpt>
<trkpt lat="47.9841" lon="0.90044">
</trkpt>
<trkpt lat="47.98218" lon="0.89918">
</trkpt>
<trkpt lat="47.98212" lon="0.89815">
</trkpt>
<trkpt lat="47.98119" lon="0.89862">
</trkpt>
<trkpt lat="47.98051" lon="0.89757">
</trkpt>
<trkpt lat="47.98035" lon="0.89679">
</trkpt>
<trkpt lat="47.98018" lon="0.8957">
</trkpt>
<trkpt lat="47.98015" lon="0.8951">
</trkpt>
<trkpt lat="47.98054" lon="0.89456">
</trkpt>
<trkpt lat="47.98067" lon="0.89306">
</trkpt>
<trkpt lat="47.97775" lon="0.89332">
</trkpt>
<trkpt lat="47.9775" lon="0.89306">
</trkpt>
<trkpt lat="47.97711" lon="0.89194">
</trkpt>
<trkpt lat="47.97685" lon="0.89145">
</trkpt>
<trkpt lat="47.97623" lon="0.89137">
</trkpt>
<trkpt lat="47.97169" lon="0.89285">
</trkpt>
<trkpt lat="47.96941" lon="0.89347">
</trkpt>
<trkpt lat="47.96853" lon="0.89332">
</trkpt>
<trkpt lat="47.96643" lon="0.89186">
</trkpt>
<trkpt lat="47.96393" lon="0.89109">
</trkpt>
<trkpt lat="47.9612" lon="0.88858">
</trkpt>
<trkpt lat="47.95343" lon="0.8839">
</trkpt>
<trkpt lat="47.95208" lon="0.88182">
</trkpt>
<trkpt lat="47.94688" lon="0.87791">
</trkpt>
<trkpt lat="47.94445" lon="0.87493">
</trkpt>
<trkpt lat="47.944" lon="0.87446">
</trkpt>
<trkpt lat="47.93684" lon="0.8692">
</trkpt>
<trkpt lat="47.9365" lon="0.86875">
</trkpt>
<trkpt lat="47.93216" lon="0.85793">
</trkpt>
<trkpt lat="47.92977" lon="0.85507">
</trkpt>
<trkpt lat="47.92899" lon="0.85477">
</trkpt>
<trkpt lat="47.92744" lon="0.85434">
</trkpt>
<trkpt lat="47.92494" lon="0.85342">
</trkpt>
<trkpt lat="47.92359" lon="0.85281">
</trkpt>
<trkpt lat="47.92334" lon="0.85311">
</trkpt>
<trkpt lat="47.92342" lon="0.85429">
</trkpt>
<trkpt lat="47.92356" lon="0.85617">
</trkpt>
<trkpt lat="47.92365" lon="0.85757">
</trkpt>
<trkpt lat="47.92373" lon="0.85841">
</trkpt>
<trkpt lat="47.92465" lon="0.8606">
</trkpt>
<trkpt lat="47.92495" lon="0.86199">
</trkpt>
<trkpt lat="47.92513" lon="0.86341">
</trkpt>
<trkpt lat="47.92521" lon="0.86448">
</trkpt>
<trkpt lat="47.92557" lon="0.86636">
</trkpt>
<trkpt lat="47.92572" lon="0.86827">
</trkpt>
<trkpt lat="47.92547" lon="0.86958">
</trkpt>
<trkpt lat="47.92553" lon="0.87023">
</trkpt>
<trkpt lat="47.92572" lon="0.87128">
</trkpt>
<trkpt lat="47.92592" lon="0.87201">
</trkpt>
<trkpt lat="47.92638" lon="0.87295">
</trkpt>
<trkpt lat="47.92651" lon="0.87334">
</trkpt>
<trkpt lat="47.92656" lon="0.87377">
</trkpt>
<trkpt lat="47.92631" lon="0.87435">
</trkpt>
<trkpt lat="47.92593" lon="0.87484">
</trkpt>
<trkpt lat="47.92546" lon="0.87504">
</trkpt>
<trkpt lat="47.92537" lon="0.87534">
</trkpt>
<trkpt lat="47.92527" lon="0.87572">
</trkpt>
<trkpt lat="47.9249" lon="0.87607">
</trkpt>
<trkpt lat="47.92449" lon="0.87628">
</trkpt>
<trkpt lat="47.92435" lon="0.87665">
</trkpt>
<trkpt lat="47.92432" lon="0.87815">
</trkpt>
<trkpt lat="47.92465" lon="0.87969">
</trkpt>
<trkpt lat="47.92472" lon="0.88268">
</trkpt>
<trkpt lat="47.92488" lon="0.88343">
</trkpt>
<trkpt lat="47.92543" lon="0.88506">
</trkpt>
<trkpt lat="47.9255" lon="0.88598">
</trkpt>
<trkpt lat="47.92557" lon="0.88714">
</trkpt>
<trkpt lat="47.92589" lon="0.88864">
</trkpt>
<trkpt lat="47.92597" lon="0.88937">
</trkpt>
<trkpt lat="47.92586" lon="0.89267">
</trkpt>
<trkpt lat="47.92593" lon="0.89334">
</trkpt>
<trkpt lat="47.9262" lon="0.89428">
</trkpt>
<trkpt lat="47.92652" lon="0.89553">
</trkpt>
<trkpt lat="47.92678" lon="0.89699">
</trkpt>
<trkpt lat="47.9272" lon="0.89866">
</trkpt>
<trkpt lat="47.92751" lon="0.90134">
</trkpt>
<trkpt lat="47.92773" lon="0.90235">
</trkpt>
<trkpt lat="47.92816" lon="0.90355">
</trkpt>
<trkpt lat="47.92846" lon="0.90506">
</trkpt>
<trkpt lat="47.92876" lon="0.90709">
</trkpt>
<trkpt lat="47.93022" lon="0.91051">
</trkpt>
<trkpt lat="47.93033" lon="0.91132">
</trkpt>
<trkpt lat="47.93033" lon="0.9122">
</trkpt>
<trkpt lat="47.93017" lon="0.91317">
</trkpt>
<trkpt lat="47.92991" lon="0.91583">
</trkpt>
<trkpt lat="47.92986" lon="0.9172">
</trkpt>
<trkpt lat="47.9299" lon="0.91875">
</trkpt>
<trkpt lat="47.9301" lon="0.91963">
</trkpt>
<trkpt lat="47.93079" lon="0.92186">
</trkpt>
<trkpt lat="47.93098" lon="0.9228">
</trkpt>
<trkpt lat="47.93089" lon="0.92325">
</trkpt>
<trkpt lat="47.93056" lon="0.92417">
</trkpt>
<trkpt lat="47.93105" lon="0.92576">
</trkpt>
<trkpt lat="47.93127" lon="0.92664">
</trkpt>
<trkpt lat="47.93129" lon="0.92812">
</trkpt>
<trkpt lat="47.93124" lon="0.93008">
</trkpt>
<trkpt lat="47.93128" lon="0.93113">
</trkpt>
<trkpt lat="47.9317" lon="0.93233">
</trkpt>
<trkpt lat="47.93197" lon="0.93355">
</trkpt>
<trkpt lat="47.93204" lon="0.93467">
</trkpt>
<trkpt lat="47.93257" lon="0.9354">
</trkpt>
<trkpt lat="47.93289" lon="0.93625">
</trkpt>
<trkpt lat="47.93377" lon="0.93952">
</trkpt>
<trkpt lat="47.9348" lon="0.941">
</trkpt>
<trkpt lat="47.93503" lon="0.94203">
</trkpt>
<trkpt lat="47.93559" lon="0.94683">
</trkpt>
<trkpt lat="47.93574" lon="0.94831">
</trkpt>
<trkpt lat="47.9361" lon="0.94988">
</trkpt>
<trkpt lat="47.93627" lon="0.95132">
</trkpt>
<trkpt lat="47.93663" lon="0.95458">
</trkpt>
<trkpt lat="47.9366" lon="0.95692">
</trkpt>
<trkpt lat="47.93696" lon="0.95864">
</trkpt>
<trkpt lat="47.93727" lon="0.95945">
</trkpt>
<trkpt lat="47.94025" lon="0.96539">
</trkpt>
<trkpt lat="47.9406" lon="0.96638">
</trkpt>
<trkpt lat="47.94048" lon="0.96915">
</trkpt>
<trkpt lat="47.94097" lon="0.96975">
</trkpt>
<trkpt lat="47.94228" lon="0.97097">
</trkpt>
<trkpt lat="47.94269" lon="0.97209">
</trkpt>
<trkpt lat="47.94475" lon="0.97835">
</trkpt>
<trkpt lat="47.94497" lon="0.97941">
</trkpt>
<trkpt lat="47.9455" lon="0.98765">
</trkpt>
<trkpt lat="47.94693" lon="0.9973">
</trkpt>
<trkpt lat="47.94695" lon="0.9981">
</trkpt>
<trkpt lat="47.9465" lon="0.99998">
</trkpt>
<trkpt lat="47.94537" lon="1.00282">
</trkpt>
<trkpt lat="47.94478" lon="1.0032">
</trkpt>
<trkpt lat="47.94439" lon="1.00359">
</trkpt>
<trkpt lat="47.94419" lon="1.00434">
</trkpt>
<trkpt lat="47.94419" lon="1.00501">
</trkpt>
<trkpt lat="47.94482" lon="1.00679">
</trkpt>
<trkpt lat="47.94864" lon="1.01732">
</trkpt>
<trkpt lat="47.9488" lon="1.01887">
</trkpt>
<trkpt lat="47.94882" lon="1.02054">
</trkpt>
<trkpt lat="47.9489" lon="1.02161">
</trkpt>
<trkpt lat="47.9491" lon="1.02282">
</trkpt>
<trkpt lat="47.94908" lon="1.02354">
</trkpt>
<trkpt lat="47.949" lon="1.02466">
</trkpt>
<trkpt lat="47.94908" lon="1.02539">
</trkpt>
<trkpt lat="47.94942" lon="1.02854">
</trkpt>
<trkpt lat="47.94975" lon="1.03005">
</trkpt>
<trkpt lat="47.94994" lon="1.03241">
</trkpt>
<trkpt lat="47.95024" lon="1.0335">
</trkpt>
<trkpt lat="47.9503" lon="1.03451">
</trkpt>
<trkpt lat="47.95011" lon="1.03511">
</trkpt>
<trkpt lat="47.94982" lon="1.03597">
</trkpt>
<trkpt lat="47.94987" lon="1.03672">
</trkpt>
<trkpt lat="47.95005" lon="1.0376">
</trkpt>
<trkpt lat="47.95012" lon="1.03822">
</trkpt>
<trkpt lat="47.94974" lon="1.0382">
</trkpt>
<trkpt lat="47.94916" lon="1.03844">
</trkpt>
<trkpt lat="47.94889" lon="1.0385">
</trkpt>
<trkpt lat="47.94918" lon="1.03942">
</trkpt>
<trkpt lat="47.94956" lon="1.04028">
</trkpt>
<trkpt lat="47.94997" lon="1.0405">
</trkpt>
<trkpt lat="47.9504" lon="1.04041">
</trkpt>
<trkpt lat="47.95063" lon="1.04075">
</trkpt>
<trkpt lat="47.9507" lon="1.04148">
</trkpt>
<trkpt lat="47.95077" lon="1.04341">
</trkpt>
<trkpt lat="47.95081" lon="1.04438">
</trkpt>
<trkpt lat="47.95115" lon="1.0461">
</trkpt>
<trkpt lat="47.95126" lon="1.04809">
</trkpt>
<trkpt lat="47.95132" lon="1.04929">
</trkpt>
<trkpt lat="47.9515" lon="1.05153">
</trkpt>
<trkpt lat="47.95221" lon="1.05307">
</trkpt>
<trkpt lat="47.9529" lon="1.05483">
</trkpt>
<trkpt lat="47.95563" lon="1.06047">
</trkpt>
<trkpt lat="47.95643" lon="1.0618">
</trkpt>
<trkpt lat="47.95695" lon="1.0626">
</trkpt>
<trkpt lat="47.95718" lon="1.06326">
</trkpt>
<trkpt lat="47.95757" lon="1.06483">
</trkpt>
<trkpt lat="47.95766" lon="1.06599">
</trkpt>
<trkpt lat="47.95806" lon="1.07077">
</trkpt>
<trkpt lat="47.95814" lon="1.07204">
</trkpt>
<trkpt lat="47.95852" lon="1.07354">
</trkpt>
<trkpt lat="47.95856" lon="1.07429">
</trkpt>
<trkpt lat="47.95847" lon="1.07792">
</trkpt>
<trkpt lat="47.95803" lon="1.07876">
</trkpt>
<trkpt lat="47.95801" lon="1.08054">
</trkpt>
<trkpt lat="47.95816" lon="1.08137">
</trkpt>
<trkpt lat="47.95865" lon="1.08191">
</trkpt>
<trkpt lat="47.95975" lon="1.08264">
</trkpt>
<trkpt lat="47.95964" lon="1.08371">
</trkpt>
<trkpt lat="47.95965" lon="1.08526">
</trkpt>
<trkpt lat="47.95974" lon="1.08745">
</trkpt>
<trkpt lat="47.96004" lon="1.09062">
</trkpt>
<trkpt lat="47.96017" lon="1.09197">
</trkpt>
<trkpt lat="47.9609" lon="1.09395">
</trkpt>
<trkpt lat="47.96086" lon="1.09453">
</trkpt>
<trkpt lat="47.96044" lon="1.09631">
</trkpt>
<trkpt lat="47.96036" lon="1.09712">
</trkpt>
<trkpt lat="47.96047" lon="1.0988">
</trkpt>
<trkpt lat="47.96047" lon="1.09972">
</trkpt>
<trkpt lat="47.96021" lon="1.10296">
</trkpt>
<trkpt lat="47.96005" lon="1.10418">
</trkpt>
<trkpt lat="47.9598" lon="1.10564">
</trkpt>
<trkpt lat="47.95849" lon="1.1115">
</trkpt>
<trkpt lat="47.95793" lon="1.11221">
</trkpt>
<trkpt lat="47.95761" lon="1.11274">
</trkpt>
<trkpt lat="47.95727" lon="1.11463">
</trkpt>
<trkpt lat="47.95737" lon="1.11583">
</trkpt>
<trkpt lat="47.95776" lon="1.11912">
</trkpt>
<trkpt lat="47.95768" lon="1.1206">
</trkpt>
<trkpt lat="47.95771" lon="1.12143">
</trkpt>
<trkpt lat="47.9581" lon="1.12311">
</trkpt>
<trkpt lat="47.95797" lon="1.12461">
</trkpt>
<trkpt lat="47.9578" lon="1.12573">
</trkpt>
<trkpt lat="47.95855" lon="1.1265">
</trkpt>
<trkpt lat="47.95954" lon="1.12783">
</trkpt>
<trkpt lat="47.96007" lon="1.12903">
</trkpt>
<trkpt lat="47.9605" lon="1.13021">
</trkpt>
<trkpt lat="47.96066" lon="1.1312">
</trkpt>
<trkpt lat="47.96074" lon="1.13206">
</trkpt>
<trkpt lat="47.96083" lon="1.13281">
</trkpt>
<trkpt lat="47.96155" lon="1.1354">
</trkpt>
<trkpt lat="47.9623" lon="1.13691">
</trkpt>
<trkpt lat="47.96373" lon="1.13841">
</trkpt>
<trkpt lat="47.96447" lon="1.13935">
</trkpt>
<trkpt lat="47.96493" lon="1.14047">
</trkpt>
<trkpt lat="47.96513" lon="1.14137">
</trkpt>
<trkpt lat="47.9658" lon="1.14527">
</trkpt>
<trkpt lat="47.96589" lon="1.14641">
</trkpt>
<trkpt lat="47.96566" lon="1.14815">
</trkpt>
<trkpt lat="47.96574" lon="1.14894">
</trkpt>
<trkpt lat="47.96613" lon="1.15051">
</trkpt>
<trkpt lat="47.96629" lon="1.15182">
</trkpt>
<trkpt lat="47.96648" lon="1.15377">
</trkpt>
<trkpt lat="47.96674" lon="1.15727">
</trkpt>
<trkpt lat="47.96835" lon="1.16214">
</trkpt>
<trkpt lat="47.96879" lon="1.16392">
</trkpt>
<trkpt lat="47.96672" lon="1.16557">
</trkpt>
<trkpt lat="47.96631" lon="1.16615">
</trkpt>
<trkpt lat="47.9659" lon="1.16699">
</trkpt>
<trkpt lat="47.96399" lon="1.17154">
</trkpt>
<trkpt lat="47.9587" lon="1.18381">
</trkpt>
<trkpt lat="47.95836" lon="1.18398">
</trkpt>
<trkpt lat="47.95656" lon="1.18424">
</trkpt>
<trkpt lat="47.95344" lon="1.18519">
</trkpt>
<trkpt lat="47.94814" lon="1.18692">
</trkpt>
<trkpt lat="47.9479" lon="1.18729">
</trkpt>
<trkpt lat="47.94771" lon="1.18832">
</trkpt>
<trkpt lat="47.94777" lon="1.18926">
</trkpt>
<trkpt lat="47.94749" lon="1.19027">
</trkpt>
<trkpt lat="47.94762" lon="1.19109">
</trkpt>
<trkpt lat="47.94771" lon="1.19162">
</trkpt>
<trkpt lat="47.94761" lon="1.19205">
</trkpt>
<trkpt lat="47.94558" lon="1.19557">
</trkpt>
<trkpt lat="47.94479" lon="1.19652">
</trkpt>
<trkpt lat="47.94051" lon="1.2007">
</trkpt>
<trkpt lat="47.93946" lon="1.20458">
</trkpt>
<trkpt lat="47.93909" lon="1.20527">
</trkpt>
<trkpt lat="47.93857" lon="1.20586">
</trkpt>
<trkpt lat="47.93782" lon="1.20663">
</trkpt>
<trkpt lat="47.93736" lon="1.20728">
</trkpt>
<trkpt lat="47.93647" lon="1.20753">
</trkpt>
<trkpt lat="47.93541" lon="1.20792">
</trkpt>
<trkpt lat="47.93382" lon="1.20802">
</trkpt>
<trkpt lat="47.93309" lon="1.20795">
</trkpt>
<trkpt lat="47.93019" lon="1.20731">
</trkpt>
<trkpt lat="47.92954" lon="1.20731">
</trkpt>
<trkpt lat="47.92806" lon="1.2075">
</trkpt>
<trkpt lat="47.92475" lon="1.20714">
</trkpt>
<trkpt lat="47.92431" lon="1.20716">
</trkpt>
<trkpt lat="47.92353" lon="1.20757">
</trkpt>
<trkpt lat="47.92301" lon="1.20819">
</trkpt>
<trkpt lat="47.92251" lon="1.209">
</trkpt>
<trkpt lat="47.92208" lon="1.20993">
</trkpt>
<trkpt lat="47.92123" lon="1.211">
</trkpt>
<trkpt lat="47.91815" lon="1.21443">
</trkpt>
<trkpt lat="47.91792" lon="1.21512">
</trkpt>
<trkpt lat="47.91773" lon="1.21647">
</trkpt>
<trkpt lat="47.91766" lon="1.21791">
</trkpt>
<trkpt lat="47.91738" lon="1.21947">
</trkpt>
<trkpt lat="47.91704" lon="1.22072">
</trkpt>
<trkpt lat="47.91599" lon="1.22385">
</trkpt>
<trkpt lat="47.91535" lon="1.22454">
</trkpt>
<trkpt lat="47.91489" lon="1.22525">
</trkpt>
<trkpt lat="47.91407" lon="1.22628">
</trkpt>
<trkpt lat="47.91256" lon="1.2278">
</trkpt>
<trkpt lat="47.91089" lon="1.22885">
</trkpt>
<trkpt lat="47.90925" lon="1.22971">
</trkpt>
<trkpt lat="47.90814" lon="1.23031">
</trkpt>
<trkpt lat="47.90709" lon="1.23089">
</trkpt>
<trkpt lat="47.90614" lon="1.23128">
</trkpt>
<trkpt lat="47.90488" lon="1.2316">
</trkpt>
<trkpt lat="47.90344" lon="1.23196">
</trkpt>
<trkpt lat="47.90295" lon="1.23207">
</trkpt>
<trkpt lat="47.90283" lon="1.23256">
</trkpt>
<trkpt lat="47.90295" lon="1.23349">
</trkpt>
<trkpt lat="47.90312" lon="1.2346">
</trkpt>
<trkpt lat="47.90325" lon="1.23525">
</trkpt>
<trkpt lat="47.90358" lon="1.23621">
</trkpt>
<trkpt lat="47.90367" lon="1.2372">
</trkpt>
<trkpt lat="47.9037" lon="1.23844">
</trkpt>
<trkpt lat="47.90404" lon="1.23864">
</trkpt>
<trkpt lat="47.90449" lon="1.23889">
</trkpt>
<trkpt lat="47.90528" lon="1.23889">
</trkpt>
<trkpt lat="47.90637" lon="1.23883">
</trkpt>
<trkpt lat="47.90708" lon="1.23857">
</trkpt>
<trkpt lat="47.90831" lon="1.23846">
</trkpt>
<trkpt lat="47.90893" lon="1.23836">
</trkpt>
<trkpt lat="47.90942" lon="1.23853">
</trkpt>
<trkpt lat="47.91053" lon="1.23956">
</trkpt>
<trkpt lat="47.91136" lon="1.24027">
</trkpt>
<trkpt lat="47.91217" lon="1.2411">
</trkpt>
<trkpt lat="47.91371" lon="1.2431">
</trkpt>
<trkpt lat="47.9161" lon="1.24522">
</trkpt>
<trkpt lat="47.91738" lon="1.24685">
</trkpt>
<trkpt lat="47.91876" lon="1.24803">
</trkpt>
<trkpt lat="47.91922" lon="1.2484">
</trkpt>
<trkpt lat="47.92195" lon="1.24906">
</trkpt>
<trkpt lat="47.92252" lon="1.24952">
</trkpt>
<trkpt lat="47.9231" lon="1.25031">
</trkpt>
<trkpt lat="47.92356" lon="1.25145">
</trkpt>
<trkpt lat="47.9239" lon="1.25278">
</trkpt>
<trkpt lat="47.92511" lon="1.25494">
</trkpt>
<trkpt lat="47.92541" lon="1.25574">
</trkpt>
<trkpt lat="47.92569" lon="1.25683">
</trkpt>
<trkpt lat="47.92717" lon="1.2608">
</trkpt>
<trkpt lat="47.9277" lon="1.26183">
</trkpt>
<trkpt lat="47.92934" lon="1.26426">
</trkpt>
<trkpt lat="47.9301" lon="1.26514">
</trkpt>
<trkpt lat="47.93076" lon="1.26574">
</trkpt>
<trkpt lat="47.9319" lon="1.26642">
</trkpt>
<trkpt lat="47.93401" lon="1.2669">
</trkpt>
<trkpt lat="47.93463" lon="1.26679">
</trkpt>
<trkpt lat="47.93531" lon="1.26662">
</trkpt>
<trkpt lat="47.93582" lon="1.2667">
</trkpt>
<trkpt lat="47.93873" lon="1.26737">
</trkpt>
<trkpt lat="47.93923" lon="1.26773">
</trkpt>
<trkpt lat="47.93988" lon="1.26896">
</trkpt>
<trkpt lat="47.94045" lon="1.27016">
</trkpt>
<trkpt lat="47.94088" lon="1.27074">
</trkpt>
<trkpt lat="47.942" lon="1.27162">
</trkpt>
<trkpt lat="47.94555" lon="1.27402">
</trkpt>
<trkpt lat="47.94606" lon="1.27458">
</trkpt>
<trkpt lat="47.94678" lon="1.27565">
</trkpt>
<trkpt lat="47.94794" lon="1.27642">
</trkpt>
<trkpt lat="47.94872" lon="1.27698">
</trkpt>
<trkpt lat="47.94932" lon="1.27775">
</trkpt>
<trkpt lat="47.94988" lon="1.27881">
</trkpt>
<trkpt lat="47.95031" lon="1.27956">
</trkpt>
<trkpt lat="47.95158" lon="1.28091">
</trkpt>
<trkpt lat="47.95204" lon="1.28183">
</trkpt>
<trkpt lat="47.95238" lon="1.28262">
</trkpt>
<trkpt lat="47.95284" lon="1.28316">
</trkpt>
<trkpt lat="47.95313" lon="1.28344">
</trkpt>
<trkpt lat="47.95313" lon="1.2823">
</trkpt>
<trkpt lat="47.95332" lon="1.27769">
</trkpt>
<trkpt lat="47.9533" lon="1.27451">
</trkpt>
<trkpt lat="47.95347" lon="1.27226">
</trkpt>
<trkpt lat="47.95367" lon="1.27035">
</trkpt>
<trkpt lat="47.95389" lon="1.26679">
</trkpt>
<trkpt lat="47.95412" lon="1.26595">
</trkpt>
<trkpt lat="47.95462" lon="1.26421">
</trkpt>
<trkpt lat="47.95497" lon="1.26318">
</trkpt>
<trkpt lat="47.95526" lon="1.26153">
</trkpt>
<trkpt lat="47.95547" lon="1.26065">
</trkpt>
<trkpt lat="47.95577" lon="1.25992">
</trkpt>
<trkpt lat="47.95633" lon="1.25891">
</trkpt>
<trkpt lat="47.95768" lon="1.25745">
</trkpt>
<trkpt lat="47.95784" lon="1.25698">
</trkpt>
<trkpt lat="47.95789" lon="1.25636">
</trkpt>
<trkpt lat="47.95791" lon="1.25582">
</trkpt>
<trkpt lat="47.95801" lon="1.25546">
</trkpt>
<trkpt lat="47.95885" lon="1.25421">
</trkpt>
<trkpt lat="47.95902" lon="1.25376">
</trkpt>
<trkpt lat="47.95972" lon="1.25424">
</trkpt>
<trkpt lat="47.96036" lon="1.25507">
</trkpt>
<trkpt lat="47.9611" lon="1.25604">
</trkpt>
<trkpt lat="47.96208" lon="1.25707">
</trkpt>
<trkpt lat="47.96267" lon="1.25761">
</trkpt>
<trkpt lat="47.96376" lon="1.25823">
</trkpt>
<trkpt lat="47.96445" lon="1.25861">
</trkpt>
<trkpt lat="47.96731" lon="1.25988">
</trkpt>
<trkpt lat="47.96807" lon="1.26046">
</trkpt>
<trkpt lat="47.96919" lon="1.26147">
</trkpt>
<trkpt lat="47.9701" lon="1.26175">
</trkpt>
<trkpt lat="47.97056" lon="1.26179">
</trkpt>
<trkpt lat="47.97113" lon="1.2614">
</trkpt>
<trkpt lat="47.97174" lon="1.26054">
</trkpt>
<trkpt lat="47.97218" lon="1.26027">
</trkpt>
<trkpt lat="47.9735" lon="1.25999">
</trkpt>
<trkpt lat="47.97426" lon="1.25982">
</trkpt>
<trkpt lat="47.97571" lon="1.259">
</trkpt>
<trkpt lat="47.97632" lon="1.25846">
</trkpt>
<trkpt lat="47.97685" lon="1.25806">
</trkpt>
<trkpt lat="47.97747" lon="1.25827">
</trkpt>
<trkpt lat="47.97793" lon="1.25831">
</trkpt>
<trkpt lat="47.97833" lon="1.25846">
</trkpt>
<trkpt lat="47.9788" lon="1.25851">
</trkpt>
<trkpt lat="47.9805" lon="1.25872">
</trkpt>
<trkpt lat="47.98066" lon="1.25883">
</trkpt>
<trkpt lat="47.98226" lon="1.2564">
</trkpt>
<trkpt lat="47.98331" lon="1.25404">
</trkpt>
<trkpt lat="47.98357" lon="1.25353">
</trkpt>
<trkpt lat="47.984" lon="1.25297">
</trkpt>
<trkpt lat="47.98458" lon="1.2513">
</trkpt>
<trkpt lat="47.98541" lon="1.24941">
</trkpt>
<trkpt lat="47.98604" lon="1.24827">
</trkpt>
<trkpt lat="47.98653" lon="1.24765">
</trkpt>
<trkpt lat="47.98682" lon="1.2475">
</trkpt>
<trkpt lat="47.98731" lon="1.24726">
</trkpt>
<trkpt lat="47.98778" lon="1.24713">
</trkpt>
<trkpt lat="47.98835" lon="1.24655">
</trkpt>
<trkpt lat="47.98897" lon="1.24572">
</trkpt>
<trkpt lat="47.98973" lon="1.24516">
</trkpt>
<trkpt lat="47.99024" lon="1.24462">
</trkpt>
<trkpt lat="47.99068" lon="1.24409">
</trkpt>
<trkpt lat="47.991" lon="1.24361">
</trkpt>
<trkpt lat="47.99169" lon="1.24282">
</trkpt>
<trkpt lat="47.99159" lon="1.24231">
</trkpt>
<trkpt lat="47.99159" lon="1.24115">
</trkpt>
<trkpt lat="47.99196" lon="1.23939">
</trkpt>
<trkpt lat="47.99242" lon="1.2387">
</trkpt>
<trkpt lat="47.99515" lon="1.23608">
</trkpt>
<trkpt lat="47.99563" lon="1.23555">
</trkpt>
<trkpt lat="47.9963" lon="1.23407">
</trkpt>
<trkpt lat="47.99585" lon="1.23248">
</trkpt>
<trkpt lat="47.99575" lon="1.23186">
</trkpt>
<trkpt lat="47.99555" lon="1.2307">
</trkpt>
<trkpt lat="47.99622" lon="1.23059">
</trkpt>
<trkpt lat="47.99687" lon="1.23038">
</trkpt>
<trkpt lat="47.99747" lon="1.23033">
</trkpt>
<trkpt lat="47.99796" lon="1.23001">
</trkpt>
<trkpt lat="47.99819" lon="1.22984">
</trkpt>
<trkpt lat="47.99838" lon="1.22988">
</trkpt>
<trkpt lat="47.99944" lon="1.22928">
</trkpt>
<trkpt lat="47.99954" lon="1.22969">
</trkpt>
<trkpt lat="47.9997" lon="1.23003">
</trkpt>
<trkpt lat="47.99997" lon="1.23033">
</trkpt>
<trkpt lat="48.00055" lon="1.23018">
</trkpt>
<trkpt lat="48.00103" lon="1.23003">
</trkpt>
<trkpt lat="48.00138" lon="1.23001">
</trkpt>
<trkpt lat="48.00202" lon="1.22986">
</trkpt>
<trkpt lat="48.00253" lon="1.22982">
</trkpt>
<trkpt lat="48.00319" lon="1.2299">
</trkpt>
<trkpt lat="48.0037" lon="1.23007">
</trkpt>
<trkpt lat="48.00426" lon="1.23025">
</trkpt>
<trkpt lat="48.00497" lon="1.23048">
</trkpt>
<trkpt lat="48.00556" lon="1.23089">
</trkpt>
<trkpt lat="48.0064" lon="1.23143">
</trkpt>
<trkpt lat="48.00721" lon="1.23183">
</trkpt>
<trkpt lat="48.00797" lon="1.23248">
</trkpt>
<trkpt lat="48.00847" lon="1.23271">
</trkpt>
<trkpt lat="48.00969" lon="1.23344">
</trkpt>
<trkpt lat="48.01044" lon="1.23409">
</trkpt>
<trkpt lat="48.01124" lon="1.23488">
</trkpt>
<trkpt lat="48.01197" lon="1.23522">
</trkpt>
<trkpt lat="48.01253" lon="1.23574">
</trkpt>
<trkpt lat="48.01283" lon="1.23574">
</trkpt>
<trkpt lat="48.01308" lon="1.23548">
</trkpt>
<trkpt lat="48.01388" lon="1.23522">
</trkpt>
<trkpt lat="48.01428" lon="1.23527">
</trkpt>
<trkpt lat="48.01466" lon="1.23499">
</trkpt>
<trkpt lat="48.01492" lon="1.23555">
</trkpt>
<trkpt lat="48.01517" lon="1.236">
</trkpt>
<trkpt lat="48.01558" lon="1.23634">
</trkpt>
<trkpt lat="48.01602" lon="1.2366">
</trkpt>
<trkpt lat="48.01629" lon="1.23698">
</trkpt>
<trkpt lat="48.0168" lon="1.23782">
</trkpt>
<trkpt lat="48.01751" lon="1.23872">
</trkpt>
<trkpt lat="48.01822" lon="1.23984">
</trkpt>
<trkpt lat="48.01852" lon="1.24035">
</trkpt>
<trkpt lat="48.01901" lon="1.24091">
</trkpt>
<trkpt lat="48.01918" lon="1.24155">
</trkpt>
<trkpt lat="48.01928" lon="1.24209">
</trkpt>
<trkpt lat="48.01954" lon="1.24261">
</trkpt>
<trkpt lat="48.01998" lon="1.24293">
</trkpt>
<trkpt lat="48.02031" lon="1.24336">
</trkpt>
<trkpt lat="48.02117" lon="1.24482">
</trkpt>
<trkpt lat="48.02185" lon="1.24552">
</trkpt>
<trkpt lat="48.02251" lon="1.24602">
</trkpt>
<trkpt lat="48.02305" lon="1.24623">
</trkpt>
<trkpt lat="48.02341" lon="1.24668">
</trkpt>
<trkpt lat="48.02377" lon="1.24692">
</trkpt>
<trkpt lat="48.02426" lon="1.24696">
</trkpt>
<trkpt lat="48.02594" lon="1.24799">
</trkpt>
<trkpt lat="48.02745" lon="1.25102">
</trkpt>
<trkpt lat="48.02775" lon="1.25175">
</trkpt>
<trkpt lat="48.028" lon="1.25261">
</trkpt>
<trkpt lat="48.02786" lon="1.25327">
</trkpt>
<trkpt lat="48.02778" lon="1.25443">
</trkpt>
<trkpt lat="48.02769" lon="1.25499">
</trkpt>
<trkpt lat="48.02722" lon="1.25482">
</trkpt>
<trkpt lat="48.02716" lon="1.25501">
</trkpt>
<trkpt lat="48.02749" lon="1.25707">
</trkpt>
<trkpt lat="48.02766" lon="1.25853">
</trkpt>
<trkpt lat="48.0277" lon="1.25898">
</trkpt>
<trkpt lat="48.02798" lon="1.2596">
</trkpt>
<trkpt lat="48.02884" lon="1.26087">
</trkpt>
<trkpt lat="48.02961" lon="1.2622">
</trkpt>
<trkpt lat="48.02997" lon="1.26321">
</trkpt>
<trkpt lat="48.0305" lon="1.2646">
</trkpt>
<trkpt lat="48.03075" lon="1.26509">
</trkpt>
<trkpt lat="48.03159" lon="1.26664">
</trkpt>
<trkpt lat="48.03316" lon="1.26756">
</trkpt>
<trkpt lat="48.03397" lon="1.26799">
</trkpt>
<trkpt lat="48.03538" lon="1.26924">
</trkpt>
<trkpt lat="48.03558" lon="1.26936">
</trkpt>
<trkpt lat="48.03588" lon="1.26919">
</trkpt>
<trkpt lat="48.03611" lon="1.26949">
</trkpt>
<trkpt lat="48.03633" lon="1.26992">
</trkpt>
<trkpt lat="48.0363" lon="1.27044">
</trkpt>
<trkpt lat="48.036" lon="1.27106">
</trkpt>
<trkpt lat="48.03582" lon="1.27145">
</trkpt>
<trkpt lat="48.03552" lon="1.2719">
</trkpt>
<trkpt lat="48.03529" lon="1.27215">
</trkpt>
<trkpt lat="48.03535" lon="1.27254">
</trkpt>
<trkpt lat="48.03686" lon="1.27509">
</trkpt>
<trkpt lat="48.03713" lon="1.27522">
</trkpt>
<trkpt lat="48.03763" lon="1.27516">
</trkpt>
<trkpt lat="48.03839" lon="1.27574">
</trkpt>
<trkpt lat="48.03914" lon="1.27653">
</trkpt>
<trkpt lat="48.03983" lon="1.27707">
</trkpt>
<trkpt lat="48.04047" lon="1.2776">
</trkpt>
<trkpt lat="48.04086" lon="1.27823">
</trkpt>
<trkpt lat="48.04125" lon="1.27883">
</trkpt>
<trkpt lat="48.04158" lon="1.27988">
</trkpt>
<trkpt lat="48.04185" lon="1.28037">
</trkpt>
<trkpt lat="48.04222" lon="1.28037">
</trkpt>
<trkpt lat="48.04291" lon="1.28009">
</trkpt>
<trkpt lat="48.04349" lon="1.28011">
</trkpt>
<trkpt lat="48.044" lon="1.28037">
</trkpt>
<trkpt lat="48.04448" lon="1.28102">
</trkpt>
<trkpt lat="48.04501" lon="1.28207">
</trkpt>
<trkpt lat="48.04544" lon="1.28247">
</trkpt>
<trkpt lat="48.04578" lon="1.28275">
</trkpt>
<trkpt lat="48.04627" lon="1.28329">
</trkpt>
<trkpt lat="48.04671" lon="1.28404">
</trkpt>
<trkpt lat="48.04745" lon="1.28529">
</trkpt>
<trkpt lat="48.04806" lon="1.28602">
</trkpt>
<trkpt lat="48.04871" lon="1.28689">
</trkpt>
<trkpt lat="48.0492" lon="1.28756">
</trkpt>
<trkpt lat="48.04953" lon="1.28814">
</trkpt>
<trkpt lat="48.05034" lon="1.28895">
</trkpt>
<trkpt lat="48.05082" lon="1.28923">
</trkpt>
<trkpt lat="48.05188" lon="1.28968">
</trkpt>
<trkpt lat="48.05189" lon="1.29022">
</trkpt>
<trkpt lat="48.051" lon="1.29376">
</trkpt>
<trkpt lat="48.05116" lon="1.29447">
</trkpt>
<trkpt lat="48.05169" lon="1.29571">
</trkpt>
<trkpt lat="48.05267" lon="1.2973">
</trkpt>
<trkpt lat="48.05344" lon="1.29848">
</trkpt>
<trkpt lat="48.0542" lon="1.29923">
</trkpt>
<trkpt lat="48.05478" lon="1.29996">
</trkpt>
<trkpt lat="48.05538" lon="1.30054">
</trkpt>
<trkpt lat="48.05617" lon="1.30108">
</trkpt>
<trkpt lat="48.05675" lon="1.30138">
</trkpt>
<trkpt lat="48.05726" lon="1.30149">
</trkpt>
<trkpt lat="48.0579" lon="1.30194">
</trkpt>
<trkpt lat="48.05929" lon="1.30331">
</trkpt>
<trkpt lat="48.06117" lon="1.30541">
</trkpt>
<trkpt lat="48.06332" lon="1.3076">
</trkpt>
<trkpt lat="48.06533" lon="1.30977">
</trkpt>
<trkpt lat="48.066" lon="1.31043">
</trkpt>
<trkpt lat="48.06691" lon="1.31131">
</trkpt>
<trkpt lat="48.0674" lon="1.31172">
</trkpt>
<trkpt lat="48.0678" lon="1.31219">
</trkpt>
<trkpt lat="48.0685" lon="1.31305">
</trkpt>
<trkpt lat="48.068673509533085" lon="1.314754408192931">
</trkpt>
<trkpt lat="48.06898896353292" lon="1.3165998329043749">
</trkpt>
<trkpt lat="48.069390447645304" lon="1.3184881469963863">
</trkpt>
<trkpt lat="48.06967722009373" lon="1.3202047607659175">
</trkpt>
<trkpt lat="48.069763251516655" lon="1.320912837982178">
</trkpt>
<trkpt lat="48.06997832944471" lon="1.32162079187097">
</trkpt>
<trkpt lat="48.070451497722445" lon="1.3220285785141028">
</trkpt>
<trkpt lat="48.07068091107897" lon="1.3225437184270294">
</trkpt>
</trkseg>
</trk>
</gpx>
