<?xml version="1.0" encoding="UTF-8" ?>
<gpx version="1.1" xmlns:xsi="http://www.w3.org/2001/XMLSchema-instance"
    xmlns="http://www.topografix.com/GPX/1/1"
    xsi:schemaLocation="http://www.topografix.com/GPX/1/1 http://www.topografix.com/GPX/1/1/gpx.xsd"
    creator="Openrunner - https://www.openrunner.com" >	<trk>
						<name>B37bis</name>
						<trkseg>
					<trkpt lat="47.942000" lon="1.813470">
						<ele>116</ele>
						<time>2022-01-27T08:26:38Z</time>
					</trkpt>
					<trkpt lat="47.941480" lon="1.812380">
						<ele>115</ele>
						<time>2022-01-27T08:26:54Z</time>
					</trkpt>
					<trkpt lat="47.940520" lon="1.813870">
						<ele>114</ele>
						<time>2022-01-27T08:27:19Z</time>
					</trkpt>
					<trkpt lat="47.940230" lon="1.813140">
						<ele>115</ele>
						<time>2022-01-27T08:27:29Z</time>
					</trkpt>
					<trkpt lat="47.940060" lon="1.813300">
						<ele>116</ele>
						<time>2022-01-27T08:27:32Z</time>
					</trkpt>
					<trkpt lat="47.939880" lon="1.813540">
						<ele>116</ele>
						<time>2022-01-27T08:27:37Z</time>
					</trkpt>
					<trkpt lat="47.939670" lon="1.813730">
						<ele>116</ele>
						<time>2022-01-27T08:27:41Z</time>
					</trkpt>
					<trkpt lat="47.939450" lon="1.813770">
						<ele>116</ele>
						<time>2022-01-27T08:27:45Z</time>
					</trkpt>
					<trkpt lat="47.939350" lon="1.813770">
						<ele>116</ele>
						<time>2022-01-27T08:27:47Z</time>
					</trkpt>
					<trkpt lat="47.939190" lon="1.813680">
						<ele>116</ele>
						<time>2022-01-27T08:27:50Z</time>
					</trkpt>
					<trkpt lat="47.939110" lon="1.813620">
						<ele>116</ele>
						<time>2022-01-27T08:27:51Z</time>
					</trkpt>
					<trkpt lat="47.938980" lon="1.813460">
						<ele>116</ele>
						<time>2022-01-27T08:27:54Z</time>
					</trkpt>
					<trkpt lat="47.938710" lon="1.812960">
						<ele>117</ele>
						<time>2022-01-27T08:28:02Z</time>
					</trkpt>
					<trkpt lat="47.938540" lon="1.812900">
						<ele>117</ele>
						<time>2022-01-27T08:28:05Z</time>
					</trkpt>
					<trkpt lat="47.938440" lon="1.812950">
						<ele>117</ele>
						<time>2022-01-27T08:28:07Z</time>
					</trkpt>
					<trkpt lat="47.938280" lon="1.813100">
						<ele>117</ele>
						<time>2022-01-27T08:28:10Z</time>
					</trkpt>
					<trkpt lat="47.937320" lon="1.814030">
						<ele>116</ele>
						<time>2022-01-27T08:28:31Z</time>
					</trkpt>
					<trkpt lat="47.937090" lon="1.814140">
						<ele>116</ele>
						<time>2022-01-27T08:28:35Z</time>
					</trkpt>
					<trkpt lat="47.936890" lon="1.814080">
						<ele>117</ele>
						<time>2022-01-27T08:28:39Z</time>
					</trkpt>
					<trkpt lat="47.936720" lon="1.813950">
						<ele>117</ele>
						<time>2022-01-27T08:28:42Z</time>
					</trkpt>
					<trkpt lat="47.936630" lon="1.813810">
						<ele>117</ele>
						<time>2022-01-27T08:28:44Z</time>
					</trkpt>
					<trkpt lat="47.936390" lon="1.813270">
						<ele>116</ele>
						<time>2022-01-27T08:28:52Z</time>
					</trkpt>
					<trkpt lat="47.936340" lon="1.813360">
						<ele>116</ele>
						<time>2022-01-27T08:28:53Z</time>
					</trkpt>
					<trkpt lat="47.935310" lon="1.814500">
						<ele>115</ele>
						<time>2022-01-27T08:29:16Z</time>
					</trkpt>
					<trkpt lat="47.935290" lon="1.814450">
						<ele>115</ele>
						<time>2022-01-27T08:29:17Z</time>
					</trkpt>
					<trkpt lat="47.934560" lon="1.814960">
						<ele>115</ele>
						<time>2022-01-27T08:29:31Z</time>
					</trkpt>
					<trkpt lat="47.934390" lon="1.815000">
						<ele>116</ele>
						<time>2022-01-27T08:29:34Z</time>
					</trkpt>
					<trkpt lat="47.933350" lon="1.815770">
						<ele>116</ele>
						<time>2022-01-27T08:29:55Z</time>
					</trkpt>
					<trkpt lat="47.932300" lon="1.816600">
						<ele>116</ele>
						<time>2022-01-27T08:30:16Z</time>
					</trkpt>
					<trkpt lat="47.932020" lon="1.816860">
						<ele>117</ele>
						<time>2022-01-27T08:30:22Z</time>
					</trkpt>
					<trkpt lat="47.931750" lon="1.817040">
						<ele>117</ele>
						<time>2022-01-27T08:30:27Z</time>
					</trkpt>
					<trkpt lat="47.931410" lon="1.817110">
						<ele>118</ele>
						<time>2022-01-27T08:30:33Z</time>
					</trkpt>
					<trkpt lat="47.930830" lon="1.817060">
						<ele>118</ele>
						<time>2022-01-27T08:30:44Z</time>
					</trkpt>
					<trkpt lat="47.930560" lon="1.817010">
						<ele>118</ele>
						<time>2022-01-27T08:30:49Z</time>
					</trkpt>
					<trkpt lat="47.929990" lon="1.817060">
						<ele>119</ele>
						<time>2022-01-27T08:30:59Z</time>
					</trkpt>
					<trkpt lat="47.928960" lon="1.817590">
						<ele>121</ele>
						<time>2022-01-27T08:31:18Z</time>
					</trkpt>
					<trkpt lat="47.926440" lon="1.819610">
						<ele>128</ele>
						<time>2022-01-27T08:32:09Z</time>
					</trkpt>
					<trkpt lat="47.926340" lon="1.819650">
						<ele>128</ele>
						<time>2022-01-27T08:32:11Z</time>
					</trkpt>
					<trkpt lat="47.925130" lon="1.819930">
						<ele>130</ele>
						<time>2022-01-27T08:32:33Z</time>
					</trkpt>
					<trkpt lat="47.924940" lon="1.819880">
						<ele>130</ele>
						<time>2022-01-27T08:32:36Z</time>
					</trkpt>
					<trkpt lat="47.924790" lon="1.819760">
						<ele>129</ele>
						<time>2022-01-27T08:32:39Z</time>
					</trkpt>
					<trkpt lat="47.924380" lon="1.819360">
						<ele>128</ele>
						<time>2022-01-27T08:32:48Z</time>
					</trkpt>
					<trkpt lat="47.924660" lon="1.818820">
						<ele>128</ele>
						<time>2022-01-27T08:32:56Z</time>
					</trkpt>
					<trkpt lat="47.924920" lon="1.818000">
						<ele>128</ele>
						<time>2022-01-27T08:33:07Z</time>
					</trkpt>
					<trkpt lat="47.924930" lon="1.817610">
						<ele>128</ele>
						<time>2022-01-27T08:33:11Z</time>
					</trkpt>
					<trkpt lat="47.924640" lon="1.816280">
						<ele>125</ele>
						<time>2022-01-27T08:33:28Z</time>
					</trkpt>
					<trkpt lat="47.924610" lon="1.816180">
						<ele>125</ele>
						<time>2022-01-27T08:33:29Z</time>
					</trkpt>
					<trkpt lat="47.924650" lon="1.816120">
						<ele>125</ele>
						<time>2022-01-27T08:33:30Z</time>
					</trkpt>
					<trkpt lat="47.924780" lon="1.816070">
						<ele>124</ele>
						<time>2022-01-27T08:33:33Z</time>
					</trkpt>
					<trkpt lat="47.924650" lon="1.816120">
						<ele>125</ele>
						<time>2022-01-27T08:33:35Z</time>
					</trkpt>
					<trkpt lat="47.924610" lon="1.816180">
						<ele>125</ele>
						<time>2022-01-27T08:33:36Z</time>
					</trkpt>
					<trkpt lat="47.924560" lon="1.816140">
						<ele>125</ele>
						<time>2022-01-27T08:33:37Z</time>
					</trkpt>
					<trkpt lat="47.924490" lon="1.816120">
						<ele>125</ele>
						<time>2022-01-27T08:33:38Z</time>
					</trkpt>
					<trkpt lat="47.924190" lon="1.816180">
						<ele>126</ele>
						<time>2022-01-27T08:33:44Z</time>
					</trkpt>
					<trkpt lat="47.923490" lon="1.816390">
						<ele>124</ele>
						<time>2022-01-27T08:33:57Z</time>
					</trkpt>
					<trkpt lat="47.923340" lon="1.816400">
						<ele>124</ele>
						<time>2022-01-27T08:33:59Z</time>
					</trkpt>
					<trkpt lat="47.923210" lon="1.816350">
						<ele>123</ele>
						<time>2022-01-27T08:34:02Z</time>
					</trkpt>
					<trkpt lat="47.922760" lon="1.816010">
						<ele>122</ele>
						<time>2022-01-27T08:34:11Z</time>
					</trkpt>
					<trkpt lat="47.922460" lon="1.815870">
						<ele>122</ele>
						<time>2022-01-27T08:34:16Z</time>
					</trkpt>
					<trkpt lat="47.922180" lon="1.815800">
						<ele>122</ele>
						<time>2022-01-27T08:34:21Z</time>
					</trkpt>
					<trkpt lat="47.921730" lon="1.815770">
						<ele>123</ele>
						<time>2022-01-27T08:34:29Z</time>
					</trkpt>
					<trkpt lat="47.921180" lon="1.815810">
						<ele>122</ele>
						<time>2022-01-27T08:34:39Z</time>
					</trkpt>
					<trkpt lat="47.920750" lon="1.815910">
						<ele>122</ele>
						<time>2022-01-27T08:34:47Z</time>
					</trkpt>
					<trkpt lat="47.919940" lon="1.816220">
						<ele>119</ele>
						<time>2022-01-27T08:35:02Z</time>
					</trkpt>
					<trkpt lat="47.919800" lon="1.814220">
						<ele>118</ele>
						<time>2022-01-27T08:35:26Z</time>
					</trkpt>
					<trkpt lat="47.919670" lon="1.813220">
						<ele>119</ele>
						<time>2022-01-27T08:35:38Z</time>
					</trkpt>
					<trkpt lat="47.920000" lon="1.811670">
						<ele>121</ele>
						<time>2022-01-27T08:35:57Z</time>
					</trkpt>
					<trkpt lat="47.920030" lon="1.811320">
						<ele>121</ele>
						<time>2022-01-27T08:36:01Z</time>
					</trkpt>
					<trkpt lat="47.920040" lon="1.808630">
						<ele>122</ele>
						<time>2022-01-27T08:36:33Z</time>
					</trkpt>
					<trkpt lat="47.920000" lon="1.807380">
						<ele>121</ele>
						<time>2022-01-27T08:36:48Z</time>
					</trkpt>
					<trkpt lat="47.919980" lon="1.807080">
						<ele>120</ele>
						<time>2022-01-27T08:36:52Z</time>
					</trkpt>
					<trkpt lat="47.920000" lon="1.806860">
						<ele>119</ele>
						<time>2022-01-27T08:36:55Z</time>
					</trkpt>
					<trkpt lat="47.919990" lon="1.805990">
						<ele>117</ele>
						<time>2022-01-27T08:37:05Z</time>
					</trkpt>
					<trkpt lat="47.920020" lon="1.805810">
						<ele>117</ele>
						<time>2022-01-27T08:37:07Z</time>
					</trkpt>
					<trkpt lat="47.920020" lon="1.805660">
						<ele>117</ele>
						<time>2022-01-27T08:37:09Z</time>
					</trkpt>
					<trkpt lat="47.919950" lon="1.805420">
						<ele>117</ele>
						<time>2022-01-27T08:37:12Z</time>
					</trkpt>
					<trkpt lat="47.919940" lon="1.805320">
						<ele>117</ele>
						<time>2022-01-27T08:37:13Z</time>
					</trkpt>
					<trkpt lat="47.919950" lon="1.804980">
						<ele>118</ele>
						<time>2022-01-27T08:37:17Z</time>
					</trkpt>
					<trkpt lat="47.919860" lon="1.803520">
						<ele>119</ele>
						<time>2022-01-27T08:37:35Z</time>
					</trkpt>
					<trkpt lat="47.919690" lon="1.802360">
						<ele>120</ele>
						<time>2022-01-27T08:37:49Z</time>
					</trkpt>
					<trkpt lat="47.918680" lon="1.802860">
						<ele>117</ele>
						<time>2022-01-27T08:38:08Z</time>
					</trkpt>
					<trkpt lat="47.918180" lon="1.803170">
						<ele>116</ele>
						<time>2022-01-27T08:38:18Z</time>
					</trkpt>
					<trkpt lat="47.917650" lon="1.803330">
						<ele>116</ele>
						<time>2022-01-27T08:38:27Z</time>
					</trkpt>
					<trkpt lat="47.917310" lon="1.803360">
						<ele>116</ele>
						<time>2022-01-27T08:38:33Z</time>
					</trkpt>
					<trkpt lat="47.917050" lon="1.803310">
						<ele>115</ele>
						<time>2022-01-27T08:38:38Z</time>
					</trkpt>
					<trkpt lat="47.916250" lon="1.803130">
						<ele>116</ele>
						<time>2022-01-27T08:38:52Z</time>
					</trkpt>
					<trkpt lat="47.915050" lon="1.802720">
						<ele>117</ele>
						<time>2022-01-27T08:39:14Z</time>
					</trkpt>
					<trkpt lat="47.914640" lon="1.802650">
						<ele>117</ele>
						<time>2022-01-27T08:39:22Z</time>
					</trkpt>
					<trkpt lat="47.914460" lon="1.802670">
						<ele>116</ele>
						<time>2022-01-27T08:39:25Z</time>
					</trkpt>
					<trkpt lat="47.914230" lon="1.802720">
						<ele>116</ele>
						<time>2022-01-27T08:39:29Z</time>
					</trkpt>
					<trkpt lat="47.913970" lon="1.802820">
						<ele>115</ele>
						<time>2022-01-27T08:39:34Z</time>
					</trkpt>
					<trkpt lat="47.912860" lon="1.803350">
						<ele>113</ele>
						<time>2022-01-27T08:39:54Z</time>
					</trkpt>
					<trkpt lat="47.912450" lon="1.803490">
						<ele>113</ele>
						<time>2022-01-27T08:40:02Z</time>
					</trkpt>
					<trkpt lat="47.911990" lon="1.803590">
						<ele>112</ele>
						<time>2022-01-27T08:40:10Z</time>
					</trkpt>
					<trkpt lat="47.911970" lon="1.803390">
						<ele>112</ele>
						<time>2022-01-27T08:40:13Z</time>
					</trkpt>
					<trkpt lat="47.911920" lon="1.803280">
						<ele>112</ele>
						<time>2022-01-27T08:40:14Z</time>
					</trkpt>
					<trkpt lat="47.911560" lon="1.803320">
						<ele>111</ele>
						<time>2022-01-27T08:40:21Z</time>
					</trkpt>
					<trkpt lat="47.911000" lon="1.803340">
						<ele>110</ele>
						<time>2022-01-27T08:40:31Z</time>
					</trkpt>
					<trkpt lat="47.909610" lon="1.803650">
						<ele>108</ele>
						<time>2022-01-27T08:40:56Z</time>
					</trkpt>
					<trkpt lat="47.909360" lon="1.803810">
						<ele>108</ele>
						<time>2022-01-27T08:41:00Z</time>
					</trkpt>
					<trkpt lat="47.909260" lon="1.803700">
						<ele>108</ele>
						<time>2022-01-27T08:41:03Z</time>
					</trkpt>
					<trkpt lat="47.909220" lon="1.803690">
						<ele>108</ele>
						<time>2022-01-27T08:41:03Z</time>
					</trkpt>
					<trkpt lat="47.908260" lon="1.803810">
						<ele>108</ele>
						<time>2022-01-27T08:41:21Z</time>
					</trkpt>
					<trkpt lat="47.906950" lon="1.803850">
						<ele>109</ele>
						<time>2022-01-27T08:41:44Z</time>
					</trkpt>
					<trkpt lat="47.905890" lon="1.803610">
						<ele>109</ele>
						<time>2022-01-27T08:42:03Z</time>
					</trkpt>
					<trkpt lat="47.904630" lon="1.803480">
						<ele>108</ele>
						<time>2022-01-27T08:42:25Z</time>
					</trkpt>
					<trkpt lat="47.903790" lon="1.803260">
						<ele>109</ele>
						<time>2022-01-27T08:42:41Z</time>
					</trkpt>
					<trkpt lat="47.903480" lon="1.803270">
						<ele>109</ele>
						<time>2022-01-27T08:42:46Z</time>
					</trkpt>
					<trkpt lat="47.903320" lon="1.803330">
						<ele>109</ele>
						<time>2022-01-27T08:42:49Z</time>
					</trkpt>
					<trkpt lat="47.901620" lon="1.804450">
						<ele>109</ele>
						<time>2022-01-27T08:43:22Z</time>
					</trkpt>
					<trkpt lat="47.901540" lon="1.804510">
						<ele>109</ele>
						<time>2022-01-27T08:43:24Z</time>
					</trkpt>
					<trkpt lat="47.901480" lon="1.804620">
						<ele>109</ele>
						<time>2022-01-27T08:43:25Z</time>
					</trkpt>
					<trkpt lat="47.901470" lon="1.804740">
						<ele>109</ele>
						<time>2022-01-27T08:43:27Z</time>
					</trkpt>
					<trkpt lat="47.901500" lon="1.804870">
						<ele>109</ele>
						<time>2022-01-27T08:43:28Z</time>
					</trkpt>
					<trkpt lat="47.902340" lon="1.807590">
						<ele>110</ele>
						<time>2022-01-27T08:44:04Z</time>
					</trkpt>
					<trkpt lat="47.902370" lon="1.807770">
						<ele>109</ele>
						<time>2022-01-27T08:44:06Z</time>
					</trkpt>
					<trkpt lat="47.902380" lon="1.807890">
						<ele>109</ele>
						<time>2022-01-27T08:44:08Z</time>
					</trkpt>
					<trkpt lat="47.902380" lon="1.807990">
						<ele>109</ele>
						<time>2022-01-27T08:44:09Z</time>
					</trkpt>
					<trkpt lat="47.902330" lon="1.808290">
						<ele>109</ele>
						<time>2022-01-27T08:44:13Z</time>
					</trkpt>
					<trkpt lat="47.902210" lon="1.808840">
						<ele>108</ele>
						<time>2022-01-27T08:44:20Z</time>
					</trkpt>
					<trkpt lat="47.902160" lon="1.808970">
						<ele>108</ele>
						<time>2022-01-27T08:44:21Z</time>
					</trkpt>
					<trkpt lat="47.902120" lon="1.809070">
						<ele>108</ele>
						<time>2022-01-27T08:44:23Z</time>
					</trkpt>
					<trkpt lat="47.902000" lon="1.809220">
						<ele>107</ele>
						<time>2022-01-27T08:44:26Z</time>
					</trkpt>
					<trkpt lat="47.901930" lon="1.809270">
						<ele>107</ele>
						<time>2022-01-27T08:44:27Z</time>
					</trkpt>
					<trkpt lat="47.901850" lon="1.809300">
						<ele>107</ele>
						<time>2022-01-27T08:44:28Z</time>
					</trkpt>
					<trkpt lat="47.901690" lon="1.809310">
						<ele>107</ele>
						<time>2022-01-27T08:44:31Z</time>
					</trkpt>
					<trkpt lat="47.901000" lon="1.809200">
						<ele>106</ele>
						<time>2022-01-27T08:44:44Z</time>
					</trkpt>
					<trkpt lat="47.900210" lon="1.809140">
						<ele>107</ele>
						<time>2022-01-27T08:44:58Z</time>
					</trkpt>
					<trkpt lat="47.899770" lon="1.809150">
						<ele>106</ele>
						<time>2022-01-27T08:45:06Z</time>
					</trkpt>
					<trkpt lat="47.899340" lon="1.809160">
						<ele>105</ele>
						<time>2022-01-27T08:45:13Z</time>
					</trkpt>
					<trkpt lat="47.898530" lon="1.809140">
						<ele>104</ele>
						<time>2022-01-27T08:45:28Z</time>
					</trkpt>
					<trkpt lat="47.897490" lon="1.809060">
						<ele>107</ele>
						<time>2022-01-27T08:45:46Z</time>
					</trkpt>
					<trkpt lat="47.897090" lon="1.809010">
						<ele>108</ele>
						<time>2022-01-27T08:45:53Z</time>
					</trkpt>
					<trkpt lat="47.896860" lon="1.808970">
						<ele>108</ele>
						<time>2022-01-27T08:45:57Z</time>
					</trkpt>
					<trkpt lat="47.896290" lon="1.808820">
						<ele>109</ele>
						<time>2022-01-27T08:46:08Z</time>
					</trkpt>
					<trkpt lat="47.896120" lon="1.808810">
						<ele>110</ele>
						<time>2022-01-27T08:46:11Z</time>
					</trkpt>
					<trkpt lat="47.895930" lon="1.808860">
						<ele>110</ele>
						<time>2022-01-27T08:46:14Z</time>
					</trkpt>
					<trkpt lat="47.895850" lon="1.808910">
						<ele>110</ele>
						<time>2022-01-27T08:46:16Z</time>
					</trkpt>
					<trkpt lat="47.895330" lon="1.809420">
						<ele>111</ele>
						<time>2022-01-27T08:46:27Z</time>
					</trkpt>
					<trkpt lat="47.895190" lon="1.809130">
						<ele>111</ele>
						<time>2022-01-27T08:46:31Z</time>
					</trkpt>
					<trkpt lat="47.894940" lon="1.808130">
						<ele>112</ele>
						<time>2022-01-27T08:46:44Z</time>
					</trkpt>
					<trkpt lat="47.894690" lon="1.807000">
						<ele>111</ele>
						<time>2022-01-27T08:46:58Z</time>
					</trkpt>
					<trkpt lat="47.894620" lon="1.806600">
						<ele>111</ele>
						<time>2022-01-27T08:47:03Z</time>
					</trkpt>
					<trkpt lat="47.894540" lon="1.805980">
						<ele>110</ele>
						<time>2022-01-27T08:47:10Z</time>
					</trkpt>
					<trkpt lat="47.894170" lon="1.801640">
						<ele>114</ele>
						<time>2022-01-27T08:48:03Z</time>
					</trkpt>
					<trkpt lat="47.894020" lon="1.800170">
						<ele>114</ele>
						<time>2022-01-27T08:48:20Z</time>
					</trkpt>
					<trkpt lat="47.893930" lon="1.799530">
						<ele>113</ele>
						<time>2022-01-27T08:48:28Z</time>
					</trkpt>
					<trkpt lat="47.893830" lon="1.799030">
						<ele>113</ele>
						<time>2022-01-27T08:48:34Z</time>
					</trkpt>
					<trkpt lat="47.893470" lon="1.797630">
						<ele>114</ele>
						<time>2022-01-27T08:48:52Z</time>
					</trkpt>
					<trkpt lat="47.893230" lon="1.796750">
						<ele>113</ele>
						<time>2022-01-27T08:49:04Z</time>
					</trkpt>
					<trkpt lat="47.891960" lon="1.792640">
						<ele>111</ele>
						<time>2022-01-27T08:49:58Z</time>
					</trkpt>
					<trkpt lat="47.891770" lon="1.792150">
						<ele>111</ele>
						<time>2022-01-27T08:50:04Z</time>
					</trkpt>
					<trkpt lat="47.890710" lon="1.789970">
						<ele>110</ele>
						<time>2022-01-27T08:50:36Z</time>
					</trkpt>
					<trkpt lat="47.890410" lon="1.789250">
						<ele>110</ele>
						<time>2022-01-27T08:50:47Z</time>
					</trkpt>
					<trkpt lat="47.890030" lon="1.788250">
						<ele>110</ele>
						<time>2022-01-27T08:51:00Z</time>
					</trkpt>
					<trkpt lat="47.889460" lon="1.786560">
						<ele>112</ele>
						<time>2022-01-27T08:51:23Z</time>
					</trkpt>
					<trkpt lat="47.888650" lon="1.784590">
						<ele>110</ele>
						<time>2022-01-27T08:51:50Z</time>
					</trkpt>
					<trkpt lat="47.887870" lon="1.782910">
						<ele>111</ele>
						<time>2022-01-27T08:52:15Z</time>
					</trkpt>
					<trkpt lat="47.887640" lon="1.782340">
						<ele>111</ele>
						<time>2022-01-27T08:52:23Z</time>
					</trkpt>
					<trkpt lat="47.887050" lon="1.780570">
						<ele>110</ele>
						<time>2022-01-27T08:52:46Z</time>
					</trkpt>
					<trkpt lat="47.886370" lon="1.778820">
						<ele>108</ele>
						<time>2022-01-27T08:53:10Z</time>
					</trkpt>
					<trkpt lat="47.885740" lon="1.777260">
						<ele>108</ele>
						<time>2022-01-27T08:53:32Z</time>
					</trkpt>
					<trkpt lat="47.885390" lon="1.776260">
						<ele>107</ele>
						<time>2022-01-27T08:53:46Z</time>
					</trkpt>
					<trkpt lat="47.885280" lon="1.775910">
						<ele>107</ele>
						<time>2022-01-27T08:53:50Z</time>
					</trkpt>
					<trkpt lat="47.885270" lon="1.775840">
						<ele>107</ele>
						<time>2022-01-27T08:53:51Z</time>
					</trkpt>
					<trkpt lat="47.885310" lon="1.775780">
						<ele>107</ele>
						<time>2022-01-27T08:53:52Z</time>
					</trkpt>
					<trkpt lat="47.885310" lon="1.775740">
						<ele>107</ele>
						<time>2022-01-27T08:53:53Z</time>
					</trkpt>
					<trkpt lat="47.885290" lon="1.775700">
						<ele>107</ele>
						<time>2022-01-27T08:53:53Z</time>
					</trkpt>
					<trkpt lat="47.885260" lon="1.775690">
						<ele>107</ele>
						<time>2022-01-27T08:53:54Z</time>
					</trkpt>
					<trkpt lat="47.885230" lon="1.775710">
						<ele>107</ele>
						<time>2022-01-27T08:53:54Z</time>
					</trkpt>
					<trkpt lat="47.885180" lon="1.775670">
						<ele>107</ele>
						<time>2022-01-27T08:53:55Z</time>
					</trkpt>
					<trkpt lat="47.884520" lon="1.773660">
						<ele>108</ele>
						<time>2022-01-27T08:54:22Z</time>
					</trkpt>
					<trkpt lat="47.884430" lon="1.773430">
						<ele>109</ele>
						<time>2022-01-27T08:54:25Z</time>
					</trkpt>
					<trkpt lat="47.883980" lon="1.772630">
						<ele>109</ele>
						<time>2022-01-27T08:54:38Z</time>
					</trkpt>
					<trkpt lat="47.883960" lon="1.772580">
						<ele>109</ele>
						<time>2022-01-27T08:54:38Z</time>
					</trkpt>
					<trkpt lat="47.884940" lon="1.771600">
						<ele>109</ele>
						<time>2022-01-27T08:54:59Z</time>
					</trkpt>
					<trkpt lat="47.885110" lon="1.771360">
						<ele>110</ele>
						<time>2022-01-27T08:55:04Z</time>
					</trkpt>
					<trkpt lat="47.885320" lon="1.771170">
						<ele>110</ele>
						<time>2022-01-27T08:55:08Z</time>
					</trkpt>
					<trkpt lat="47.885490" lon="1.770900">
						<ele>111</ele>
						<time>2022-01-27T08:55:12Z</time>
					</trkpt>
					<trkpt lat="47.885870" lon="1.770210">
						<ele>113</ele>
						<time>2022-01-27T08:55:23Z</time>
					</trkpt>
					<trkpt lat="47.887070" lon="1.768420">
						<ele>114</ele>
						<time>2022-01-27T08:55:53Z</time>
					</trkpt>
					<trkpt lat="47.887620" lon="1.767760">
						<ele>113</ele>
						<time>2022-01-27T08:56:06Z</time>
					</trkpt>
					<trkpt lat="47.888000" lon="1.767390">
						<ele>110</ele>
						<time>2022-01-27T08:56:14Z</time>
					</trkpt>
					<trkpt lat="47.888660" lon="1.766850">
						<ele>109</ele>
						<time>2022-01-27T08:56:27Z</time>
					</trkpt>
					<trkpt lat="47.889250" lon="1.766480">
						<ele>109</ele>
						<time>2022-01-27T08:56:39Z</time>
					</trkpt>
					<trkpt lat="47.889780" lon="1.766180">
						<ele>109</ele>
						<time>2022-01-27T08:56:49Z</time>
					</trkpt>
					<trkpt lat="47.890530" lon="1.765700">
						<ele>108</ele>
						<time>2022-01-27T08:57:03Z</time>
					</trkpt>
					<trkpt lat="47.891940" lon="1.764730">
						<ele>109</ele>
						<time>2022-01-27T08:57:31Z</time>
					</trkpt>
					<trkpt lat="47.892330" lon="1.764450">
						<ele>109</ele>
						<time>2022-01-27T08:57:39Z</time>
					</trkpt>
					<trkpt lat="47.892660" lon="1.764210">
						<ele>108</ele>
						<time>2022-01-27T08:57:45Z</time>
					</trkpt>
					<trkpt lat="47.892910" lon="1.764070">
						<ele>108</ele>
						<time>2022-01-27T08:57:50Z</time>
					</trkpt>
					<trkpt lat="47.893880" lon="1.763670">
						<ele>105</ele>
						<time>2022-01-27T08:58:08Z</time>
					</trkpt>
					<trkpt lat="47.894070" lon="1.763520">
						<ele>105</ele>
						<time>2022-01-27T08:58:12Z</time>
					</trkpt>
					<trkpt lat="47.894180" lon="1.763410">
						<ele>105</ele>
						<time>2022-01-27T08:58:14Z</time>
					</trkpt>
					<trkpt lat="47.894270" lon="1.763280">
						<ele>105</ele>
						<time>2022-01-27T08:58:16Z</time>
					</trkpt>
					<trkpt lat="47.894410" lon="1.762990">
						<ele>105</ele>
						<time>2022-01-27T08:58:20Z</time>
					</trkpt>
					<trkpt lat="47.894450" lon="1.762820">
						<ele>105</ele>
						<time>2022-01-27T08:58:23Z</time>
					</trkpt>
					<trkpt lat="47.894500" lon="1.762520">
						<ele>105</ele>
						<time>2022-01-27T08:58:26Z</time>
					</trkpt>
					<trkpt lat="47.894500" lon="1.762270">
						<ele>106</ele>
						<time>2022-01-27T08:58:29Z</time>
					</trkpt>
					<trkpt lat="47.894460" lon="1.761980">
						<ele>106</ele>
						<time>2022-01-27T08:58:33Z</time>
					</trkpt>
					<trkpt lat="47.894360" lon="1.761510">
						<ele>107</ele>
						<time>2022-01-27T08:58:39Z</time>
					</trkpt>
					<trkpt lat="47.891990" lon="1.751860">
						<ele>97</ele>
						<time>2022-01-27T09:00:41Z</time>
					</trkpt>
					<trkpt lat="47.891580" lon="1.750060">
						<ele>99</ele>
						<time>2022-01-27T09:01:04Z</time>
					</trkpt>
					<trkpt lat="47.891540" lon="1.749490">
						<ele>99</ele>
						<time>2022-01-27T09:01:11Z</time>
					</trkpt>
					<trkpt lat="47.891530" lon="1.748900">
						<ele>100</ele>
						<time>2022-01-27T09:01:18Z</time>
					</trkpt>
					<trkpt lat="47.891770" lon="1.745490">
						<ele>110</ele>
						<time>2022-01-27T09:01:59Z</time>
					</trkpt>
					<trkpt lat="47.891870" lon="1.744470">
						<ele>113</ele>
						<time>2022-01-27T09:02:11Z</time>
					</trkpt>
					<trkpt lat="47.892200" lon="1.741730">
						<ele>114</ele>
						<time>2022-01-27T09:02:44Z</time>
					</trkpt>
					<trkpt lat="47.892210" lon="1.741440">
						<ele>113</ele>
						<time>2022-01-27T09:02:48Z</time>
					</trkpt>
					<trkpt lat="47.892190" lon="1.741220">
						<ele>113</ele>
						<time>2022-01-27T09:02:50Z</time>
					</trkpt>
					<trkpt lat="47.892130" lon="1.740840">
						<ele>113</ele>
						<time>2022-01-27T09:02:55Z</time>
					</trkpt>
					<trkpt lat="47.892090" lon="1.740630">
						<ele>113</ele>
						<time>2022-01-27T09:02:58Z</time>
					</trkpt>
					<trkpt lat="47.889720" lon="1.741540">
						<ele>119</ele>
						<time>2022-01-27T09:03:41Z</time>
					</trkpt>
					<trkpt lat="47.889320" lon="1.741730">
						<ele>118</ele>
						<time>2022-01-27T09:03:49Z</time>
					</trkpt>
					<trkpt lat="47.888670" lon="1.742100">
						<ele>116</ele>
						<time>2022-01-27T09:04:01Z</time>
					</trkpt>
					<trkpt lat="47.888470" lon="1.742260">
						<ele>116</ele>
						<time>2022-01-27T09:04:05Z</time>
					</trkpt>
					<trkpt lat="47.887960" lon="1.741490">
						<ele>114</ele>
						<time>2022-01-27T09:04:18Z</time>
					</trkpt>
					<trkpt lat="47.887690" lon="1.741180">
						<ele>113</ele>
						<time>2022-01-27T09:04:24Z</time>
					</trkpt>
					<trkpt lat="47.887540" lon="1.740930">
						<ele>112</ele>
						<time>2022-01-27T09:04:28Z</time>
					</trkpt>
					<trkpt lat="47.887480" lon="1.740780">
						<ele>112</ele>
						<time>2022-01-27T09:04:30Z</time>
					</trkpt>
					<trkpt lat="47.887210" lon="1.739920">
						<ele>112</ele>
						<time>2022-01-27T09:04:41Z</time>
					</trkpt>
					<trkpt lat="47.887060" lon="1.739360">
						<ele>111</ele>
						<time>2022-01-27T09:04:49Z</time>
					</trkpt>
					<trkpt lat="47.887000" lon="1.738920">
						<ele>111</ele>
						<time>2022-01-27T09:04:54Z</time>
					</trkpt>
					<trkpt lat="47.886970" lon="1.738280">
						<ele>110</ele>
						<time>2022-01-27T09:05:02Z</time>
					</trkpt>
					<trkpt lat="47.886990" lon="1.737730">
						<ele>110</ele>
						<time>2022-01-27T09:05:08Z</time>
					</trkpt>
					<trkpt lat="47.887070" lon="1.736720">
						<ele>111</ele>
						<time>2022-01-27T09:05:20Z</time>
					</trkpt>
					<trkpt lat="47.887360" lon="1.734640">
						<ele>111</ele>
						<time>2022-01-27T09:05:46Z</time>
					</trkpt>
					<trkpt lat="47.887360" lon="1.734510">
						<ele>111</ele>
						<time>2022-01-27T09:05:47Z</time>
					</trkpt>
					<trkpt lat="47.887320" lon="1.734260">
						<ele>111</ele>
						<time>2022-01-27T09:05:50Z</time>
					</trkpt>
					<trkpt lat="47.887240" lon="1.734060">
						<ele>111</ele>
						<time>2022-01-27T09:05:53Z</time>
					</trkpt>
					<trkpt lat="47.887080" lon="1.733770">
						<ele>111</ele>
						<time>2022-01-27T09:05:58Z</time>
					</trkpt>
					<trkpt lat="47.887030" lon="1.733650">
						<ele>112</ele>
						<time>2022-01-27T09:05:59Z</time>
					</trkpt>
					<trkpt lat="47.886730" lon="1.732490">
						<ele>112</ele>
						<time>2022-01-27T09:06:14Z</time>
					</trkpt>
					<trkpt lat="47.886490" lon="1.731730">
						<ele>111</ele>
						<time>2022-01-27T09:06:24Z</time>
					</trkpt>
					<trkpt lat="47.885950" lon="1.729650">
						<ele>114</ele>
						<time>2022-01-27T09:06:51Z</time>
					</trkpt>
					<trkpt lat="47.885850" lon="1.729180">
						<ele>115</ele>
						<time>2022-01-27T09:06:57Z</time>
					</trkpt>
					<trkpt lat="47.885760" lon="1.728390">
						<ele>116</ele>
						<time>2022-01-27T09:07:06Z</time>
					</trkpt>
					<trkpt lat="47.885730" lon="1.726680">
						<ele>110</ele>
						<time>2022-01-27T09:07:27Z</time>
					</trkpt>
					<trkpt lat="47.885630" lon="1.725490">
						<ele>109</ele>
						<time>2022-01-27T09:07:41Z</time>
					</trkpt>
					<trkpt lat="47.885450" lon="1.724050">
						<ele>109</ele>
						<time>2022-01-27T09:07:58Z</time>
					</trkpt>
					<trkpt lat="47.885220" lon="1.722440">
						<ele>105</ele>
						<time>2022-01-27T09:08:18Z</time>
					</trkpt>
					<trkpt lat="47.885560" lon="1.722150">
						<ele>105</ele>
						<time>2022-01-27T09:08:25Z</time>
					</trkpt>
					<trkpt lat="47.885710" lon="1.721970">
						<ele>105</ele>
						<time>2022-01-27T09:08:28Z</time>
					</trkpt>
					<trkpt lat="47.885840" lon="1.721730">
						<ele>105</ele>
						<time>2022-01-27T09:08:32Z</time>
					</trkpt>
					<trkpt lat="47.885900" lon="1.721540">
						<ele>105</ele>
						<time>2022-01-27T09:08:35Z</time>
					</trkpt>
					<trkpt lat="47.885920" lon="1.721290">
						<ele>105</ele>
						<time>2022-01-27T09:08:38Z</time>
					</trkpt>
					<trkpt lat="47.885920" lon="1.720220">
						<ele>104</ele>
						<time>2022-01-27T09:08:50Z</time>
					</trkpt>
					<trkpt lat="47.886060" lon="1.718360">
						<ele>103</ele>
						<time>2022-01-27T09:09:13Z</time>
					</trkpt>
					<trkpt lat="47.886320" lon="1.717250">
						<ele>104</ele>
						<time>2022-01-27T09:09:27Z</time>
					</trkpt>
					<trkpt lat="47.886780" lon="1.715640">
						<ele>104</ele>
						<time>2022-01-27T09:09:48Z</time>
					</trkpt>
					<trkpt lat="47.887180" lon="1.714670">
						<ele>106</ele>
						<time>2022-01-27T09:10:01Z</time>
					</trkpt>
					<trkpt lat="47.887840" lon="1.713690">
						<ele>104</ele>
						<time>2022-01-27T09:10:18Z</time>
					</trkpt>
					<trkpt lat="47.888110" lon="1.712570">
						<ele>104</ele>
						<time>2022-01-27T09:10:32Z</time>
					</trkpt>
					<trkpt lat="47.888340" lon="1.712310">
						<ele>104</ele>
						<time>2022-01-27T09:10:37Z</time>
					</trkpt>
					<trkpt lat="47.888570" lon="1.712310">
						<ele>104</ele>
						<time>2022-01-27T09:10:41Z</time>
					</trkpt>
					<trkpt lat="47.888870" lon="1.712350">
						<ele>105</ele>
						<time>2022-01-27T09:10:47Z</time>
					</trkpt>
					<trkpt lat="47.889590" lon="1.712590">
						<ele>105</ele>
						<time>2022-01-27T09:11:00Z</time>
					</trkpt>
					<trkpt lat="47.889700" lon="1.712590">
						<ele>105</ele>
						<time>2022-01-27T09:11:02Z</time>
					</trkpt>
					<trkpt lat="47.889830" lon="1.712500">
						<ele>105</ele>
						<time>2022-01-27T09:11:04Z</time>
					</trkpt>
					<trkpt lat="47.890010" lon="1.712180">
						<ele>105</ele>
						<time>2022-01-27T09:11:09Z</time>
					</trkpt>
					<trkpt lat="47.890220" lon="1.711470">
						<ele>105</ele>
						<time>2022-01-27T09:11:18Z</time>
					</trkpt>
					<trkpt lat="47.890510" lon="1.710340">
						<ele>106</ele>
						<time>2022-01-27T09:11:33Z</time>
					</trkpt>
					<trkpt lat="47.890610" lon="1.710030">
						<ele>106</ele>
						<time>2022-01-27T09:11:37Z</time>
					</trkpt>
					<trkpt lat="47.891280" lon="1.708320">
						<ele>108</ele>
						<time>2022-01-27T09:12:01Z</time>
					</trkpt>
					<trkpt lat="47.891630" lon="1.707080">
						<ele>108</ele>
						<time>2022-01-27T09:12:17Z</time>
					</trkpt>
					<trkpt lat="47.891740" lon="1.706550">
						<ele>107</ele>
						<time>2022-01-27T09:12:23Z</time>
					</trkpt>
					<trkpt lat="47.891630" lon="1.706530">
						<ele>107</ele>
						<time>2022-01-27T09:12:25Z</time>
					</trkpt>
					<trkpt lat="47.891460" lon="1.706430">
						<ele>106</ele>
						<time>2022-01-27T09:12:28Z</time>
					</trkpt>
					<trkpt lat="47.891630" lon="1.706530">
						<ele>107</ele>
						<time>2022-01-27T09:12:32Z</time>
					</trkpt>
					<trkpt lat="47.891740" lon="1.706550">
						<ele>107</ele>
						<time>2022-01-27T09:12:34Z</time>
					</trkpt>
					<trkpt lat="47.891800" lon="1.706470">
						<ele>108</ele>
						<time>2022-01-27T09:12:35Z</time>
					</trkpt>
					<trkpt lat="47.892130" lon="1.705560">
						<ele>108</ele>
						<time>2022-01-27T09:12:47Z</time>
					</trkpt>
					<trkpt lat="47.892250" lon="1.705080">
						<ele>107</ele>
						<time>2022-01-27T09:12:54Z</time>
					</trkpt>
					<trkpt lat="47.892370" lon="1.704500">
						<ele>107</ele>
						<time>2022-01-27T09:13:01Z</time>
					</trkpt>
					<trkpt lat="47.892470" lon="1.704230">
						<ele>106</ele>
						<time>2022-01-27T09:13:05Z</time>
					</trkpt>
					<trkpt lat="47.892550" lon="1.704140">
						<ele>106</ele>
						<time>2022-01-27T09:13:06Z</time>
					</trkpt>
					<trkpt lat="47.892540" lon="1.704000">
						<ele>106</ele>
						<time>2022-01-27T09:13:08Z</time>
					</trkpt>
					<trkpt lat="47.892560" lon="1.703910">
						<ele>106</ele>
						<time>2022-01-27T09:13:09Z</time>
					</trkpt>
					<trkpt lat="47.892640" lon="1.703750">
						<ele>106</ele>
						<time>2022-01-27T09:13:11Z</time>
					</trkpt>
					<trkpt lat="47.892820" lon="1.703290">
						<ele>106</ele>
						<time>2022-01-27T09:13:18Z</time>
					</trkpt>
					<trkpt lat="47.892990" lon="1.702690">
						<ele>106</ele>
						<time>2022-01-27T09:13:26Z</time>
					</trkpt>
					<trkpt lat="47.893330" lon="1.701010">
						<ele>106</ele>
						<time>2022-01-27T09:13:47Z</time>
					</trkpt>
					<trkpt lat="47.893490" lon="1.700260">
						<ele>106</ele>
						<time>2022-01-27T09:13:56Z</time>
					</trkpt>
					<trkpt lat="47.894010" lon="1.698250">
						<ele>107</ele>
						<time>2022-01-27T09:14:22Z</time>
					</trkpt>
					<trkpt lat="47.894040" lon="1.698000">
						<ele>107</ele>
						<time>2022-01-27T09:14:25Z</time>
					</trkpt>
					<trkpt lat="47.894030" lon="1.697800">
						<ele>107</ele>
						<time>2022-01-27T09:14:27Z</time>
					</trkpt>
					<trkpt lat="47.894000" lon="1.697560">
						<ele>107</ele>
						<time>2022-01-27T09:14:30Z</time>
					</trkpt>
					<trkpt lat="47.893020" lon="1.694230">
						<ele>105</ele>
						<time>2022-01-27T09:15:13Z</time>
					</trkpt>
					<trkpt lat="47.892960" lon="1.693950">
						<ele>105</ele>
						<time>2022-01-27T09:15:17Z</time>
					</trkpt>
					<trkpt lat="47.892910" lon="1.693690">
						<ele>104</ele>
						<time>2022-01-27T09:15:20Z</time>
					</trkpt>
					<trkpt lat="47.892900" lon="1.693260">
						<ele>104</ele>
						<time>2022-01-27T09:15:25Z</time>
					</trkpt>
					<trkpt lat="47.892980" lon="1.692610">
						<ele>103</ele>
						<time>2022-01-27T09:15:33Z</time>
					</trkpt>
					<trkpt lat="47.892980" lon="1.692370">
						<ele>103</ele>
						<time>2022-01-27T09:15:36Z</time>
					</trkpt>
					<trkpt lat="47.892960" lon="1.692150">
						<ele>103</ele>
						<time>2022-01-27T09:15:39Z</time>
					</trkpt>
					<trkpt lat="47.892860" lon="1.691470">
						<ele>102</ele>
						<time>2022-01-27T09:15:47Z</time>
					</trkpt>
					<trkpt lat="47.892840" lon="1.691340">
						<ele>102</ele>
						<time>2022-01-27T09:15:49Z</time>
					</trkpt>
					<trkpt lat="47.892690" lon="1.690480">
						<ele>102</ele>
						<time>2022-01-27T09:15:59Z</time>
					</trkpt>
					<trkpt lat="47.892690" lon="1.690180">
						<ele>102</ele>
						<time>2022-01-27T09:16:03Z</time>
					</trkpt>
					<trkpt lat="47.892710" lon="1.689940">
						<ele>103</ele>
						<time>2022-01-27T09:16:06Z</time>
					</trkpt>
					<trkpt lat="47.892760" lon="1.689650">
						<ele>103</ele>
						<time>2022-01-27T09:16:09Z</time>
					</trkpt>
					<trkpt lat="47.892840" lon="1.689420">
						<ele>104</ele>
						<time>2022-01-27T09:16:12Z</time>
					</trkpt>
					<trkpt lat="47.893040" lon="1.688900">
						<ele>104</ele>
						<time>2022-01-27T09:16:19Z</time>
					</trkpt>
					<trkpt lat="47.893390" lon="1.688110">
						<ele>105</ele>
						<time>2022-01-27T09:16:31Z</time>
					</trkpt>
					<trkpt lat="47.893460" lon="1.687900">
						<ele>106</ele>
						<time>2022-01-27T09:16:33Z</time>
					</trkpt>
					<trkpt lat="47.893500" lon="1.687700">
						<ele>106</ele>
						<time>2022-01-27T09:16:36Z</time>
					</trkpt>
					<trkpt lat="47.893510" lon="1.687520">
						<ele>106</ele>
						<time>2022-01-27T09:16:38Z</time>
					</trkpt>
					<trkpt lat="47.893490" lon="1.687180">
						<ele>106</ele>
						<time>2022-01-27T09:16:42Z</time>
					</trkpt>
					<trkpt lat="47.893400" lon="1.686870">
						<ele>106</ele>
						<time>2022-01-27T09:16:46Z</time>
					</trkpt>
					<trkpt lat="47.892570" lon="1.684850">
						<ele>107</ele>
						<time>2022-01-27T09:17:15Z</time>
					</trkpt>
					<trkpt lat="47.892500" lon="1.684640">
						<ele>107</ele>
						<time>2022-01-27T09:17:17Z</time>
					</trkpt>
					<trkpt lat="47.892490" lon="1.684470">
						<ele>107</ele>
						<time>2022-01-27T09:17:19Z</time>
					</trkpt>
					<trkpt lat="47.892500" lon="1.684280">
						<ele>107</ele>
						<time>2022-01-27T09:17:22Z</time>
					</trkpt>
					<trkpt lat="47.892660" lon="1.683730">
						<ele>106</ele>
						<time>2022-01-27T09:17:29Z</time>
					</trkpt>
					<trkpt lat="47.892990" lon="1.682070">
						<ele>103</ele>
						<time>2022-01-27T09:17:49Z</time>
					</trkpt>
					<trkpt lat="47.893130" lon="1.681580">
						<ele>103</ele>
						<time>2022-01-27T09:17:56Z</time>
					</trkpt>
					<trkpt lat="47.894630" lon="1.677930">
						<ele>104</ele>
						<time>2022-01-27T09:18:47Z</time>
					</trkpt>
					<trkpt lat="47.894700" lon="1.677690">
						<ele>104</ele>
						<time>2022-01-27T09:18:50Z</time>
					</trkpt>
					<trkpt lat="47.895640" lon="1.673640">
						<ele>106</ele>
						<time>2022-01-27T09:19:41Z</time>
					</trkpt>
					<trkpt lat="47.895980" lon="1.672280">
						<ele>109</ele>
						<time>2022-01-27T09:19:58Z</time>
					</trkpt>
					<trkpt lat="47.896110" lon="1.671880">
						<ele>109</ele>
						<time>2022-01-27T09:20:04Z</time>
					</trkpt>
					<trkpt lat="47.896580" lon="1.670830">
						<ele>108</ele>
						<time>2022-01-27T09:20:19Z</time>
					</trkpt>
					<trkpt lat="47.896660" lon="1.670610">
						<ele>108</ele>
						<time>2022-01-27T09:20:22Z</time>
					</trkpt>
					<trkpt lat="47.896800" lon="1.670070">
						<ele>109</ele>
						<time>2022-01-27T09:20:29Z</time>
					</trkpt>
					<trkpt lat="47.896930" lon="1.669710">
						<ele>108</ele>
						<time>2022-01-27T09:20:34Z</time>
					</trkpt>
					<trkpt lat="47.898110" lon="1.666690">
						<ele>110</ele>
						<time>2022-01-27T09:21:15Z</time>
					</trkpt>
					<trkpt lat="47.898410" lon="1.665840">
						<ele>111</ele>
						<time>2022-01-27T09:21:27Z</time>
					</trkpt>
					<trkpt lat="47.898440" lon="1.665510">
						<ele>111</ele>
						<time>2022-01-27T09:21:31Z</time>
					</trkpt>
					<trkpt lat="47.898360" lon="1.664920">
						<ele>111</ele>
						<time>2022-01-27T09:21:38Z</time>
					</trkpt>
					<trkpt lat="47.898080" lon="1.663350">
						<ele>109</ele>
						<time>2022-01-27T09:21:57Z</time>
					</trkpt>
					<trkpt lat="47.898070" lon="1.663090">
						<ele>108</ele>
						<time>2022-01-27T09:22:00Z</time>
					</trkpt>
					<trkpt lat="47.898150" lon="1.662850">
						<ele>108</ele>
						<time>2022-01-27T09:22:04Z</time>
					</trkpt>
					<trkpt lat="47.899770" lon="1.658870">
						<ele>105</ele>
						<time>2022-01-27T09:22:59Z</time>
					</trkpt>
					<trkpt lat="47.900620" lon="1.656690">
						<ele>105</ele>
						<time>2022-01-27T09:23:29Z</time>
					</trkpt>
					<trkpt lat="47.900760" lon="1.656240">
						<ele>105</ele>
						<time>2022-01-27T09:23:35Z</time>
					</trkpt>
					<trkpt lat="47.900860" lon="1.655740">
						<ele>105</ele>
						<time>2022-01-27T09:23:41Z</time>
					</trkpt>
					<trkpt lat="47.901020" lon="1.654460">
						<ele>108</ele>
						<time>2022-01-27T09:23:57Z</time>
					</trkpt>
					<trkpt lat="47.901040" lon="1.654550">
						<ele>108</ele>
						<time>2022-01-27T09:23:58Z</time>
					</trkpt>
					<trkpt lat="47.901300" lon="1.654970">
						<ele>108</ele>
						<time>2022-01-27T09:24:05Z</time>
					</trkpt>
					<trkpt lat="47.901040" lon="1.654550">
						<ele>108</ele>
						<time>2022-01-27T09:24:12Z</time>
					</trkpt>
					<trkpt lat="47.901020" lon="1.654460">
						<ele>108</ele>
						<time>2022-01-27T09:24:13Z</time>
					</trkpt>
					<trkpt lat="47.901070" lon="1.654020">
						<ele>109</ele>
						<time>2022-01-27T09:24:18Z</time>
					</trkpt>
					<trkpt lat="47.901100" lon="1.653840">
						<ele>109</ele>
						<time>2022-01-27T09:24:20Z</time>
					</trkpt>
					<trkpt lat="47.901130" lon="1.653450">
						<ele>109</ele>
						<time>2022-01-27T09:24:25Z</time>
					</trkpt>
					<trkpt lat="47.901220" lon="1.652830">
						<ele>108</ele>
						<time>2022-01-27T09:24:33Z</time>
					</trkpt>
					<trkpt lat="47.901240" lon="1.652730">
						<ele>108</ele>
						<time>2022-01-27T09:24:34Z</time>
					</trkpt>
					<trkpt lat="47.901400" lon="1.652480">
						<ele>108</ele>
						<time>2022-01-27T09:24:38Z</time>
					</trkpt>
					<trkpt lat="47.901440" lon="1.652480">
						<ele>108</ele>
						<time>2022-01-27T09:24:39Z</time>
					</trkpt>
					<trkpt lat="47.901770" lon="1.652200">
						<ele>107</ele>
						<time>2022-01-27T09:24:45Z</time>
					</trkpt>
					<trkpt lat="47.902920" lon="1.651160">
						<ele>106</ele>
						<time>2022-01-27T09:25:09Z</time>
					</trkpt>
					<trkpt lat="47.904330" lon="1.654290">
						<ele>110</ele>
						<time>2022-01-27T09:25:54Z</time>
					</trkpt>
					<trkpt lat="47.904470" lon="1.655040">
						<ele>112</ele>
						<time>2022-01-27T09:26:04Z</time>
					</trkpt>
					<trkpt lat="47.905970" lon="1.658050">
						<ele>109</ele>
						<time>2022-01-27T09:26:48Z</time>
					</trkpt>
					<trkpt lat="47.906270" lon="1.658090">
						<ele>108</ele>
						<time>2022-01-27T09:26:54Z</time>
					</trkpt>
					<trkpt lat="47.907540" lon="1.657840">
						<ele>109</ele>
						<time>2022-01-27T09:27:16Z</time>
					</trkpt>
					<trkpt lat="47.909380" lon="1.656970">
						<ele>111</ele>
						<time>2022-01-27T09:27:51Z</time>
					</trkpt>
					<trkpt lat="47.912170" lon="1.654600">
						<ele>109</ele>
						<time>2022-01-27T09:28:48Z</time>
					</trkpt>
					<trkpt lat="47.913260" lon="1.653830">
						<ele>109</ele>
						<time>2022-01-27T09:29:09Z</time>
					</trkpt>
					<trkpt lat="47.914670" lon="1.652560">
						<ele>111</ele>
						<time>2022-01-27T09:29:39Z</time>
					</trkpt>
					<trkpt lat="47.914780" lon="1.652490">
						<ele>111</ele>
						<time>2022-01-27T09:29:41Z</time>
					</trkpt>
					<trkpt lat="47.914840" lon="1.652470">
						<ele>111</ele>
						<time>2022-01-27T09:29:42Z</time>
					</trkpt>
					<trkpt lat="47.915010" lon="1.652500">
						<ele>112</ele>
						<time>2022-01-27T09:29:45Z</time>
					</trkpt>
					<trkpt lat="47.915190" lon="1.652680">
						<ele>113</ele>
						<time>2022-01-27T09:29:49Z</time>
					</trkpt>
					<trkpt lat="47.915950" lon="1.653850">
						<ele>111</ele>
						<time>2022-01-27T09:30:08Z</time>
					</trkpt>
					<trkpt lat="47.916040" lon="1.653950">
						<ele>111</ele>
						<time>2022-01-27T09:30:10Z</time>
					</trkpt>
					<trkpt lat="47.916200" lon="1.654020">
						<ele>111</ele>
						<time>2022-01-27T09:30:13Z</time>
					</trkpt>
					<trkpt lat="47.916320" lon="1.654010">
						<ele>112</ele>
						<time>2022-01-27T09:30:15Z</time>
					</trkpt>
					<trkpt lat="47.916990" lon="1.653830">
						<ele>112</ele>
						<time>2022-01-27T09:30:27Z</time>
					</trkpt>
					<trkpt lat="47.917100" lon="1.653770">
						<ele>112</ele>
						<time>2022-01-27T09:30:30Z</time>
					</trkpt>
					<trkpt lat="47.917210" lon="1.653660">
						<ele>112</ele>
						<time>2022-01-27T09:30:32Z</time>
					</trkpt>
					<trkpt lat="47.917560" lon="1.653170">
						<ele>112</ele>
						<time>2022-01-27T09:30:40Z</time>
					</trkpt>
					<trkpt lat="47.917880" lon="1.652820">
						<ele>113</ele>
						<time>2022-01-27T09:30:47Z</time>
					</trkpt>
					<trkpt lat="47.918740" lon="1.652530">
						<ele>111</ele>
						<time>2022-01-27T09:31:03Z</time>
					</trkpt>
					<trkpt lat="47.918860" lon="1.652460">
						<ele>111</ele>
						<time>2022-01-27T09:31:05Z</time>
					</trkpt>
					<trkpt lat="47.918930" lon="1.652350">
						<ele>110</ele>
						<time>2022-01-27T09:31:07Z</time>
					</trkpt>
					<trkpt lat="47.919070" lon="1.651950">
						<ele>110</ele>
						<time>2022-01-27T09:31:13Z</time>
					</trkpt>
					<trkpt lat="47.919150" lon="1.651810">
						<ele>110</ele>
						<time>2022-01-27T09:31:15Z</time>
					</trkpt>
					<trkpt lat="47.919240" lon="1.651680">
						<ele>110</ele>
						<time>2022-01-27T09:31:17Z</time>
					</trkpt>
					<trkpt lat="47.919380" lon="1.651580">
						<ele>111</ele>
						<time>2022-01-27T09:31:20Z</time>
					</trkpt>
					<trkpt lat="47.920590" lon="1.651380">
						<ele>114</ele>
						<time>2022-01-27T09:31:42Z</time>
					</trkpt>
					<trkpt lat="47.921730" lon="1.652440">
						<ele>111</ele>
						<time>2022-01-27T09:32:05Z</time>
					</trkpt>
					<trkpt lat="47.928160" lon="1.658810">
						<ele>113</ele>
						<time>2022-01-27T09:34:23Z</time>
					</trkpt>
					<trkpt lat="47.928530" lon="1.659120">
						<ele>113</ele>
						<time>2022-01-27T09:34:30Z</time>
					</trkpt>
					<trkpt lat="47.929580" lon="1.660400">
						<ele>116</ele>
						<time>2022-01-27T09:34:54Z</time>
					</trkpt>
					<trkpt lat="47.929720" lon="1.660630">
						<ele>116</ele>
						<time>2022-01-27T09:34:58Z</time>
					</trkpt>
					<trkpt lat="47.930300" lon="1.661950">
						<ele>116</ele>
						<time>2022-01-27T09:35:17Z</time>
					</trkpt>
					<trkpt lat="47.930400" lon="1.662250">
						<ele>115</ele>
						<time>2022-01-27T09:35:21Z</time>
					</trkpt>
					<trkpt lat="47.931200" lon="1.664230">
						<ele>114</ele>
						<time>2022-01-27T09:35:48Z</time>
					</trkpt>
					<trkpt lat="47.931560" lon="1.663920">
						<ele>113</ele>
						<time>2022-01-27T09:35:56Z</time>
					</trkpt>
					<trkpt lat="47.932060" lon="1.667140">
						<ele>112</ele>
						<time>2022-01-27T09:36:35Z</time>
					</trkpt>
					<trkpt lat="47.932600" lon="1.670770">
						<ele>111</ele>
						<time>2022-01-27T09:37:20Z</time>
					</trkpt>
					<trkpt lat="47.932940" lon="1.671300">
						<ele>112</ele>
						<time>2022-01-27T09:37:28Z</time>
					</trkpt>
					<trkpt lat="47.933030" lon="1.671480">
						<ele>112</ele>
						<time>2022-01-27T09:37:31Z</time>
					</trkpt>
					<trkpt lat="47.933120" lon="1.671750">
						<ele>112</ele>
						<time>2022-01-27T09:37:35Z</time>
					</trkpt>
					<trkpt lat="47.933180" lon="1.672100">
						<ele>113</ele>
						<time>2022-01-27T09:37:39Z</time>
					</trkpt>
					<trkpt lat="47.933300" lon="1.674490">
						<ele>112</ele>
						<time>2022-01-27T09:38:08Z</time>
					</trkpt>
					<trkpt lat="47.933350" lon="1.674910">
						<ele>112</ele>
						<time>2022-01-27T09:38:13Z</time>
					</trkpt>
					<trkpt lat="47.933470" lon="1.675500">
						<ele>111</ele>
						<time>2022-01-27T09:38:20Z</time>
					</trkpt>
					<trkpt lat="47.934210" lon="1.678270">
						<ele>112</ele>
						<time>2022-01-27T09:38:55Z</time>
					</trkpt>
					<trkpt lat="47.934720" lon="1.679840">
						<ele>113</ele>
						<time>2022-01-27T09:39:16Z</time>
					</trkpt>
					<trkpt lat="47.935310" lon="1.681560">
						<ele>112</ele>
						<time>2022-01-27T09:39:39Z</time>
					</trkpt>
					<trkpt lat="47.935610" lon="1.682280">
						<ele>112</ele>
						<time>2022-01-27T09:39:49Z</time>
					</trkpt>
					<trkpt lat="47.936180" lon="1.683760">
						<ele>113</ele>
						<time>2022-01-27T09:40:10Z</time>
					</trkpt>
					<trkpt lat="47.937820" lon="1.688110">
						<ele>113</ele>
						<time>2022-01-27T09:41:09Z</time>
					</trkpt>
					<trkpt lat="47.938040" lon="1.688670">
						<ele>113</ele>
						<time>2022-01-27T09:41:17Z</time>
					</trkpt>
					<trkpt lat="47.938370" lon="1.689580">
						<ele>114</ele>
						<time>2022-01-27T09:41:29Z</time>
					</trkpt>
					<trkpt lat="47.938890" lon="1.691410">
						<ele>117</ele>
						<time>2022-01-27T09:41:53Z</time>
					</trkpt>
					<trkpt lat="47.939270" lon="1.692550">
						<ele>117</ele>
						<time>2022-01-27T09:42:08Z</time>
					</trkpt>
					<trkpt lat="47.939550" lon="1.693360">
						<ele>117</ele>
						<time>2022-01-27T09:42:19Z</time>
					</trkpt>
					<trkpt lat="47.939930" lon="1.694200">
						<ele>118</ele>
						<time>2022-01-27T09:42:31Z</time>
					</trkpt>
					<trkpt lat="47.940960" lon="1.696000">
						<ele>115</ele>
						<time>2022-01-27T09:42:59Z</time>
					</trkpt>
					<trkpt lat="47.941400" lon="1.696930">
						<ele>116</ele>
						<time>2022-01-27T09:43:13Z</time>
					</trkpt>
					<trkpt lat="47.942010" lon="1.698290">
						<ele>115</ele>
						<time>2022-01-27T09:43:32Z</time>
					</trkpt>
					<trkpt lat="47.942080" lon="1.698530">
						<ele>115</ele>
						<time>2022-01-27T09:43:36Z</time>
					</trkpt>
					<trkpt lat="47.942130" lon="1.698800">
						<ele>115</ele>
						<time>2022-01-27T09:43:39Z</time>
					</trkpt>
					<trkpt lat="47.942030" lon="1.700810">
						<ele>116</ele>
						<time>2022-01-27T09:44:03Z</time>
					</trkpt>
					<trkpt lat="47.942000" lon="1.700970">
						<ele>116</ele>
						<time>2022-01-27T09:44:05Z</time>
					</trkpt>
					<trkpt lat="47.942160" lon="1.700860">
						<ele>115</ele>
						<time>2022-01-27T09:44:08Z</time>
					</trkpt>
					<trkpt lat="47.943030" lon="1.700140">
						<ele>115</ele>
						<time>2022-01-27T09:44:26Z</time>
					</trkpt>
					<trkpt lat="47.946480" lon="1.697220">
						<ele>116</ele>
						<time>2022-01-27T09:45:36Z</time>
					</trkpt>
					<trkpt lat="47.946690" lon="1.697070">
						<ele>116</ele>
						<time>2022-01-27T09:45:40Z</time>
					</trkpt>
					<trkpt lat="47.946890" lon="1.696970">
						<ele>116</ele>
						<time>2022-01-27T09:45:44Z</time>
					</trkpt>
					<trkpt lat="47.947150" lon="1.696950">
						<ele>117</ele>
						<time>2022-01-27T09:45:49Z</time>
					</trkpt>
					<trkpt lat="47.950950" lon="1.697140">
						<ele>121</ele>
						<time>2022-01-27T09:46:57Z</time>
					</trkpt>
					<trkpt lat="47.959080" lon="1.697440">
						<ele>125</ele>
						<time>2022-01-27T09:49:21Z</time>
					</trkpt>
					<trkpt lat="47.960570" lon="1.697480">
						<ele>121</ele>
						<time>2022-01-27T09:49:48Z</time>
					</trkpt>
					<trkpt lat="47.960790" lon="1.697460">
						<ele>120</ele>
						<time>2022-01-27T09:49:52Z</time>
					</trkpt>
					<trkpt lat="47.960980" lon="1.697380">
						<ele>119</ele>
						<time>2022-01-27T09:49:55Z</time>
					</trkpt>
					<trkpt lat="47.961100" lon="1.697290">
						<ele>119</ele>
						<time>2022-01-27T09:49:58Z</time>
					</trkpt>
					<trkpt lat="47.961310" lon="1.697070">
						<ele>118</ele>
						<time>2022-01-27T09:50:02Z</time>
					</trkpt>
					<trkpt lat="47.961640" lon="1.696540">
						<ele>117</ele>
						<time>2022-01-27T09:50:11Z</time>
					</trkpt>
					<trkpt lat="47.961930" lon="1.696040">
						<ele>117</ele>
						<time>2022-01-27T09:50:19Z</time>
					</trkpt>
					<trkpt lat="47.962120" lon="1.695830">
						<ele>117</ele>
						<time>2022-01-27T09:50:23Z</time>
					</trkpt>
					<trkpt lat="47.962320" lon="1.695650">
						<ele>118</ele>
						<time>2022-01-27T09:50:27Z</time>
					</trkpt>
					<trkpt lat="47.963510" lon="1.694950">
						<ele>120</ele>
						<time>2022-01-27T09:50:50Z</time>
					</trkpt>
					<trkpt lat="47.963960" lon="1.694760">
						<ele>119</ele>
						<time>2022-01-27T09:50:58Z</time>
					</trkpt>
					<trkpt lat="47.963990" lon="1.695040">
						<ele>118</ele>
						<time>2022-01-27T09:51:01Z</time>
					</trkpt>
					<trkpt lat="47.964130" lon="1.695330">
						<ele>118</ele>
						<time>2022-01-27T09:51:06Z</time>
					</trkpt>
					<trkpt lat="47.964340" lon="1.695670">
						<ele>119</ele>
						<time>2022-01-27T09:51:11Z</time>
					</trkpt>
					<trkpt lat="47.964560" lon="1.695960">
						<ele>118</ele>
						<time>2022-01-27T09:51:16Z</time>
					</trkpt>
					<trkpt lat="47.964640" lon="1.696120">
						<ele>118</ele>
						<time>2022-01-27T09:51:19Z</time>
					</trkpt>
					<trkpt lat="47.964910" lon="1.696840">
						<ele>117</ele>
						<time>2022-01-27T09:51:29Z</time>
					</trkpt>
					<trkpt lat="47.965140" lon="1.697530">
						<ele>116</ele>
						<time>2022-01-27T09:51:38Z</time>
					</trkpt>
					<trkpt lat="47.965350" lon="1.698060">
						<ele>116</ele>
						<time>2022-01-27T09:51:45Z</time>
					</trkpt>
					<trkpt lat="47.966150" lon="1.699770">
						<ele>116</ele>
						<time>2022-01-27T09:52:10Z</time>
					</trkpt>
					<trkpt lat="47.966720" lon="1.700850">
						<ele>118</ele>
						<time>2022-01-27T09:52:26Z</time>
					</trkpt>
					<trkpt lat="47.967070" lon="1.701660">
						<ele>119</ele>
						<time>2022-01-27T09:52:38Z</time>
					</trkpt>
					<trkpt lat="47.967760" lon="1.703340">
						<ele>120</ele>
						<time>2022-01-27T09:53:01Z</time>
					</trkpt>
					<trkpt lat="47.967780" lon="1.703590">
						<ele>120</ele>
						<time>2022-01-27T09:53:04Z</time>
					</trkpt>
					<trkpt lat="47.967760" lon="1.704270">
						<ele>120</ele>
						<time>2022-01-27T09:53:12Z</time>
					</trkpt>
					<trkpt lat="47.967860" lon="1.704860">
						<ele>121</ele>
						<time>2022-01-27T09:53:20Z</time>
					</trkpt>
					<trkpt lat="47.968120" lon="1.706100">
						<ele>123</ele>
						<time>2022-01-27T09:53:35Z</time>
					</trkpt>
					<trkpt lat="47.968920" lon="1.708080">
						<ele>122</ele>
						<time>2022-01-27T09:54:03Z</time>
					</trkpt>
					<trkpt lat="47.969450" lon="1.709610">
						<ele>118</ele>
						<time>2022-01-27T09:54:23Z</time>
					</trkpt>
					<trkpt lat="47.969480" lon="1.709740">
						<ele>118</ele>
						<time>2022-01-27T09:54:25Z</time>
					</trkpt>
					<trkpt lat="47.969480" lon="1.709880">
						<ele>118</ele>
						<time>2022-01-27T09:54:27Z</time>
					</trkpt>
					<trkpt lat="47.969300" lon="1.710390">
						<ele>118</ele>
						<time>2022-01-27T09:54:33Z</time>
					</trkpt>
					<trkpt lat="47.969280" lon="1.710640">
						<ele>119</ele>
						<time>2022-01-27T09:54:36Z</time>
					</trkpt>
					<trkpt lat="47.969300" lon="1.710810">
						<ele>119</ele>
						<time>2022-01-27T09:54:38Z</time>
					</trkpt>
					<trkpt lat="47.969460" lon="1.711250">
						<ele>119</ele>
						<time>2022-01-27T09:54:44Z</time>
					</trkpt>
					<trkpt lat="47.970380" lon="1.713470">
						<ele>119</ele>
						<time>2022-01-27T09:55:16Z</time>
					</trkpt>
					<trkpt lat="47.970440" lon="1.713580">
						<ele>119</ele>
						<time>2022-01-27T09:55:17Z</time>
					</trkpt>
					<trkpt lat="47.971110" lon="1.716470">
						<ele>119</ele>
						<time>2022-01-27T09:55:54Z</time>
					</trkpt>
					<trkpt lat="47.971150" lon="1.716440">
						<ele>119</ele>
						<time>2022-01-27T09:55:54Z</time>
					</trkpt>
					<trkpt lat="47.975820" lon="1.716600">
						<ele>123</ele>
						<time>2022-01-27T09:57:18Z</time>
					</trkpt>
					<trkpt lat="47.975960" lon="1.716630">
						<ele>123</ele>
						<time>2022-01-27T09:57:20Z</time>
					</trkpt>
					<trkpt lat="47.976130" lon="1.716490">
						<ele>124</ele>
						<time>2022-01-27T09:57:24Z</time>
					</trkpt>
					<trkpt lat="47.976700" lon="1.715940">
						<ele>125</ele>
						<time>2022-01-27T09:57:36Z</time>
					</trkpt>
					<trkpt lat="47.977130" lon="1.715450">
						<ele>126</ele>
						<time>2022-01-27T09:57:45Z</time>
					</trkpt>
					<trkpt lat="47.977910" lon="1.714480">
						<ele>126</ele>
						<time>2022-01-27T09:58:03Z</time>
					</trkpt>
					<trkpt lat="47.978080" lon="1.714350">
						<ele>126</ele>
						<time>2022-01-27T09:58:07Z</time>
					</trkpt>
					<trkpt lat="47.979400" lon="1.713930">
						<ele>125</ele>
						<time>2022-01-27T09:58:31Z</time>
					</trkpt>
					<trkpt lat="47.979890" lon="1.713540">
						<ele>125</ele>
						<time>2022-01-27T09:58:41Z</time>
					</trkpt>
					<trkpt lat="47.981540" lon="1.715680">
						<ele>127</ele>
						<time>2022-01-27T09:59:19Z</time>
					</trkpt>
					<trkpt lat="47.981610" lon="1.715770">
						<ele>127</ele>
						<time>2022-01-27T09:59:21Z</time>
					</trkpt>
					<trkpt lat="47.981840" lon="1.716210">
						<ele>126</ele>
						<time>2022-01-27T09:59:28Z</time>
					</trkpt>
					<trkpt lat="47.982460" lon="1.717720">
						<ele>125</ele>
						<time>2022-01-27T09:59:49Z</time>
					</trkpt>
					<trkpt lat="47.983220" lon="1.720120">
						<ele>125</ele>
						<time>2022-01-27T10:00:21Z</time>
					</trkpt>
					<trkpt lat="47.983330" lon="1.720350">
						<ele>125</ele>
						<time>2022-01-27T10:00:24Z</time>
					</trkpt>
					<trkpt lat="47.983490" lon="1.720600">
						<ele>124</ele>
						<time>2022-01-27T10:00:28Z</time>
					</trkpt>
					<trkpt lat="47.983600" lon="1.720690">
						<ele>124</ele>
						<time>2022-01-27T10:00:30Z</time>
					</trkpt>
					<trkpt lat="47.984000" lon="1.720910">
						<ele>123</ele>
						<time>2022-01-27T10:00:38Z</time>
					</trkpt>
					<trkpt lat="47.986040" lon="1.721920">
						<ele>121</ele>
						<time>2022-01-27T10:01:16Z</time>
					</trkpt>
					<trkpt lat="47.986260" lon="1.721990">
						<ele>122</ele>
						<time>2022-01-27T10:01:20Z</time>
					</trkpt>
					<trkpt lat="47.988190" lon="1.722040">
						<ele>121</ele>
						<time>2022-01-27T10:01:54Z</time>
					</trkpt>
					<trkpt lat="47.989780" lon="1.721910">
						<ele>121</ele>
						<time>2022-01-27T10:02:23Z</time>
					</trkpt>
					<trkpt lat="47.990170" lon="1.721910">
						<ele>121</ele>
						<time>2022-01-27T10:02:30Z</time>
					</trkpt>
					<trkpt lat="47.990550" lon="1.722000">
						<ele>121</ele>
						<time>2022-01-27T10:02:37Z</time>
					</trkpt>
					<trkpt lat="47.991390" lon="1.722300">
						<ele>121</ele>
						<time>2022-01-27T10:02:52Z</time>
					</trkpt>
					<trkpt lat="47.991920" lon="1.722530">
						<ele>122</ele>
						<time>2022-01-27T10:03:02Z</time>
					</trkpt>
					<trkpt lat="47.994740" lon="1.714430">
						<ele>121</ele>
						<time>2022-01-27T10:04:50Z</time>
					</trkpt>
					<trkpt lat="47.996360" lon="1.716420">
						<ele>121</ele>
						<time>2022-01-27T10:05:28Z</time>
					</trkpt>
					<trkpt lat="47.996980" lon="1.717470">
						<ele>121</ele>
						<time>2022-01-27T10:05:44Z</time>
					</trkpt>
					<trkpt lat="47.999030" lon="1.721700">
						<ele>125</ele>
						<time>2022-01-27T10:06:47Z</time>
					</trkpt>
					<trkpt lat="48.000060" lon="1.723760">
						<ele>126</ele>
						<time>2022-01-27T10:07:17Z</time>
					</trkpt>
					<trkpt lat="48.000230" lon="1.724050">
						<ele>126</ele>
						<time>2022-01-27T10:07:22Z</time>
					</trkpt>
					<trkpt lat="48.000840" lon="1.724690">
						<ele>125</ele>
						<time>2022-01-27T10:07:35Z</time>
					</trkpt>
					<trkpt lat="48.000970" lon="1.724860">
						<ele>125</ele>
						<time>2022-01-27T10:07:38Z</time>
					</trkpt>
					<trkpt lat="48.001040" lon="1.725050">
						<ele>125</ele>
						<time>2022-01-27T10:07:41Z</time>
					</trkpt>
					<trkpt lat="48.001230" lon="1.726080">
						<ele>126</ele>
						<time>2022-01-27T10:07:53Z</time>
					</trkpt>
					<trkpt lat="48.001370" lon="1.726420">
						<ele>126</ele>
						<time>2022-01-27T10:07:58Z</time>
					</trkpt>
					<trkpt lat="48.002680" lon="1.728930">
						<ele>125</ele>
						<time>2022-01-27T10:08:36Z</time>
					</trkpt>
					<trkpt lat="48.005090" lon="1.733430">
						<ele>124</ele>
						<time>2022-01-27T10:09:45Z</time>
					</trkpt>
					<trkpt lat="48.005310" lon="1.733720">
						<ele>125</ele>
						<time>2022-01-27T10:09:50Z</time>
					</trkpt>
					<trkpt lat="48.006830" lon="1.735530">
						<ele>125</ele>
						<time>2022-01-27T10:10:25Z</time>
					</trkpt>
					<trkpt lat="48.008190" lon="1.737490">
						<ele>121</ele>
						<time>2022-01-27T10:10:58Z</time>
					</trkpt>
					<trkpt lat="48.008620" lon="1.738010">
						<ele>120</ele>
						<time>2022-01-27T10:11:08Z</time>
					</trkpt>
					<trkpt lat="48.009690" lon="1.738980">
						<ele>119</ele>
						<time>2022-01-27T10:11:30Z</time>
					</trkpt>
					<trkpt lat="48.009920" lon="1.739280">
						<ele>118</ele>
						<time>2022-01-27T10:11:36Z</time>
					</trkpt>
					<trkpt lat="48.009920" lon="1.739360">
						<ele>118</ele>
						<time>2022-01-27T10:11:37Z</time>
					</trkpt>
					<trkpt lat="48.009970" lon="1.739420">
						<ele>118</ele>
						<time>2022-01-27T10:11:38Z</time>
					</trkpt>
					<trkpt lat="48.010120" lon="1.739950">
						<ele>117</ele>
						<time>2022-01-27T10:11:45Z</time>
					</trkpt>
					<trkpt lat="48.010300" lon="1.740430">
						<ele>117</ele>
						<time>2022-01-27T10:11:51Z</time>
					</trkpt>
					<trkpt lat="48.010400" lon="1.740630">
						<ele>117</ele>
						<time>2022-01-27T10:11:54Z</time>
					</trkpt>
					<trkpt lat="48.010470" lon="1.740780">
						<ele>117</ele>
						<time>2022-01-27T10:11:56Z</time>
					</trkpt>
					<trkpt lat="48.010630" lon="1.741110">
						<ele>117</ele>
						<time>2022-01-27T10:12:01Z</time>
					</trkpt>
					<trkpt lat="48.010650" lon="1.741160">
						<ele>117</ele>
						<time>2022-01-27T10:12:02Z</time>
					</trkpt>
					<trkpt lat="48.010660" lon="1.741220">
						<ele>117</ele>
						<time>2022-01-27T10:12:03Z</time>
					</trkpt>
					<trkpt lat="48.010740" lon="1.741280">
						<ele>117</ele>
						<time>2022-01-27T10:12:04Z</time>
					</trkpt>
					<trkpt lat="48.011640" lon="1.742500">
						<ele>120</ele>
						<time>2022-01-27T10:12:26Z</time>
					</trkpt>
					<trkpt lat="48.011730" lon="1.742600">
						<ele>120</ele>
						<time>2022-01-27T10:12:28Z</time>
					</trkpt>
					<trkpt lat="48.012170" lon="1.743020">
						<ele>121</ele>
						<time>2022-01-27T10:12:37Z</time>
					</trkpt>
					<trkpt lat="48.012360" lon="1.743170">
						<ele>122</ele>
						<time>2022-01-27T10:12:41Z</time>
					</trkpt>
					<trkpt lat="48.012780" lon="1.743390">
						<ele>124</ele>
						<time>2022-01-27T10:12:49Z</time>
					</trkpt>
					<trkpt lat="48.013200" lon="1.743540">
						<ele>125</ele>
						<time>2022-01-27T10:12:56Z</time>
					</trkpt>
					<trkpt lat="48.014860" lon="1.743920">
						<ele>124</ele>
						<time>2022-01-27T10:13:26Z</time>
					</trkpt>
					<trkpt lat="48.015600" lon="1.744110">
						<ele>122</ele>
						<time>2022-01-27T10:13:40Z</time>
					</trkpt>
					<trkpt lat="48.016060" lon="1.744370">
						<ele>121</ele>
						<time>2022-01-27T10:13:48Z</time>
					</trkpt>
					<trkpt lat="48.016320" lon="1.744640">
						<ele>121</ele>
						<time>2022-01-27T10:13:54Z</time>
					</trkpt>
					<trkpt lat="48.017000" lon="1.745520">
						<ele>120</ele>
						<time>2022-01-27T10:14:10Z</time>
					</trkpt>
					<trkpt lat="48.017450" lon="1.746010">
						<ele>121</ele>
						<time>2022-01-27T10:14:20Z</time>
					</trkpt>
					<trkpt lat="48.017920" lon="1.746310">
						<ele>120</ele>
						<time>2022-01-27T10:14:29Z</time>
					</trkpt>
					<trkpt lat="48.019130" lon="1.747020">
						<ele>120</ele>
						<time>2022-01-27T10:14:52Z</time>
					</trkpt>
					<trkpt lat="48.019790" lon="1.747450">
						<ele>121</ele>
						<time>2022-01-27T10:15:05Z</time>
					</trkpt>
					<trkpt lat="48.020670" lon="1.747940">
						<ele>121</ele>
						<time>2022-01-27T10:15:22Z</time>
					</trkpt>
					<trkpt lat="48.021560" lon="1.748110">
						<ele>122</ele>
						<time>2022-01-27T10:15:38Z</time>
					</trkpt>
					<trkpt lat="48.021930" lon="1.748160">
						<ele>122</ele>
						<time>2022-01-27T10:15:44Z</time>
					</trkpt>
					<trkpt lat="48.022600" lon="1.748270">
						<ele>123</ele>
						<time>2022-01-27T10:15:56Z</time>
					</trkpt>
					<trkpt lat="48.022710" lon="1.748310">
						<ele>123</ele>
						<time>2022-01-27T10:15:58Z</time>
					</trkpt>
					<trkpt lat="48.023760" lon="1.748830">
						<ele>123</ele>
						<time>2022-01-27T10:16:18Z</time>
					</trkpt>
					<trkpt lat="48.024050" lon="1.749050">
						<ele>122</ele>
						<time>2022-01-27T10:16:24Z</time>
					</trkpt>
					<trkpt lat="48.024400" lon="1.749460">
						<ele>123</ele>
						<time>2022-01-27T10:16:32Z</time>
					</trkpt>
					<trkpt lat="48.025560" lon="1.750650">
						<ele>124</ele>
						<time>2022-01-27T10:16:57Z</time>
					</trkpt>
					<trkpt lat="48.026970" lon="1.752160">
						<ele>127</ele>
						<time>2022-01-27T10:17:28Z</time>
					</trkpt>
					<trkpt lat="48.027480" lon="1.752510">
						<ele>127</ele>
						<time>2022-01-27T10:17:38Z</time>
					</trkpt>
					<trkpt lat="48.027580" lon="1.752600">
						<ele>127</ele>
						<time>2022-01-27T10:17:40Z</time>
					</trkpt>
					<trkpt lat="48.028380" lon="1.753580">
						<ele>127</ele>
						<time>2022-01-27T10:17:58Z</time>
					</trkpt>
					<trkpt lat="48.031310" lon="1.757390">
						<ele>128</ele>
						<time>2022-01-27T10:19:07Z</time>
					</trkpt>
					<trkpt lat="48.031700" lon="1.758080">
						<ele>130</ele>
						<time>2022-01-27T10:19:18Z</time>
					</trkpt>
					<trkpt lat="48.032050" lon="1.758850">
						<ele>128</ele>
						<time>2022-01-27T10:19:29Z</time>
					</trkpt>
					<trkpt lat="48.032210" lon="1.759130">
						<ele>127</ele>
						<time>2022-01-27T10:19:33Z</time>
					</trkpt>
					<trkpt lat="48.032490" lon="1.759470">
						<ele>127</ele>
						<time>2022-01-27T10:19:40Z</time>
					</trkpt>
					<trkpt lat="48.032600" lon="1.759660">
						<ele>128</ele>
						<time>2022-01-27T10:19:43Z</time>
					</trkpt>
					<trkpt lat="48.034090" lon="1.761040">
						<ele>129</ele>
						<time>2022-01-27T10:20:14Z</time>
					</trkpt>
					<trkpt lat="48.034630" lon="1.761620">
						<ele>128</ele>
						<time>2022-01-27T10:20:26Z</time>
					</trkpt>
					<trkpt lat="48.035180" lon="1.762460">
						<ele>128</ele>
						<time>2022-01-27T10:20:40Z</time>
					</trkpt>
					<trkpt lat="48.035280" lon="1.762500">
						<ele>129</ele>
						<time>2022-01-27T10:20:42Z</time>
					</trkpt>
					<trkpt lat="48.035440" lon="1.762500">
						<ele>129</ele>
						<time>2022-01-27T10:20:44Z</time>
					</trkpt>
					<trkpt lat="48.037720" lon="1.762000">
						<ele>128</ele>
						<time>2022-01-27T10:21:25Z</time>
					</trkpt>
					<trkpt lat="48.039970" lon="1.761640">
						<ele>132</ele>
						<time>2022-01-27T10:22:06Z</time>
					</trkpt>
					<trkpt lat="48.042710" lon="1.760470">
						<ele>131</ele>
						<time>2022-01-27T10:22:56Z</time>
					</trkpt>
					<trkpt lat="48.042900" lon="1.760490">
						<ele>131</ele>
						<time>2022-01-27T10:23:00Z</time>
					</trkpt>
					<trkpt lat="48.043060" lon="1.760630">
						<ele>131</ele>
						<time>2022-01-27T10:23:03Z</time>
					</trkpt>
					<trkpt lat="48.044380" lon="1.762530">
						<ele>130</ele>
						<time>2022-01-27T10:23:36Z</time>
					</trkpt>
					<trkpt lat="48.044850" lon="1.763260">
						<ele>129</ele>
						<time>2022-01-27T10:23:48Z</time>
					</trkpt>
					<trkpt lat="48.045190" lon="1.763890">
						<ele>130</ele>
						<time>2022-01-27T10:23:57Z</time>
					</trkpt>
					<trkpt lat="48.045630" lon="1.764960">
						<ele>132</ele>
						<time>2022-01-27T10:24:12Z</time>
					</trkpt>
					<trkpt lat="48.045780" lon="1.765440">
						<ele>132</ele>
						<time>2022-01-27T10:24:19Z</time>
					</trkpt>
					<trkpt lat="48.045890" lon="1.765900">
						<ele>132</ele>
						<time>2022-01-27T10:24:24Z</time>
					</trkpt>
					<trkpt lat="48.045970" lon="1.766300">
						<ele>131</ele>
						<time>2022-01-27T10:24:29Z</time>
					</trkpt>
					<trkpt lat="48.046050" lon="1.766830">
						<ele>131</ele>
						<time>2022-01-27T10:24:36Z</time>
					</trkpt>
					<trkpt lat="48.046120" lon="1.767560">
						<ele>130</ele>
						<time>2022-01-27T10:24:45Z</time>
					</trkpt>
					<trkpt lat="48.046310" lon="1.769010">
						<ele>129</ele>
						<time>2022-01-27T10:25:02Z</time>
					</trkpt>
					<trkpt lat="48.046560" lon="1.770670">
						<ele>130</ele>
						<time>2022-01-27T10:25:22Z</time>
					</trkpt>
					<trkpt lat="48.046790" lon="1.771760">
						<ele>131</ele>
						<time>2022-01-27T10:25:36Z</time>
					</trkpt>
					<trkpt lat="48.047670" lon="1.774660">
						<ele>130</ele>
						<time>2022-01-27T10:26:14Z</time>
					</trkpt>
					<trkpt lat="48.047840" lon="1.775560">
						<ele>130</ele>
						<time>2022-01-27T10:26:25Z</time>
					</trkpt>
					<trkpt lat="48.048110" lon="1.776580">
						<ele>130</ele>
						<time>2022-01-27T10:26:38Z</time>
					</trkpt>
					<trkpt lat="48.048420" lon="1.777190">
						<ele>131</ele>
						<time>2022-01-27T10:26:47Z</time>
					</trkpt>
					<trkpt lat="48.049020" lon="1.777810">
						<ele>132</ele>
						<time>2022-01-27T10:27:00Z</time>
					</trkpt>
					<trkpt lat="48.049570" lon="1.778470">
						<ele>132</ele>
						<time>2022-01-27T10:27:13Z</time>
					</trkpt>
					<trkpt lat="48.050130" lon="1.779480">
						<ele>130</ele>
						<time>2022-01-27T10:27:28Z</time>
					</trkpt>
					<trkpt lat="48.050800" lon="1.780900">
						<ele>131</ele>
						<time>2022-01-27T10:27:49Z</time>
					</trkpt>
					<trkpt lat="48.050980" lon="1.781700">
						<ele>130</ele>
						<time>2022-01-27T10:27:59Z</time>
					</trkpt>
					<trkpt lat="48.051320" lon="1.783780">
						<ele>130</ele>
						<time>2022-01-27T10:28:25Z</time>
					</trkpt>
					<trkpt lat="48.051470" lon="1.784200">
						<ele>130</ele>
						<time>2022-01-27T10:28:30Z</time>
					</trkpt>
					<trkpt lat="48.052200" lon="1.785360">
						<ele>131</ele>
						<time>2022-01-27T10:28:49Z</time>
					</trkpt>
					<trkpt lat="48.052620" lon="1.786060">
						<ele>131</ele>
						<time>2022-01-27T10:29:00Z</time>
					</trkpt>
					<trkpt lat="48.053130" lon="1.787130">
						<ele>130</ele>
						<time>2022-01-27T10:29:16Z</time>
					</trkpt>
					<trkpt lat="48.053480" lon="1.787720">
						<ele>130</ele>
						<time>2022-01-27T10:29:25Z</time>
					</trkpt>
					<trkpt lat="48.053640" lon="1.787930">
						<ele>130</ele>
						<time>2022-01-27T10:29:29Z</time>
					</trkpt>
					<trkpt lat="48.053970" lon="1.788200">
						<ele>130</ele>
						<time>2022-01-27T10:29:36Z</time>
					</trkpt>
					<trkpt lat="48.054030" lon="1.788290">
						<ele>130</ele>
						<time>2022-01-27T10:29:37Z</time>
					</trkpt>
					<trkpt lat="48.054260" lon="1.788730">
						<ele>131</ele>
						<time>2022-01-27T10:29:44Z</time>
					</trkpt>
					<trkpt lat="48.054170" lon="1.788940">
						<ele>131</ele>
						<time>2022-01-27T10:29:47Z</time>
					</trkpt>
					<trkpt lat="48.054080" lon="1.789330">
						<ele>132</ele>
						<time>2022-01-27T10:29:52Z</time>
					</trkpt>
					<trkpt lat="48.054000" lon="1.789570">
						<ele>132</ele>
						<time>2022-01-27T10:29:55Z</time>
					</trkpt>
					<trkpt lat="48.053730" lon="1.790230">
						<ele>131</ele>
						<time>2022-01-27T10:30:04Z</time>
					</trkpt>
					<trkpt lat="48.053010" lon="1.791470">
						<ele>130</ele>
						<time>2022-01-27T10:30:24Z</time>
					</trkpt>
					<trkpt lat="48.052780" lon="1.791830">
						<ele>130</ele>
						<time>2022-01-27T10:30:30Z</time>
					</trkpt>
					<trkpt lat="48.052100" lon="1.793010">
						<ele>128</ele>
						<time>2022-01-27T10:30:48Z</time>
					</trkpt>
					<trkpt lat="48.051610" lon="1.794020">
						<ele>127</ele>
						<time>2022-01-27T10:31:03Z</time>
					</trkpt>
					<trkpt lat="48.051530" lon="1.794230">
						<ele>127</ele>
						<time>2022-01-27T10:31:06Z</time>
					</trkpt>
					<trkpt lat="48.051470" lon="1.794470">
						<ele>127</ele>
						<time>2022-01-27T10:31:09Z</time>
					</trkpt>
					<trkpt lat="48.051470" lon="1.794640">
						<ele>127</ele>
						<time>2022-01-27T10:31:11Z</time>
					</trkpt>
					<trkpt lat="48.051790" lon="1.797910">
						<ele>130</ele>
						<time>2022-01-27T10:31:50Z</time>
					</trkpt>
					<trkpt lat="48.052310" lon="1.799710">
						<ele>128</ele>
						<time>2022-01-27T10:32:14Z</time>
					</trkpt>
					<trkpt lat="48.052330" lon="1.799990">
						<ele>128</ele>
						<time>2022-01-27T10:32:17Z</time>
					</trkpt>
					<trkpt lat="48.051340" lon="1.807270">
						<ele>126</ele>
						<time>2022-01-27T10:33:45Z</time>
					</trkpt>
					<trkpt lat="48.049700" lon="1.819570">
						<ele>128</ele>
						<time>2022-01-27T10:36:15Z</time>
					</trkpt>
					<trkpt lat="48.049570" lon="1.820430">
						<ele>127</ele>
						<time>2022-01-27T10:36:25Z</time>
					</trkpt>
					<trkpt lat="48.049090" lon="1.823110">
						<ele>125</ele>
						<time>2022-01-27T10:36:58Z</time>
					</trkpt>
					<trkpt lat="48.048940" lon="1.823670">
						<ele>125</ele>
						<time>2022-01-27T10:37:05Z</time>
					</trkpt>
					<trkpt lat="48.048620" lon="1.824780">
						<ele>125</ele>
						<time>2022-01-27T10:37:20Z</time>
					</trkpt>
					<trkpt lat="48.048570" lon="1.825020">
						<ele>125</ele>
						<time>2022-01-27T10:37:23Z</time>
					</trkpt>
					<trkpt lat="48.048440" lon="1.826000">
						<ele>125</ele>
						<time>2022-01-27T10:37:34Z</time>
					</trkpt>
					<trkpt lat="48.048100" lon="1.827260">
						<ele>125</ele>
						<time>2022-01-27T10:37:51Z</time>
					</trkpt>
					<trkpt lat="48.048040" lon="1.827560">
						<ele>125</ele>
						<time>2022-01-27T10:37:54Z</time>
					</trkpt>
					<trkpt lat="48.047970" lon="1.828010">
						<ele>125</ele>
						<time>2022-01-27T10:38:00Z</time>
					</trkpt>
					<trkpt lat="48.047890" lon="1.828760">
						<ele>124</ele>
						<time>2022-01-27T10:38:09Z</time>
					</trkpt>
					<trkpt lat="48.047860" lon="1.829240">
						<ele>124</ele>
						<time>2022-01-27T10:38:15Z</time>
					</trkpt>
					<trkpt lat="48.047810" lon="1.831220">
						<ele>123</ele>
						<time>2022-01-27T10:38:38Z</time>
					</trkpt>
					<trkpt lat="48.047800" lon="1.835170">
						<ele>123</ele>
						<time>2022-01-27T10:39:25Z</time>
					</trkpt>
					<trkpt lat="48.047790" lon="1.835460">
						<ele>122</ele>
						<time>2022-01-27T10:39:29Z</time>
					</trkpt>
					<trkpt lat="48.047750" lon="1.835810">
						<ele>122</ele>
						<time>2022-01-27T10:39:33Z</time>
					</trkpt>
					<trkpt lat="48.047650" lon="1.836120">
						<ele>122</ele>
						<time>2022-01-27T10:39:37Z</time>
					</trkpt>
					<trkpt lat="48.047500" lon="1.836410">
						<ele>122</ele>
						<time>2022-01-27T10:39:41Z</time>
					</trkpt>
					<trkpt lat="48.045100" lon="1.840480">
						<ele>121</ele>
						<time>2022-01-27T10:40:46Z</time>
					</trkpt>
					<trkpt lat="48.044750" lon="1.841050">
						<ele>121</ele>
						<time>2022-01-27T10:40:55Z</time>
					</trkpt>
					<trkpt lat="48.044310" lon="1.841770">
						<ele>122</ele>
						<time>2022-01-27T10:41:07Z</time>
					</trkpt>
					<trkpt lat="48.043900" lon="1.842340">
						<ele>122</ele>
						<time>2022-01-27T10:41:17Z</time>
					</trkpt>
					<trkpt lat="48.043560" lon="1.842780">
						<ele>121</ele>
						<time>2022-01-27T10:41:25Z</time>
					</trkpt>
					<trkpt lat="48.043250" lon="1.843150">
						<ele>121</ele>
						<time>2022-01-27T10:41:32Z</time>
					</trkpt>
					<trkpt lat="48.042570" lon="1.843860">
						<ele>122</ele>
						<time>2022-01-27T10:41:46Z</time>
					</trkpt>
					<trkpt lat="48.041890" lon="1.844850">
						<ele>121</ele>
						<time>2022-01-27T10:42:03Z</time>
					</trkpt>
					<trkpt lat="48.041620" lon="1.845300">
						<ele>121</ele>
						<time>2022-01-27T10:42:11Z</time>
					</trkpt>
					<trkpt lat="48.038130" lon="1.851920">
						<ele>119</ele>
						<time>2022-01-27T10:43:51Z</time>
					</trkpt>
					<trkpt lat="48.037360" lon="1.853340">
						<ele>118</ele>
						<time>2022-01-27T10:44:13Z</time>
					</trkpt>
					<trkpt lat="48.034520" lon="1.857680">
						<ele>119</ele>
						<time>2022-01-27T10:45:25Z</time>
					</trkpt>
					<trkpt lat="48.033170" lon="1.860060">
						<ele>119</ele>
						<time>2022-01-27T10:46:02Z</time>
					</trkpt>
					<trkpt lat="48.032470" lon="1.861390">
						<ele>120</ele>
						<time>2022-01-27T10:46:22Z</time>
					</trkpt>
					<trkpt lat="48.031100" lon="1.864190">
						<ele>121</ele>
						<time>2022-01-27T10:47:03Z</time>
					</trkpt>
					<trkpt lat="48.030250" lon="1.866320">
						<ele>121</ele>
						<time>2022-01-27T10:47:33Z</time>
					</trkpt>
					<trkpt lat="48.029810" lon="1.867470">
						<ele>122</ele>
						<time>2022-01-27T10:47:49Z</time>
					</trkpt>
					<trkpt lat="48.029770" lon="1.867450">
						<ele>121</ele>
						<time>2022-01-27T10:47:49Z</time>
					</trkpt>
					<trkpt lat="48.029730" lon="1.867450">
						<ele>121</ele>
						<time>2022-01-27T10:47:50Z</time>
					</trkpt>
					<trkpt lat="48.029690" lon="1.867490">
						<ele>121</ele>
						<time>2022-01-27T10:47:51Z</time>
					</trkpt>
					<trkpt lat="48.029660" lon="1.867540">
						<ele>121</ele>
						<time>2022-01-27T10:47:52Z</time>
					</trkpt>
					<trkpt lat="48.029650" lon="1.867610">
						<ele>121</ele>
						<time>2022-01-27T10:47:53Z</time>
					</trkpt>
					<trkpt lat="48.029670" lon="1.867670">
						<ele>121</ele>
						<time>2022-01-27T10:47:53Z</time>
					</trkpt>
					<trkpt lat="48.029690" lon="1.867720">
						<ele>121</ele>
						<time>2022-01-27T10:47:54Z</time>
					</trkpt>
					<trkpt lat="48.029740" lon="1.867750">
						<ele>121</ele>
						<time>2022-01-27T10:47:55Z</time>
					</trkpt>
					<trkpt lat="48.029730" lon="1.868050">
						<ele>121</ele>
						<time>2022-01-27T10:47:59Z</time>
					</trkpt>
					<trkpt lat="48.029590" lon="1.869700">
						<ele>122</ele>
						<time>2022-01-27T10:48:18Z</time>
					</trkpt>
					<trkpt lat="48.029500" lon="1.871070">
						<ele>122</ele>
						<time>2022-01-27T10:48:35Z</time>
					</trkpt>
					<trkpt lat="48.029460" lon="1.871320">
						<ele>122</ele>
						<time>2022-01-27T10:48:38Z</time>
					</trkpt>
					<trkpt lat="48.029430" lon="1.871440">
						<ele>122</ele>
						<time>2022-01-27T10:48:39Z</time>
					</trkpt>
					<trkpt lat="48.029280" lon="1.871760">
						<ele>122</ele>
						<time>2022-01-27T10:48:44Z</time>
					</trkpt>
					<trkpt lat="48.029210" lon="1.871960">
						<ele>122</ele>
						<time>2022-01-27T10:48:47Z</time>
					</trkpt>
					<trkpt lat="48.027880" lon="1.871710">
						<ele>125</ele>
						<time>2022-01-27T10:49:11Z</time>
					</trkpt>
					<trkpt lat="48.027750" lon="1.871710">
						<ele>125</ele>
						<time>2022-01-27T10:49:13Z</time>
					</trkpt>
					<trkpt lat="48.027200" lon="1.871980">
						<ele>125</ele>
						<time>2022-01-27T10:49:23Z</time>
					</trkpt>
					<trkpt lat="48.025890" lon="1.872150">
						<ele>126</ele>
						<time>2022-01-27T10:49:47Z</time>
					</trkpt>
					<trkpt lat="48.025230" lon="1.868640">
						<ele>123</ele>
						<time>2022-01-27T10:50:30Z</time>
					</trkpt>
					<trkpt lat="48.023400" lon="1.858860">
						<ele>125</ele>
						<time>2022-01-27T10:52:31Z</time>
					</trkpt>
					<trkpt lat="48.013330" lon="1.847640">
						<ele>122</ele>
						<time>2022-01-27T10:56:14Z</time>
					</trkpt>
					<trkpt lat="48.013090" lon="1.847460">
						<ele>122</ele>
						<time>2022-01-27T10:56:19Z</time>
					</trkpt>
					<trkpt lat="48.012640" lon="1.847270">
						<ele>123</ele>
						<time>2022-01-27T10:56:27Z</time>
					</trkpt>
					<trkpt lat="48.011660" lon="1.847050">
						<ele>121</ele>
						<time>2022-01-27T10:56:45Z</time>
					</trkpt>
					<trkpt lat="48.011100" lon="1.846850">
						<ele>121</ele>
						<time>2022-01-27T10:56:55Z</time>
					</trkpt>
					<trkpt lat="48.010850" lon="1.846670">
						<ele>121</ele>
						<time>2022-01-27T10:57:00Z</time>
					</trkpt>
					<trkpt lat="48.010510" lon="1.846230">
						<ele>121</ele>
						<time>2022-01-27T10:57:08Z</time>
					</trkpt>
					<trkpt lat="48.010050" lon="1.845520">
						<ele>122</ele>
						<time>2022-01-27T10:57:20Z</time>
					</trkpt>
					<trkpt lat="48.009630" lon="1.844880">
						<ele>121</ele>
						<time>2022-01-27T10:57:31Z</time>
					</trkpt>
					<trkpt lat="48.009430" lon="1.844610">
						<ele>121</ele>
						<time>2022-01-27T10:57:35Z</time>
					</trkpt>
					<trkpt lat="48.009230" lon="1.844390">
						<ele>122</ele>
						<time>2022-01-27T10:57:40Z</time>
					</trkpt>
					<trkpt lat="48.008910" lon="1.844130">
						<ele>122</ele>
						<time>2022-01-27T10:57:46Z</time>
					</trkpt>
					<trkpt lat="48.008310" lon="1.843820">
						<ele>122</ele>
						<time>2022-01-27T10:57:58Z</time>
					</trkpt>
					<trkpt lat="48.007870" lon="1.843670">
						<ele>122</ele>
						<time>2022-01-27T10:58:06Z</time>
					</trkpt>
					<trkpt lat="48.003990" lon="1.842840">
						<ele>123</ele>
						<time>2022-01-27T10:59:15Z</time>
					</trkpt>
					<trkpt lat="48.001890" lon="1.842340">
						<ele>123</ele>
						<time>2022-01-27T10:59:53Z</time>
					</trkpt>
					<trkpt lat="47.999860" lon="1.841890">
						<ele>125</ele>
						<time>2022-01-27T11:00:30Z</time>
					</trkpt>
					<trkpt lat="47.999700" lon="1.841800">
						<ele>125</ele>
						<time>2022-01-27T11:00:33Z</time>
					</trkpt>
					<trkpt lat="47.998940" lon="1.841000">
						<ele>124</ele>
						<time>2022-01-27T11:00:49Z</time>
					</trkpt>
					<trkpt lat="47.998530" lon="1.840650">
						<ele>124</ele>
						<time>2022-01-27T11:00:58Z</time>
					</trkpt>
					<trkpt lat="47.998360" lon="1.840530">
						<ele>124</ele>
						<time>2022-01-27T11:01:01Z</time>
					</trkpt>
					<trkpt lat="47.997900" lon="1.840250">
						<ele>125</ele>
						<time>2022-01-27T11:01:10Z</time>
					</trkpt>
					<trkpt lat="47.997150" lon="1.839870">
						<ele>125</ele>
						<time>2022-01-27T11:01:24Z</time>
					</trkpt>
					<trkpt lat="47.995540" lon="1.839160">
						<ele>125</ele>
						<time>2022-01-27T11:01:54Z</time>
					</trkpt>
					<trkpt lat="47.995310" lon="1.839030">
						<ele>124</ele>
						<time>2022-01-27T11:01:58Z</time>
					</trkpt>
					<trkpt lat="47.992920" lon="1.837210">
						<ele>123</ele>
						<time>2022-01-27T11:02:46Z</time>
					</trkpt>
					<trkpt lat="47.992760" lon="1.837050">
						<ele>123</ele>
						<time>2022-01-27T11:02:49Z</time>
					</trkpt>
					<trkpt lat="47.992560" lon="1.837070">
						<ele>123</ele>
						<time>2022-01-27T11:02:53Z</time>
					</trkpt>
					<trkpt lat="47.991050" lon="1.836910">
						<ele>123</ele>
						<time>2022-01-27T11:03:20Z</time>
					</trkpt>
					<trkpt lat="47.990720" lon="1.836910">
						<ele>123</ele>
						<time>2022-01-27T11:03:26Z</time>
					</trkpt>
					<trkpt lat="47.990490" lon="1.836900">
						<ele>123</ele>
						<time>2022-01-27T11:03:30Z</time>
					</trkpt>
					<trkpt lat="47.990430" lon="1.836820">
						<ele>123</ele>
						<time>2022-01-27T11:03:31Z</time>
					</trkpt>
					<trkpt lat="47.990360" lon="1.836430">
						<ele>124</ele>
						<time>2022-01-27T11:03:36Z</time>
					</trkpt>
					<trkpt lat="47.990330" lon="1.836350">
						<ele>124</ele>
						<time>2022-01-27T11:03:37Z</time>
					</trkpt>
					<trkpt lat="47.990300" lon="1.836330">
						<ele>124</ele>
						<time>2022-01-27T11:03:38Z</time>
					</trkpt>
					<trkpt lat="47.990240" lon="1.836340">
						<ele>124</ele>
						<time>2022-01-27T11:03:39Z</time>
					</trkpt>
					<trkpt lat="47.989960" lon="1.836460">
						<ele>124</ele>
						<time>2022-01-27T11:03:44Z</time>
					</trkpt>
					<trkpt lat="47.989800" lon="1.836580">
						<ele>124</ele>
						<time>2022-01-27T11:03:47Z</time>
					</trkpt>
					<trkpt lat="47.989690" lon="1.836690">
						<ele>123</ele>
						<time>2022-01-27T11:03:50Z</time>
					</trkpt>
					<trkpt lat="47.989640" lon="1.836780">
						<ele>123</ele>
						<time>2022-01-27T11:03:51Z</time>
					</trkpt>
					<trkpt lat="47.989630" lon="1.836840">
						<ele>123</ele>
						<time>2022-01-27T11:03:52Z</time>
					</trkpt>
					<trkpt lat="47.989480" lon="1.836920">
						<ele>122</ele>
						<time>2022-01-27T11:03:55Z</time>
					</trkpt>
					<trkpt lat="47.988270" lon="1.837050">
						<ele>120</ele>
						<time>2022-01-27T11:04:16Z</time>
					</trkpt>
					<trkpt lat="47.987980" lon="1.837110">
						<ele>120</ele>
						<time>2022-01-27T11:04:21Z</time>
					</trkpt>
					<trkpt lat="47.987600" lon="1.837330">
						<ele>119</ele>
						<time>2022-01-27T11:04:29Z</time>
					</trkpt>
					<trkpt lat="47.983890" lon="1.839050">
						<ele>123</ele>
						<time>2022-01-27T11:05:38Z</time>
					</trkpt>
					<trkpt lat="47.983620" lon="1.839220">
						<ele>123</ele>
						<time>2022-01-27T11:05:43Z</time>
					</trkpt>
					<trkpt lat="47.982970" lon="1.839700">
						<ele>121</ele>
						<time>2022-01-27T11:05:56Z</time>
					</trkpt>
					<trkpt lat="47.982890" lon="1.839790">
						<ele>122</ele>
						<time>2022-01-27T11:05:58Z</time>
					</trkpt>
					<trkpt lat="47.982850" lon="1.839920">
						<ele>122</ele>
						<time>2022-01-27T11:05:59Z</time>
					</trkpt>
					<trkpt lat="47.982710" lon="1.839940">
						<ele>122</ele>
						<time>2022-01-27T11:06:02Z</time>
					</trkpt>
					<trkpt lat="47.982480" lon="1.840150">
						<ele>122</ele>
						<time>2022-01-27T11:06:07Z</time>
					</trkpt>
					<trkpt lat="47.982310" lon="1.840240">
						<ele>122</ele>
						<time>2022-01-27T11:06:10Z</time>
					</trkpt>
					<trkpt lat="47.982130" lon="1.840280">
						<ele>122</ele>
						<time>2022-01-27T11:06:13Z</time>
					</trkpt>
					<trkpt lat="47.980850" lon="1.840260">
						<ele>123</ele>
						<time>2022-01-27T11:06:36Z</time>
					</trkpt>
					<trkpt lat="47.980700" lon="1.840280">
						<ele>123</ele>
						<time>2022-01-27T11:06:39Z</time>
					</trkpt>
					<trkpt lat="47.980520" lon="1.840350">
						<ele>122</ele>
						<time>2022-01-27T11:06:42Z</time>
					</trkpt>
					<trkpt lat="47.979410" lon="1.840920">
						<ele>120</ele>
						<time>2022-01-27T11:07:03Z</time>
					</trkpt>
					<trkpt lat="47.978920" lon="1.841140">
						<ele>121</ele>
						<time>2022-01-27T11:07:12Z</time>
					</trkpt>
					<trkpt lat="47.976930" lon="1.841980">
						<ele>120</ele>
						<time>2022-01-27T11:07:49Z</time>
					</trkpt>
					<trkpt lat="47.976840" lon="1.842010">
						<ele>120</ele>
						<time>2022-01-27T11:07:50Z</time>
					</trkpt>
					<trkpt lat="47.976690" lon="1.842020">
						<ele>120</ele>
						<time>2022-01-27T11:07:53Z</time>
					</trkpt>
					<trkpt lat="47.976520" lon="1.841950">
						<ele>121</ele>
						<time>2022-01-27T11:07:56Z</time>
					</trkpt>
					<trkpt lat="47.972850" lon="1.839350">
						<ele>122</ele>
						<time>2022-01-27T11:09:08Z</time>
					</trkpt>
					<trkpt lat="47.972640" lon="1.839220">
						<ele>122</ele>
						<time>2022-01-27T11:09:12Z</time>
					</trkpt>
					<trkpt lat="47.972510" lon="1.839160">
						<ele>122</ele>
						<time>2022-01-27T11:09:15Z</time>
					</trkpt>
					<trkpt lat="47.972190" lon="1.839110">
						<ele>122</ele>
						<time>2022-01-27T11:09:21Z</time>
					</trkpt>
					<trkpt lat="47.970140" lon="1.839130">
						<ele>121</ele>
						<time>2022-01-27T11:09:57Z</time>
					</trkpt>
					<trkpt lat="47.969950" lon="1.839090">
						<ele>121</ele>
						<time>2022-01-27T11:10:00Z</time>
					</trkpt>
					<trkpt lat="47.969730" lon="1.838930">
						<ele>121</ele>
						<time>2022-01-27T11:10:05Z</time>
					</trkpt>
					<trkpt lat="47.969500" lon="1.838700">
						<ele>121</ele>
						<time>2022-01-27T11:10:10Z</time>
					</trkpt>
					<trkpt lat="47.969390" lon="1.838560">
						<ele>121</ele>
						<time>2022-01-27T11:10:12Z</time>
					</trkpt>
					<trkpt lat="47.969250" lon="1.838270">
						<ele>121</ele>
						<time>2022-01-27T11:10:17Z</time>
					</trkpt>
					<trkpt lat="47.969160" lon="1.838000">
						<ele>121</ele>
						<time>2022-01-27T11:10:20Z</time>
					</trkpt>
					<trkpt lat="47.969080" lon="1.837610">
						<ele>122</ele>
						<time>2022-01-27T11:10:25Z</time>
					</trkpt>
					<trkpt lat="47.968770" lon="1.834060">
						<ele>123</ele>
						<time>2022-01-27T11:11:08Z</time>
					</trkpt>
					<trkpt lat="47.968740" lon="1.833900">
						<ele>123</ele>
						<time>2022-01-27T11:11:10Z</time>
					</trkpt>
					<trkpt lat="47.968670" lon="1.833720">
						<ele>123</ele>
						<time>2022-01-27T11:11:12Z</time>
					</trkpt>
					<trkpt lat="47.968540" lon="1.833490">
						<ele>123</ele>
						<time>2022-01-27T11:11:16Z</time>
					</trkpt>
					<trkpt lat="47.968360" lon="1.833270">
						<ele>124</ele>
						<time>2022-01-27T11:11:20Z</time>
					</trkpt>
					<trkpt lat="47.961530" lon="1.827380">
						<ele>125</ele>
						<time>2022-01-27T11:13:40Z</time>
					</trkpt>
					<trkpt lat="47.961120" lon="1.827180">
						<ele>124</ele>
						<time>2022-01-27T11:13:48Z</time>
					</trkpt>
					<trkpt lat="47.957630" lon="1.826860">
						<ele>120</ele>
						<time>2022-01-27T11:14:50Z</time>
					</trkpt>
					<trkpt lat="47.956780" lon="1.826770">
						<ele>122</ele>
						<time>2022-01-27T11:15:05Z</time>
					</trkpt>
					<trkpt lat="47.956560" lon="1.826720">
						<ele>122</ele>
						<time>2022-01-27T11:15:09Z</time>
					</trkpt>
					<trkpt lat="47.956410" lon="1.826640">
						<ele>122</ele>
						<time>2022-01-27T11:15:12Z</time>
					</trkpt>
					<trkpt lat="47.956110" lon="1.826380">
						<ele>124</ele>
						<time>2022-01-27T11:15:18Z</time>
					</trkpt>
					<trkpt lat="47.956000" lon="1.826400">
						<ele>124</ele>
						<time>2022-01-27T11:15:20Z</time>
					</trkpt>
					<trkpt lat="47.954910" lon="1.826930">
						<ele>120</ele>
						<time>2022-01-27T11:15:41Z</time>
					</trkpt>
					<trkpt lat="47.954510" lon="1.827140">
						<ele>120</ele>
						<time>2022-01-27T11:15:48Z</time>
					</trkpt>
					<trkpt lat="47.954370" lon="1.827240">
						<ele>120</ele>
						<time>2022-01-27T11:15:51Z</time>
					</trkpt>
					<trkpt lat="47.954220" lon="1.827370">
						<ele>121</ele>
						<time>2022-01-27T11:15:54Z</time>
					</trkpt>
					<trkpt lat="47.953700" lon="1.827990">
						<ele>120</ele>
						<time>2022-01-27T11:16:06Z</time>
					</trkpt>
					<trkpt lat="47.953320" lon="1.828400">
						<ele>118</ele>
						<time>2022-01-27T11:16:14Z</time>
					</trkpt>
					<trkpt lat="47.952940" lon="1.828730">
						<ele>117</ele>
						<time>2022-01-27T11:16:22Z</time>
					</trkpt>
					<trkpt lat="47.952630" lon="1.828960">
						<ele>116</ele>
						<time>2022-01-27T11:16:28Z</time>
					</trkpt>
					<trkpt lat="47.952370" lon="1.829100">
						<ele>116</ele>
						<time>2022-01-27T11:16:33Z</time>
					</trkpt>
					<trkpt lat="47.951310" lon="1.829450">
						<ele>118</ele>
						<time>2022-01-27T11:16:52Z</time>
					</trkpt>
					<trkpt lat="47.949790" lon="1.830180">
						<ele>117</ele>
						<time>2022-01-27T11:17:21Z</time>
					</trkpt>
					<trkpt lat="47.949230" lon="1.830410">
						<ele>117</ele>
						<time>2022-01-27T11:17:31Z</time>
					</trkpt>
					<trkpt lat="47.949080" lon="1.830460">
						<ele>117</ele>
						<time>2022-01-27T11:17:34Z</time>
					</trkpt>
					<trkpt lat="47.949030" lon="1.830390">
						<ele>117</ele>
						<time>2022-01-27T11:17:35Z</time>
					</trkpt>
					<trkpt lat="47.948980" lon="1.830390">
						<ele>117</ele>
						<time>2022-01-27T11:17:36Z</time>
					</trkpt>
					<trkpt lat="47.948940" lon="1.830270">
						<ele>117</ele>
						<time>2022-01-27T11:17:37Z</time>
					</trkpt>
					<trkpt lat="47.948820" lon="1.829610">
						<ele>117</ele>
						<time>2022-01-27T11:17:46Z</time>
					</trkpt>
					<trkpt lat="47.948470" lon="1.827130">
						<ele>117</ele>
						<time>2022-01-27T11:18:16Z</time>
					</trkpt>
					<trkpt lat="47.948250" lon="1.825760">
						<ele>115</ele>
						<time>2022-01-27T11:18:33Z</time>
					</trkpt>
					<trkpt lat="47.947880" lon="1.823150">
						<ele>115</ele>
						<time>2022-01-27T11:19:04Z</time>
					</trkpt>
					<trkpt lat="47.947870" lon="1.822710">
						<ele>114</ele>
						<time>2022-01-27T11:19:10Z</time>
					</trkpt>
					<trkpt lat="47.948000" lon="1.822110">
						<ele>114</ele>
						<time>2022-01-27T11:19:17Z</time>
					</trkpt>
					<trkpt lat="47.948110" lon="1.821410">
						<ele>113</ele>
						<time>2022-01-27T11:19:26Z</time>
					</trkpt>
					<trkpt lat="47.948120" lon="1.821180">
						<ele>114</ele>
						<time>2022-01-27T11:19:29Z</time>
					</trkpt>
					<trkpt lat="47.948090" lon="1.820670">
						<ele>114</ele>
						<time>2022-01-27T11:19:35Z</time>
					</trkpt>
					<trkpt lat="47.947990" lon="1.820410">
						<ele>115</ele>
						<time>2022-01-27T11:19:38Z</time>
					</trkpt>
					<trkpt lat="47.947780" lon="1.820070">
						<ele>115</ele>
						<time>2022-01-27T11:19:44Z</time>
					</trkpt>
					<trkpt lat="47.947500" lon="1.819300">
						<ele>118</ele>
						<time>2022-01-27T11:19:54Z</time>
					</trkpt>
					<trkpt lat="47.947420" lon="1.819120">
						<ele>118</ele>
						<time>2022-01-27T11:19:57Z</time>
					</trkpt>
					<trkpt lat="47.947210" lon="1.818710">
						<ele>118</ele>
						<time>2022-01-27T11:20:03Z</time>
					</trkpt>
					<trkpt lat="47.946970" lon="1.818290">
						<ele>118</ele>
						<time>2022-01-27T11:20:09Z</time>
					</trkpt>
					<trkpt lat="47.946980" lon="1.818240">
						<ele>118</ele>
						<time>2022-01-27T11:20:10Z</time>
					</trkpt>
					<trkpt lat="47.946980" lon="1.818180">
						<ele>118</ele>
						<time>2022-01-27T11:20:11Z</time>
					</trkpt>
					<trkpt lat="47.946950" lon="1.818140">
						<ele>118</ele>
						<time>2022-01-27T11:20:11Z</time>
					</trkpt>
					<trkpt lat="47.946910" lon="1.818130">
						<ele>117</ele>
						<time>2022-01-27T11:20:12Z</time>
					</trkpt>
					<trkpt lat="47.946880" lon="1.818150">
						<ele>117</ele>
						<time>2022-01-27T11:20:13Z</time>
					</trkpt>
					<trkpt lat="47.946860" lon="1.818210">
						<ele>117</ele>
						<time>2022-01-27T11:20:14Z</time>
					</trkpt>
					<trkpt lat="47.946870" lon="1.818270">
						<ele>117</ele>
						<time>2022-01-27T11:20:14Z</time>
					</trkpt>
					<trkpt lat="47.946810" lon="1.818340">
						<ele>117</ele>
						<time>2022-01-27T11:20:16Z</time>
					</trkpt>
					<trkpt lat="47.945490" lon="1.819470">
						<ele>117</ele>
						<time>2022-01-27T11:20:43Z</time>
					</trkpt>
					<trkpt lat="47.944140" lon="1.816660">
						<ele>117</ele>
						<time>2022-01-27T11:21:24Z</time>
					</trkpt>
					<trkpt lat="47.943870" lon="1.816140">
						<ele>116</ele>
						<time>2022-01-27T11:21:32Z</time>
					</trkpt>
					<trkpt lat="47.943790" lon="1.816080">
						<ele>116</ele>
						<time>2022-01-27T11:21:33Z</time>
					</trkpt>
					<trkpt lat="47.943690" lon="1.816100">
						<ele>117</ele>
						<time>2022-01-27T11:21:35Z</time>
					</trkpt>
					<trkpt lat="47.943690" lon="1.816040">
						<ele>117</ele>
						<time>2022-01-27T11:21:36Z</time>
					</trkpt>
					<trkpt lat="47.943650" lon="1.815940">
						<ele>117</ele>
						<time>2022-01-27T11:21:37Z</time>
					</trkpt>
					<trkpt lat="47.943590" lon="1.815870">
						<ele>117</ele>
						<time>2022-01-27T11:21:39Z</time>
					</trkpt>
					<trkpt lat="47.943520" lon="1.815850">
						<ele>117</ele>
						<time>2022-01-27T11:21:40Z</time>
					</trkpt>
					<trkpt lat="47.943470" lon="1.815860">
						<ele>117</ele>
						<time>2022-01-27T11:21:41Z</time>
					</trkpt>
					<trkpt lat="47.943370" lon="1.815730">
						<ele>117</ele>
						<time>2022-01-27T11:21:43Z</time>
					</trkpt>
					<trkpt lat="47.943180" lon="1.815350">
						<ele>116</ele>
						<time>2022-01-27T11:21:49Z</time>
					</trkpt>
					<trkpt lat="47.942780" lon="1.814420">
						<ele>116</ele>
						<time>2022-01-27T11:22:02Z</time>
					</trkpt>
					<trkpt lat="47.942600" lon="1.813880">
						<ele>115</ele>
						<time>2022-01-27T11:22:09Z</time>
					</trkpt>
					<trkpt lat="47.942530" lon="1.813850">
						<ele>115</ele>
						<time>2022-01-27T11:22:11Z</time>
					</trkpt>
					<trkpt lat="47.942440" lon="1.813940">
						<ele>115</ele>
						<time>2022-01-27T11:22:12Z</time>
					</trkpt>
					<trkpt lat="47.942280" lon="1.814050">
						<ele>115</ele>
						<time>2022-01-27T11:22:16Z</time>
					</trkpt>
					<trkpt lat="47.942000" lon="1.813470">
						<ele>116</ele>
						<time>2022-01-27T11:22:24Z</time>
					</trkpt>
					</trkseg>
				</trk>
			</gpx>
